periphery/tests_16_jan/test_1/merged_3.vcd
$date 2026-01-16 19:07:48 $end
$timescale 1 us $end
$scope module debug $end
$var logic 1 ! clk $end
$var logic 8 " data $end
$var logic 8 # state $end
$var logic 1 $ pcinc $end
$var logic 1 % not_scclear $end
$var logic 1 & not_instread $end
$upscope $end
$scope module interface $end
$var logic 1 ' clk $end
$var logic 8 ( data $end
$var logic 16 ) address $end
$var logic 1 * not_read $end
$var logic 1 + not_write $end
$upscope $end
$enddefinitions $end
#0
$dumpvars
1!
b10000 "
b11111000 #
0$
1%
0&
1'
b11001000 (
b1111111111110101 )
1*
1+
$end
#40376
b11000000 (
#77520
0!
#78632
0'
#238000
b1000000 (
#366520
b11000000 (
#389904
b11001010 (
#440896
b11000000 (
#447276
b11001000 (
#453644
b11000000 (
#474904
b1000000 (
#580976
1'
#581400
1!
#970616
b0 (
#1076184
0'
#1077120
0!
#1101608
b1000 (
#1111376
b0 (
#1926612
b1000000 (
#1934772
b1100000 (
#1936812
b1101000 (
#1945316
b1100000 (
#1965716
b1000000 (
#2002432
b0 (
#2117776
b1000000 (
#2203464
b0 (
#3444880
b0 )
#3445556
b0 "
b10000000 #
#4010552
1!
#4011752
1'
#4074732
0'
#4075068
0!
#4577504
1!
#4578612
1'
#5074072
0!
#5074416
0'
#5576508
1!
#5578296
1'
#6073080
0!
#6074108
0'
#6575512
1!
#6577988
1'
#6849212
0!
#6850916
0'
#11572244
1!
#11575300
1'
#12067964
0!
#12070000
0'
#12070004
b10001000 #
#12384156
b10000000 #
#12571836
1!
#12573200
1'
#13067560
0!
#13069600
0'
#13571436
1!
#13572808
1'
#14065116
0!
#14069196
b10001000 #
#14069200
0'
#17043524
1!
#17045900
1'
#17063916
0!
#17065960
1$
0%
1&
#17067996
b10010000 #
#17068000
0'
#17069708
0*
#17567804
1!
#17571340
1'
b10100 (
#18063520
0!
#18065560
b10000000 #
0$
1%
0&
#18067432
0'
#18069224
1*
#18565360
1!
#18570800
1'
#19061080
0!
#19065160
b1 "
b10001000 #
#19067032
0'
#19564960
1!
#19570408
1'
#20060680
0!
#20062716
b0 "
b10010000 #
1$
0%
1&
#20064848
0'
#20066632
0*
#20564556
1!
#20570068
1'
#21060280
0!
1%
0&
#21062320
b10000000 #
0$
#21064452
0'
#21066232
1*
#21564160
1!
#21567816
1'
#22059880
0!
#22061920
b10 "
b10001000 #
#22064044
0'
#22563756
1!
#22567416
1'
#23059484
0!
1$
0%
1&
#23061524
b0 "
b10010000 #
#23063648
0'
#23065432
0*
#23383840
b10100 "
#23562344
1!
#23567088
1'
#24057464
0!
0&
#24059588
0$
1%
#24061712
b0 "
b10000101 #
#24063244
0'
#24065032
1*
#24561512
1!
#24566616
1'
#25057232
0!
#25059272
b11 "
b10001101 #
#25062844
0'
#25561120
1!
#25566216
1'
#26056832
0!
#26058876
b10100 "
b10010101 #
1$
1&
#26062444
0'
#26064232
0*
#26560372
1!
#26565880
1'
#27055496
0!
#27059748
b10011101 #
#27062052
0'
#27063832
b1 )
#27559124
1!
#27561248
b10101 "
#27565480
1'
b11111111 (
#28054248
0!
0&
#28056372
0$
#28058496
b0 "
b10100101 #
#28060964
0'
#28062836
1*
#28558300
1!
#28563996
1'
#29054024
0!
#29056064
b101 "
b10101101 #
#29059544
0'
#29557900
1!
#29564448
1'
#30053620
0!
1&
#30055660
b11111111 "
b10110101 #
1$
0%
#30059996
0'
#30061864
0*
#30557328
1!
#30563100
1'
#31052368
0!
0$
1%
0&
#31054580
b10000100 #
#31058584
0'
#31060448
1*
#31556248
1!
#31563484
1'
#32051296
0!
#32059032
0'
#32210408
b11111011 "
#32223668
b10111011 "
#32243556
b10111001 "
#32272288
b10110001 "
#32382788
b10010001 "
#32420360
b10001 "
#32450108
b10000 "
#32554232
1!
#32562056
1'
#33049356
0!
#33057612
0'
#33552984
1!
#33560636
1'
#34050232
0!
#34058060
0'
#34553860
1!
#34561088
1'
#35048984
0!
#35056636
0'
#35552608
1!
#35559668
1'
#36047732
0!
#36055216
0'
#36551360
1!
#36560116
1'
#37046484
0!
#37055664
0'
#37550116
1!
#37558696
1'
#38045232
0!
#38054248
0'
#38548860
1!
#38559148
1'
#39046108
0!
#39054696
0'
#39549732
1!
#39557728
1'
#40044860
0!
#40053276
0'
#40548484
1!
#40558176
1'
#41043608
0!
#41053728
0'
#41547232
1!
#41556764
1'
#41931864
b10000000 "
#41940108
b0 )
#41942908
b0 "
#42042868
0!
#42052312
0'
#42546748
1!
#42555336
1'
#43042468
0!
#43046548
b10001100 #
#43052764
0'
#43546348
1!
#43555788
1'
#44042068
0!
1$
0%
1&
#44044108
b11111111 "
b10010100 #
#44051336
0'
#44053212
0*
#44543568
1!
#44547988
b10100 "
#44554432
1'
b10100 (
#45040988
0!
0$
1%
0&
#45043112
b0 "
b10000101 #
#45050604
0'
#45052380
1*
#45542912
1!
#45553968
1'
#46038632
0!
#46042712
b1 "
b10001101 #
#46050196
0'
#46542512
1!
#46553568
1'
#47038232
0!
#47040272
1$
1&
#47042312
b10100 "
b10010101 #
#47049796
0'
#47051588
0*
#47541688
1!
#47553236
1'
#48036812
0!
#48041068
b10011101 #
#48049396
0'
#48051180
b1 )
#48540440
1!
#48544688
b10101 "
#48552840
1'
b11111111 (
#49037688
0!
0$
0&
#49039812
b0 "
b10100101 #
#49048324
0'
#49050188
1*
#49539612
1!
#49551348
1'
#50035332
0!
#50037372
b11 "
b10101101 #
#50046896
0'
#50539212
1!
#50551796
1'
#51034932
0!
#51036972
1$
0%
1&
#51039012
b11111111 "
b10110101 #
#51047344
0'
#51049224
0*
#51538472
1!
#51550444
1'
#52033512
0!
#52035724
0$
1%
0&
#52037932
b10000100 #
#52045924
0'
#52047796
1*
#52537400
1!
#52550828
1'
#53034644
0!
#53046376
0'
#53160612
b11111011 "
#53184924
b10111011 "
#53200392
b10111001 "
#53231332
b10110001 "
#53344044
b10010001 "
#53355092
b10001 "
#53414592
b10000 "
#53537848
1!
#53549408
1'
#54032968
0!
#54044956
0'
#54536592
1!
#54547988
1'
#55031716
0!
#55045404
0'
#55535344
1!
#55548436
1'
#56030468
0!
#56043984
0'
#56534100
1!
#56547024
1'
#57029220
0!
#57042572
0'
#57532844
1!
#57547472
1'
#58030100
0!
#58043024
0'
#58533720
1!
#58546048
1'
#59028844
0!
#59041604
0'
#59532468
1!
#59546496
1'
#59727976
b10000000 "
#59739016
b0 "
#59739108
b0 )
#60028700
0!
#60042052
0'
#60530540
1!
#60545076
1'
#61026260
0!
#61040628
0'
#61530144
1!
#61545528
1'
#62025860
0!
#62029944
b10001100 #
#62041076
0'
#62529740
1!
#62544108
1'
#63025456
0!
0%
1&
#63027500
b11111111 "
b10010100 #
1$
#63039656
0'
#63041524
0*
#63529168
1!
#63531376
b10100 "
#63542752
1'
b10100 (
#64024380
0!
0&
#64026504
b0 "
b10000101 #
0$
1%
#64038916
0'
#64040708
1*
#64528344
1!
#64542288
1'
#65024068
0!
#65026108
b1 "
b10001101 #
#65038516
0'
#65527944
1!
#65541892
1'
#66023664
0!
1$
1&
#66025704
b10100 "
b10010101 #
#66038116
0'
#66039900
0*
#66525080
1!
#66541552
1'
#67022328
0!
#67024452
b10011101 #
#67037716
0'
#67039500
b1 )
#67525952
1!
#67528080
b10101 "
#67541152
1'
b11111111 (
#68021076
0!
0&
#68023204
b0 "
b10100101 #
0$
#68036636
0'
#68038504
1*
#68525044
1!
#68539668
1'
#69020768
0!
#69024848
b11 "
b10101101 #
#69037084
0'
#69524644
1!
#69540116
1'
#70018324
0!
#70020364
1$
0%
1&
#70022404
b11111111 "
b10110101 #
#70035668
0'
#70037536
0*
#70521868
1!
#70538760
1'
#71019112
0!
0$
1%
0&
#71021324
b10000100 #
#71034244
0'
#71036116
1*
#71520784
1!
#71539148
1'
#72018040
0!
#72034696
0'
#72137372
b11111011 "
#72166104
b10111011 "
#72188204
b10111001 "
#72208092
b10110001 "
#72318592
b10010001 "
#72351744
b10001 "
#72379368
b10000 "
#72521748
1!
#72537732
1'
#73016868
0!
#73033276
0'
#73520492
1!
#73538184
1'
#74015620
0!
#74033728
0'
#74519244
1!
#74536764
1'
#75014368
0!
#75032312
0'
#75518000
1!
#75537212
1'
#76015244
0!
#76032764
0'
#76516744
1!
#76535788
1'
#77013992
0!
#77031336
0'
#77517620
1!
#77534368
1'
#78012744
0!
#78031784
0'
#78516368
1!
#78534816
1'
#79011492
0!
#79030368
0'
#79515120
1!
#79533396
1'
#79629868
b0 "
#79645596
b0 )
#80011356
0!
#80028944
0'
#80515228
1!
#80533848
1'
#81010948
0!
#81012988
b10001100 #
#81029396
0'
#81512788
1!
#81532428
1'
#82008508
0!
#82010548
b11111110 "
b10010100 #
1$
0%
1&
#82012756
b11111111 "
#82027976
0'
#82029844
0*
#82512220
1!
#82516640
b10100 "
#82532940
1'
b10100 (
#83007520
0!
0&
#83009644
b0 "
b10000100 #
0$
1%
#83011684
b10000101 #
#83027320
0'
#83029104
1*
#83511476
1!
#83530692
1'
#84007200
0!
#84009236
b1 "
b10001101 #
#84026920
0'
#84511076
1!
#84530292
1'
#85006800
0!
1&
#85008840
b10100 "
b10010101 #
1$
#85026528
0'
#85028304
0*
#85510340
1!
#85529956
1'
#86005464
0!
#86009712
b10011101 #
#86026120
0'
#86027912
b1 )
#86509088
1!
#86511212
b10101 "
#86529556
1'
b11111111 (
#87004220
0!
0&
#87006340
b10101101 #
0$
#87008464
b0 "
b10100101 #
#87025040
0'
#87026912
1*
#87508264
1!
#87529940
1'
#88003984
0!
#88008064
b11 "
b10101101 #
#88025492
0'
#88507864
1!
#88528528
1'
#89003584
0!
0%
1&
#89005624
b11111111 "
b10110101 #
1$
#89024072
0'
#89025940
0*
#89507292
1!
#89527172
1'
#90002332
0!
0&
#90004548
0$
1%
#90006752
b10000100 #
#90024520
0'
#90026392
1*
#90506212
1!
#90527556
1'
#91001252
0!
#91023108
0'
#91129432
b11111011 "
#91149328
b10111011 "
#91180264
b10111001 "
#91197944
b10110001 "
#91308444
b10010001 "
#91334964
b10001 "
#91356220
b10000 "
