periphery/tests_16_jan/test_1/merged_2.vcd
$date 2026-01-16 19:07:43 $end
$timescale 1 us $end
$scope module debug $end
$var logic 1 ! clk $end
$var logic 8 " data $end
$var logic 8 # state $end
$var logic 1 $ pcinc $end
$var logic 1 % not_scclear $end
$var logic 1 & not_instread $end
$upscope $end
$scope module interface $end
$var logic 1 ' clk $end
$var logic 8 ( data $end
$var logic 16 ) address $end
$var logic 1 * not_read $end
$var logic 1 + not_write $end
$upscope $end
$enddefinitions $end
#0
$dumpvars
1!
b0 "
b10000000 #
0$
1%
1&
1'
b10100 (
b0 )
0*
1+
$end
#494616
0!
#495244
0'
#496864
1*
#998868
1'
#999008
1!
#1493620
0!
#1495276
0'
#1998016
1!
#1998468
1'
#2492632
0!
#2494868
0'
#2496568
0*
#2997016
1!
#2998132
1'
#3493584
0!
#3494468
0'
#3496176
1*
#3997668
1'
#4494068
0'
#4997276
1'
#5491976
0'
#5493668
0*
#5996932
1'
#6491568
0'
#6493276
1*
#6996468
1'
#7491168
0'
#7994368
1'
#8490768
0'
#8492468
0*
#8994040
1'
#9490368
0'
#9492068
b1 )
#9994316
1'
b11111111 (
#10489796
0'
#10491668
1*
#10992836
1'
#11490248
0'
#11993284
1'
#12488836
0'
#12490696
0*
#12991924
1'
#13487416
0'
#13489284
1*
#13992308
1'
#14487864
0'
#14990888
1'
#15486440
0'
#15991340
1'
#16486888
0'
#16989920
1'
#17485468
0'
#17990368
1'
#18485920
0'
#18984324
1!
#18988948
1'
#19480048
0!
#19482088
b10001000 #
#19484496
0'
#19981888
1!
#19987528
1'
#20477604
0!
#20484948
0'
#20889688
0%
#20891728
b10010000 #
1$
#20981484
1!
#20983524
0&
#20987980
1'
#21477204
0!
#21479248
b10000000 #
0$
1%
#21483528
0'
#21981084
1!
1&
#21986564
1'
#22476804
0!
#22478844
b10001000 #
#22480884
b1 "
#22483976
0'
#22980688
1!
#23476412
0!
#23478452
b10010000 #
1$
0%
#23484572
b0 "
#23542396
b0 )
#23980292
1!
0&
#24476008
0!
#24478048
b10000000 #
0$
1%
#24977848
1!
#24979884
1&
#25473568
0!
#25477644
b10 "
b10001000 #
#25977448
1!
#26473164
0!
0%
#26475204
b0 "
b10010000 #
1$
#26977048
1!
#26979084
0&
#27062724
b10100 "
#27472852
0!
0$
1%
#27474976
b0 "
b10000101 #
#27976816
1!
#27978856
1&
#28472544
0!
#28474584
b11 "
b10001101 #
#28974376
1!
#29470096
0!
#29472136
1$
#29474176
b10101 "
b10010101 #
#29482676
b10100 "
#29973552
1!
#30470800
0!
#30472928
b10011101 #
#30974424
1!
#30980800
b10101 "
#31469552
0!
#31471676
b0 "
b10100101 #
0$
#31973516
1!
#32469244
0!
#32471284
b101 "
b10101101 #
#32971076
1!
#33466796
0!
#33468836
1$
0%
#33470876
b11111111 "
b10110101 #
#33970344
1!
#33972544
0&
#33980740
1'
#34467588
0!
0$
1%
#34469796
b10000100 #
#34476296
0'
#34969256
1!
#34971464
1&
#34979320
1'
#35176996
b11111110 "
#35183628
b11111111 "
#35196888
b11111110 "
#35391368
b11111010 "
#35435568
b11111000 "
#35442196
b10111000 "
#35446616
b11111000 "
#35451044
b10111000 "
#35455456
b10110000 "
#35466508
0!
#35474868
0'
#35550488
b10010000 "
#35563752
b10110000 "
#35565956
b10010000 "
#35733916
b10000 "
#35744540
b10010000 "
#35748960
b10000 "
#35969960
1!
#35979768
1'
#36465088
0!
#36475320
0'
#36968712
1!
#36978348
1'
#37463836
0!
#37473896
0'
#37967460
1!
#37978800
1'
#38462584
0!
#38474348
0'
#38966212
1!
#38977380
1'
#39461336
0!
#39472928
0'
#39964960
1!
#39975960
1'
#40462212
0!
#40473376
0'
#40965836
1!
#40976408
1'
#41460968
0!
#41471960
0'
#41964588
1!
#41974996
1'
#42459712
0!
#42472408
0'
#42963336
1!
#42975444
1'
#43458460
0!
#43470992
0'
#43974020
1'
#44469568
0'
#44903460
b10000000 "
#44907880
b0 "
