periphery/tests_20_jan/merged_1.vcd
$date 2026-01-20 16:22:18 $end
$timescale 1 us $end
$scope module debug $end
$var logic 1 ! clk $end
$var logic 8 " data $end
$var logic 8 # state $end
$var logic 1 $ pcinc $end
$var logic 1 % not_scclear $end
$var logic 1 & not_instread $end
$var logic 1 ' not_enable $end
$var logic 1 ( direction $end
$upscope $end
$scope module interface $end
$var logic 1 ) clk $end
$var logic 8 * data $end
$var logic 16 + address $end
$var logic 1 , not_read $end
$var logic 1 - not_write $end
$upscope $end
$enddefinitions $end
#0
$dumpvars
1!
b0 "
b10000010 #
0$
1%
0&
1'
0(
1)
b11111111 *
b0 +
1,
1-
$end
#9348
b0 *
#19548
b11111111 *
#28900
b0 *
#39096
b11101111 *
#40968
b11111111 *
#48448
b101000 *
#50232
b0 *
#58732
b10101000 *
#60604
b11111111 *
#68084
b101111 *
#69868
b0 *
#78376
b101000 *
#80152
b11111111 *
#89504
b0 *
#99704
b11111111 *
#109052
b0 *
#119252
b11111111 *
#128608
b0 *
#138808
b11111111 *
#148160
b0 *
#158360
b11101111 *
#160224
b11111111 *
#167704
b1000 *
#169404
b0 *
#177904
b10101000 *
#179780
b11111111 *
#187252
b101000 *
#189044
b0 *
#197540
b101000 *
#199328
b11111111 *
#208672
b0 *
#218872
b11111111 *
#228224
b0 *
#238424
b11111111 *
#247772
b0 *
#257972
b11111111 *
#267324
b0 *
#277524
b11101111 *
#279392
b11111111 *
#286872
b0 *
#297072
b10101000 *
#298944
b11111111 *
#306424
b101000 *
#307012
0!
#308208
0)
b0 *
#316708
b1000 *
#318408
b11111111 *
#325888
b10101110 *
#327760
b0 *
#337956
b11111111 *
#347308
b0 *
#357508
b11111111 *
#366856
b0 *
#377060
b11101111 *
#378928
b11111111 *
#386408
b0 *
#396608
b10101000 *
#398480
b11111111 *
#405956
b0 *
#416160
b101000 *
#417944
b11111111 *
#425424
b101000 *
#427208
b0 *
#437408
b11111111 *
#446760
b0 *
#456956
b11111111 *
#466308
b0 *
#476508
b11111111 *
#485856
b0 *
#496056
b11101110 *
#497928
b11111111 *
#505412
b0 *
#515616
b10101000 *
#517480
b11111111 *
#524964
b101000 *
#526744
b0 *
#535248
b101000 *
#537028
b11111111 *
#544508
b101000 *
#546292
b0 *
#556492
b11111111 *
#565848
b0 *
#576048
b11111111 *
#585400
b0 *
#595600
b11111111 *
#604944
b0 *
#615148
b11101110 *
#617020
b11111111 *
#624492
b0 *
#634692
b101000 *
#636484
b11111111 *
#643956
b101000 *
#645748
b0 *
#654244
b101000 *
#656036
b11111111 *
#663508
b11101110 *
#665376
b0 *
#675576
b11111111 *
#684928
b0 *
#695128
b11111111 *
#704476
b0 *
#714676
b11111111 *
#724028
b0 *
#734228
b10101110 *
#736100
b11111111 *
#743576
b0 *
#753780
b101000 *
#755564
b11111111 *
#763044
b101000 *
#764828
b0 *
#773328
b1000 *
#775028
b11111111 *
#784380
b0 *
#794580
b11111111 *
#803928
b0 *
#811572
1!
#812428
1)
#814128
b11111111 *
#823480
b0 *
#833676
b11111111 *
#843028
b0 *
#853228
b11101111 *
#855100
b11111111 *
#862580
b101000 *
#864364
b0 *
#872864
b10101000 *
#874732
b11111111 *
#882220
b10101111 *
#884084
b0 *
#892588
b101000 *
#894368
b11111111 *
#903724
b0 *
#912220
b101000 *
#914008
b11111111 *
#923360
b0 *
#933560
b11111111 *
#942904
b0 *
#953104
b11111111 *
#962452
b0 *
#972652
b11111111 *
#982004
b0 *
#992204
b11101111 *
#994072
b11111111 *
#1001552
b101000 *
#1003340
b0 *
#1011840
b10101000 *
#1013708
b11111111 *
#1021188
b10101111 *
#1023060
b0 *
#1031556
b101000 *
#1033344
b11111111 *
#1042692
b0 *
#1052892
b11111111 *
#1062244
b0 *
#1072444
b11111111 *
#1081792
b0 *
#1091992
b11111111 *
#1101348
b0 *
#1111544
b11101111 *
#1113412
b11111111 *
#1120900
b101000 *
#1122680
b0 *
#1131184
b10101111 *
#1133048
b11111111 *
#1140528
b101000 *
#1142320
b0 *
#1150812
b10101000 *
#1152688
b11111111 *
#1160164
b10101111 *
#1162032
b0 *
#1170532
b101000 *
#1172320
b11111111 *
#1181668
b0 *
#1191868
b11111111 *
#1201220
b0 *
#1211420
b11111111 *
#1220768
b0 *
#1230968
b11111111 *
#1240320
b0 *
#1250520
b11101111 *
#1252388
b11111111 *
#1259868
b101000 *
#1261652
b0 *
#1270152
b10101000 *
#1272024
b11111111 *
#1279508
b101000 *
#1281288
b0 *
#1289796
b101000 *
#1291572
b11111111 *
#1299060
b11101111 *
#1300924
b0 *
#1306612
0!
#1307724
0)
#1311124
b11111111 *
#1320480
b0 *
#1330672
b11111111 *
#1340028
b0 *
#1350228
b11111111 *
#1359580
b0 *
#1369780
b11101110 *
#1371644
b11111111 *
#1379124
b0 *
#1389324
b10101000 *
#1391200
b11111111 *
#1398672
b101000 *
#1400464
b0 *
#1408960
b101000 *
#1410748
b11111111 *
#1418224
b10101000 *
#1420092
b0 *
#1430292
b11111111 *
#1439644
b0 *
#1449844
b11111111 *
#1459192
b0 *
#1469392
b11111111 *
#1478744
b0 *
#1488944
b11101110 *
#1490812
b11111111 *
#1498292
b0 *
#1508492
b10101000 *
#1510364
b11111111 *
#1517844
b101000 *
#1519628
b0 *
#1528128
b101000 *
#1529912
b11111111 *
#1537392
b10101000 *
#1539264
b0 *
#1549464
b11111111 *
#1558812
b0 *
#1569012
b11111111 *
#1578364
b0 *
#1588564
b11111111 *
#1597912
b0 *
#1608112
b11101111 *
#1609984
b11111111 *
#1617468
b0 *
#1627668
b10101000 *
#1629532
b11111111 *
#1637020
b101000 *
#1638796
b0 *
#1647304
b101000 *
#1649084
b11111111 *
#1656564
b10101000 *
#1658440
b0 *
#1666932
b101000 *
#1668724
b11111111 *
#1678068
b0 *
#1688276
b11111111 *
#1697620
b0 *
#1707820
b11111111 *
#1717168
b0 *
#1727368
b11111111 *
#1736716
b0 *
#1746916
b11101110 *
#1748788
b11111111 *
#1756268
b101000 *
#1758052
b0 *
#1766552
b10101000 *
#1768424
b11111111 *
#1775904
b101000 *
#1777688
b0 *
#1786188
b101000 *
#1787972
b11111111 *
#1797324
b0 *
#1807524
b11111111 *
#1811172
1!
#1811264
1)
#1816872
b0 *
#1827072
b11111111 *
#1836424
b0 *
#1846624
b11111111 *
#1855972
b0 *
#1866172
b11111111 *
#1875528
b101000 *
#1877308
b0 *
#1885816
b11101111 *
#1887680
b11111111 *
#1895160
b10101001 *
#1897036
b0 *
#1905528
b10101111 *
#1907404
b11111111 *
#1914880
b11101111 *
#1916748
b0 *
#1925248
b10101000 *
#1927120
b11111111 *
#1934600
b11101111 *
#1936468
b0 *
#1944968
b101000 *
#1946752
b11111111 *
#1956104
b0 *
#1966304
b11111111 *
#1975652
b0 *
#1985852
b11111111 *
#1995204
b0 *
#2005404
b11111111 *
#2014760
b0 *
#2024952
b11101111 *
#2026824
b11111111 *
#2034308
b101000 *
#2036088
b0 *
#2044596
b10101000 *
#2046460
b11111111 *
#2053940
b101000 *
#2055728
b0 *
#2064224
b101000 *
#2066016
b11111111 *
#2075364
b0 *
#2085564
b11111111 *
#2094908
b0 *
#2105108
b11111111 *
#2114460
b0 *
#2124656
b11111111 *
#2134008
b0 *
#2144208
b11101111 *
#2146080
b11111111 *
#2153560
b101000 *
#2155344
b0 *
#2163844
b11101111 *
#2165712
b11111111 *
#2173192
b101001 *
#2174980
b0 *
#2183480
b10101001 *
#2185348
b11111111 *
#2192828
b11101111 *
#2194700
b0 *
#2203204
b101000 *
#2204984
b11111111 *
#2214332
b0 *
#2224532
b11111111 *
#2233888
b0 *
#2244084
b11111111 *
#2253440
b0 *
#2263640
b11111111 *
#2272988
b0 *
#2283188
b11101111 *
#2285052
b11111111 *
#2292532
b101000 *
#2294324
b0 *
#2302820
b10101011 *
#2304696
b11111111 *
#2306212
0!
#2306556
0)
#2312168
b101000 *
#2313960
b0 *
#2322452
b101000 *
#2324236
b11111111 *
#2331716
b10101000 *
#2333588
b0 *
#2343788
b11111111 *
#2353136
b0 *
#2363336
b11111111 *
#2372688
b0 *
#2382888
b11111111 *
#2392236
b0 *
#2402436
b10101010 *
#2404308
b11111111 *
#2411788
b0 *
#2421988
b101000 *
#2423772
b11111111 *
#2431252
b101000 *
#2433036
b0 *
#2443236
b11111111 *
#2450720
b11101111 *
#2452588
b0 *
#2462788
b11111111 *
#2472136
b0 *
#2482336
b11111111 *
#2491688
b0 *
#2501888
b11101111 *
#2503760
b11111111 *
#2511236
b0 *
#2521440
b10101000 *
#2523308
b11111111 *
#2530788
b0 *
#2540988
b101000 *
#2542772
b11111111 *
#2550252
b101000 *
#2552036
b0 *
#2562236
b11111111 *
#2571588
b0 *
#2581788
b11111111 *
#2591136
b0 *
#2601340
b11111111 *
#2610688
b0 *
#2620888
b11101111 *
#2622756
b11111111 *
#2630244
b0 *
#2640444
b10101000 *
#2642308
b11111111 *
#2649792
b101000 *
#2651572
b0 *
#2660076
b101000 *
#2661860
b11111111 *
#2669336
b10101010 *
#2671216
b0 *
#2681412
b11111111 *
#2690764
b0 *
#2700964
b11111111 *
#2710308
b0 *
#2720508
b11111111 *
#2729856
b0 *
#2740056
b11101111 *
#2741936
b11111111 *
#2749408
b0 *
#2759608
b10101000 *
#2761480
b11111111 *
#2768960
b101000 *
#2770744
b0 *
#2779244
b101000 *
#2781028
b11111111 *
#2788508
b10101111 *
#2790376
b0 *
#2800576
b11111111 *
#2809928
b0 *
#2810772
1!
#2811628
1)
#2820128
b11111111 *
#2829480
b0 *
#2839680
b11111111 *
#2849028
b0 *
#2859228
b11111111 *
#2868576
b100000 *
#2870364
b0 *
#2878864
b11101111 *
#2880732
b11111111 *
#2888220
b101000 *
#2889996
b0 *
#2898504
b10101001 *
#2900368
b11111111 *
#2907856
b10101111 *
#2909724
b0 *
#2918220
b10101000 *
#2920096
b11111111 *
#2927568
b11101111 *
#2929440
b0 *
#2937940
b101000 *
#2939724
b11111111 *
#2949072
b0 *
#2959272
b11111111 *
#2968624
b0 *
#2978824
b11111111 *
#2988172
b0 *
#2998372
b11111111 *
#3007724
b0 *
#3017924
b11101111 *
#3019792
b11111111 *
#3027272
b101000 *
#3029056
b0 *
#3037560
b11101011 *
#3039428
b11111111 *
#3046908
b10101001 *
#3048780
b0 *
#3057284
b10101000 *
#3059148
b11111111 *
#3066628
b11101111 *
#3068504
b0 *
#3077000
b101000 *
#3078788
b11111111 *
#3088132
b0 *
#3096632
b100000 *
#3098420
b11111111 *
#3107768
b0 *
#3117968
b11111111 *
#3127320
b0 *
#3137520
b11111111 *
#3146868
b0 *
#3157068
b11111111 *
#3166420
b101000 *
#3168204
b0 *
#3176704
b11101111 *
#3178572
b11111111 *
#3186052
b101000 *
#3187836
b0 *
#3196336
b10101000 *
#3198208
b11111111 *
#3205696
b11101111 *
#3207556
b0 *
#3216064
b10101000 *
#3217936
b11111111 *
#3227284
b0 *
#3235780
b101000 *
#3237568
b11111111 *
#3246912
b0 *
#3257112
b11111111 *
#3266464
b0 *
#3276664
b11111111 *
#3286012
b0 *
#3296212
b11111111 *
#3305564
b0 *
#3305812
0!
#3307264
0)
#3315764
b10101000 *
#3317632
b11111111 *
#3325112
b100000 *
#3326900
b0 *
#3335400
b10101000 *
#3337268
b11111111 *
#3344748
b101000 *
#3346532
b0 *
#3355032
b101000 *
#3356816
b11111111 *
#3366168
b0 *
#3376368
b11111111 *
#3385720
b0 *
#3395916
b11111111 *
#3405268
b0 *
#3415468
b11111111 *
#3424824
b0 *
#3435024
b11101110 *
#3436888
b11111111 *
#3444376
b0 *
#3454576
b10101000 *
#3456436
b11111111 *
#3463916
b101000 *
#3465704
b0 *
#3474204
b101000 *
#3475996
b11111111 *
#3485344
b0 *
#3495544
b11111111 *
#3504888
b0 *
#3515096
b11111111 *
#3524440
b0 *
#3534636
b11111111 *
#3543988
b0 *
#3554188
b11101110 *
#3556064
b11111111 *
#3563540
b0 *
#3573736
b10101000 *
#3575608
b11111111 *
#3583088
b101000 *
#3584872
b0 *
#3593372
b101000 *
#3595156
b11111111 *
#3604508
b0 *
#3614708
b11111111 *
#3624060
b0 *
#3634256
b11111111 *
#3643608
b0 *
#3653808
b11111111 *
#3663160
b0 *
#3673360
b11111110 *
#3675228
b11111111 *
#3682708
b0 *
#3692908
b10101000 *
#3694780
b11111111 *
#3702256
b101000 *
#3704044
b0 *
#3712548
b10101000 *
#3714412
b11111111 *
#3721900
b11101110 *
#3723764
b0 *
#3732264
b101000 *
#3734056
b11111111 *
#3743404
b0 *
#3753604
b11111111 *
#3762948
b0 *
#3773156
b11111111 *
#3782500
b0 *
#3792696
b11111111 *
#3802048
b0 *
#3807992
1!
#3810548
1)
#3812248
b11111111 *
#3821596
b101000 *
#3823384
b0 *
#3831884
b11101111 *
#3833752
b11111111 *
#3841232
b11101111 *
#3843104
b0 *
#3851604
b11101001 *
#3853472
b11111111 *
#3862824
b0 *
#3871328
b10101000 *
#3873192
b11111111 *
#3882548
b0 *
#3891044
b101000 *
#3892836
b11111111 *
#3902184
b0 *
#3912384
b11111111 *
#3921728
b0 *
#3931928
b11111111 *
#3941280
b0 *
#3951480
b11111111 *
#3960828
b100000 *
#3962612
b0 *
#3971112
b11111111 *
#3980464
b101000 *
#3982248
b0 *
#3990748
b11101011 *
#3992620
b11111111 *
#4000100
b11101001 *
#4001968
b0 *
#4010468
b10101000 *
#4012340
b11111111 *
#4019824
b11101111 *
#4021688
b0 *
#4030188
b10101000 *
#4032064
b11111111 *
#4041416
b0 *
#4049908
b101000 *
#4051692
b11111111 *
#4061044
b0 *
#4071244
b11111111 *
#4080592
b0 *
#4090792
b11111111 *
#4100144
b0 *
#4110344
b11111111 *
#4119692
b100000 *
#4121480
b0 *
#4129980
b11111111 *
#4139328
b101000 *
#4141112
b0 *
#4149612
b11101011 *
#4151484
b11111111 *
#4158964
b11101001 *
#4160832
b0 *
#4169340
b10101000 *
#4171204
b11111111 *
#4178684
b11101111 *
#4180560
b0 *
#4189052
b10101000 *
#4190928
b11111111 *
#4200272
b0 *
#4208772
b101000 *
#4210556
b11111111 *
#4219908
b0 *
#4230108
b11111111 *
#4239460
b0 *
#4249660
b11111111 *
#4259008
b0 *
#4269208
b11111111 *
#4278556
b0 *
#4288760
b11101111 *
#4290628
b11111111 *
#4298108
b101000 *
#4299892
b0 *
#4305412
0!
#4306692
0)
#4308392
b10101000 *
#4310264
b11111111 *
#4317748
b101000 *
#4319528
b0 *
#4328036
b101000 *
#4329812
b11111111 *
#4337300
b11101110 *
#4339164
b0 *
#4349364
b11111111 *
#4358720
b0 *
#4368920
b11111111 *
#4378268
b0 *
#4388468
b11111111 *
#4397812
b0 *
#4408020
b11101000 *
#4409888
b11111111 *
#4417364
b0 *
#4427564
b10101000 *
#4429440
b11111111 *
#4436912
b101000 *
#4438704
b0 *
#4447200
b101000 *
#4448988
b11111111 *
#4456464
b11101110 *
#4458332
b0 *
#4468532
b11111111 *
#4477884
b0 *
#4488084
b11111111 *
#4497432
b0 *
#4507632
b11111111 *
#4516984
b0 *
#4527184
b10101000 *
#4529052
b11111111 *
#4536532
b0 *
#4546732
b101000 *
#4548516
b11111111 *
#4556000
b101000 *
#4557784
b0 *
#4567984
b11111111 *
#4575464
b11101111 *
#4577332
b0 *
#4587532
b11111111 *
#4595012
b11101111 *
#4596884
b0 *
#4607084
b10101110 *
#4608952
b11111111 *
#4616432
b0 *
#4626632
b10101000 *
#4628504
b11111111 *
#4635984
b0 *
#4646184
b101000 *
#4647968
b11111111 *
#4655448
b0 *
#4667348
b11111111 *
#4674828
b10101000 *
#4676700
b0 *
#4686900
b11111111 *
#4696248
b0 *
#4706448
b11111111 *
#4715800
b0 *
#4726000
b11111111 *
#4735348
b0 *
#4745548
b10101010 *
#4747416
b11111111 *
#4754896
b0 *
#4765100
b101000 *
#4766884
b11111111 *
#4774364
b10101010 *
#4776232
b0 *
#4784740
b101000 *
#4786516
b11111111 *
#4795868
b0 *
#4806068
b11111111 *
#4807592
1!
#4809808
1)
#4815424
b0 *
#4825624
b11111111 *
#4834976
b0 *
#4845176
b11111111 *
#4854520
b101000 *
#4856304
b0 *
#4864804
b11111111 *
#4874152
b101000 *
#4875944
b0 *
#4884440
b11111111 *
#4893788
b11101111 *
#4895660
b0 *
#4904160
b11101111 *
#4906028
b11111111 *
#4915376
b0 *
#4923880
b11101111 *
#4925748
b11111111 *
#4935100
b0 *
#4943600
b11101001 *
#4945476
b11111111 *
#4954824
b0 *
#4963320
b10101000 *
#4965188
b11111111 *
#4974536
b0 *
#4983040
b101000 *
#4984824
b11111111 *
#4994172
b0 *
#5004372
b11111111 *
#5013724
b0 *
#5023924
b11111111 *
#5033272
b101000 *
#5035060
b0 *
#5043560
b11111111 *
#5052908
b10101000 *
#5054780
b0 *
#5063284
b11111111 *
#5072628
b11101111 *
#5074504
b0 *
#5082996
b11111111 *
#5094216
b0 *
#5102716
b11111111 *
#5113940
b0 *
#5122436
b11101111 *
#5124308
b11111111 *
#5133660
b0 *
#5142164
b11101111 *
#5144028
b11111111 *
#5153384
b0 *
#5161880
b11101011 *
#5163756
b11111111 *
#5173100
b0 *
#5181600
b11101000 *
#5183468
b11111111 *
#5192816
b0 *
#5201320
b10101000 *
#5203188
b11111111 *
#5212540
b101000 *
#5214324
b0 *
#5221124
b10101000 *
#5223000
b11111111 *
#5232348
b101000 *
#5234128
b0 *
#5240928
b11101000 *
#5242796
b11111111 *
#5252148
b10101000 *
#5254016
b0 *
#5260824
b11101111 *
#5262688
b11111111 *
#5272040
b11101001 *
#5273908
b0 *
#5280708
b11101111 *
#5282580
b11111111 *
#5291928
b11101001 *
#5293804
b0 *
#5300600
b11111111 *
#5305012
0!
#5306208
0)
#5311820
b10101000 *
#5313688
b0 *
#5320488
b11111111 *
#5331708
b10101000 *
#5333584
b0 *
#5340376
b11111111 *
#5351596
b10101000 *
#5353468
b0 *
#5360276
b11111111 *
#5371496
b10101000 *
#5373360
b0 *
#5380160
b11111111 *
#5391380
b10101000 *
#5393248
b0 *
#5400048
b11111111 *
#5411268
b10101000 *
#5413136
b0 *
#5419936
b11111111 *
#5431160
b10101000 *
#5433036
b0 *
#5439828
b11111111 *
#5451048
b10101000 *
#5452920
b0 *
#5459716
b11111111 *
#5470944
b10101000 *
#5472816
b0 *
#5479608
b11111111 *
#5490828
b10101000 *
#5492700
b0 *
#5499504
b11111111 *
#5510724
b10101000 *
#5512588
b0 *
#5519388
b11111111 *
#5530608
b10101000 *
#5532476
b0 *
#5539276
b11111111 *
#5550500
b10100000 *
#5552368
b0 *
#5559168
b11111111 *
#5570388
b100000 *
#5572180
b0 *
#5578972
b11111111 *
#5590192
b100000 *
#5591980
b0 *
#5598784
b11111111 *
#5610004
b100000 *
#5611784
b0 *
#5618584
b11111111 *
#5629804
b100000 *
#5631592
b0 *
#5638388
b11111111 *
#5649608
b10100000 *
#5651476
b0 *
#5658284
b11111111 *
#5669504
b100000 *
#5671284
b0 *
#5678084
b11111111 *
#5689304
b10100000 *
#5691172
b0 *
#5697972
b11111111 *
#5709192
b100000 *
#5710980
b0 *
#5717776
b11111111 *
#5729004
b100000 *
#5730784
b0 *
#5737584
b11111111 *
#5748804
b10101000 *
#5750672
b0 *
#5757480
b11111111 *
#5768692
b100000 *
#5770476
b0 *
#5777280
b11111111 *
#5788496
b10100000 *
#5790376
b0 *
#5797168
b11111111 *
#5807200
1!
#5808388
b10100000 *
#5810260
1)
b0 *
#5817064
b11111111 *
#5828284
b11101000 *
#5830156
b0 *
#5836948
b11111111 *
#5848168
b11101000 *
#5850040
b0 *
#5856844
b11111111 *
#5868064
b10100000 *
#5869928
b0 *
#5876728
b11111111 *
#5887948
b10100000 *
#5889820
b0 *
#5896620
b11111111 *
#5907840
b10100000 *
#5909708
b0 *
#5916508
b11111111 *
#5927728
b10100000 *
#5929604
b0 *
#5936400
b11111111 *
#5947616
b100000 *
#5949404
b0 *
#5956208
b11111111 *
#5967428
b10100000 *
#5969292
b0 *
#5976092
b11111111 *
#5987312
b10100000 *
#5989184
b0 *
#5995984
b11111110 *
#5997852
b11111111 *
#6007204
b10100000 *
#6009072
b0 *
#6015872
b11111111 *
#6027092
b10100000 *
#6028968
b0 *
#6035764
b11111110 *
#6037632
b11111111 *
#6046984
b10100000 *
#6048852
b0 *
#6055660
b11111110 *
#6057528
b11111111 *
#6066880
b10100000 *
#6068748
b0 *
#6075544
b11111110 *
#6077412
b11111111 *
#6086764
b10100000 *
#6088632
b0 *
#6095440
b11111111 *
#6106660
b10100000 *
#6108524
b0 *
#6115324
b11111111 *
#6126544
b10100000 *
#6128412
b0 *
#6135212
b11111111 *
#6146432
b10100000 *
#6148304
b0 *
#6155104
b11111111 *
#6166324
b100000 *
#6168116
b0 *
#6174908
b11111111 *
#6186128
b11100000 *
#6187996
b0 *
#6194804
b11111111 *
#6206024
b11100000 *
#6207888
b0 *
#6214688
b11111111 *
#6225908
b11100000 *
#6227780
b0 *
#6234580
b11111111 *
#6245800
b1100000 *
#6247584
b0 *
#6254384
b11111111 *
#6265604
b11100000 *
#6267480
b0 *
#6274272
b11111111 *
#6285492
b1100000 *
#6287276
b0 *
#6294084
b11111110 *
#6295948
b11111111 *
#6302232
0!
#6305304
0)
b11100000 *
#6307168
b0 *
#6313968
b11111110 *
#6315840
b11111111 *
#6323320
b11111110 *
#6325188
b100000 *
#6326980
b0 *
#6333772
b11111110 *
#6335644
b11111111 *
#6343124
b11111110 *
#6344992
b100000 *
#6346776
b0 *
#6353584
b11111110 *
#6355448
b11111111 *
#6364804
b100000 *
#6366584
b0 *
#6373384
b11111110 *
#6375252
b11111111 *
#6384604
b11100000 *
#6386472
b0 *
#6393272
b11111110 *
#6395144
b11111111 *
#6404492
b11100000 *
#6406364
b0 *
#6413164
b11111110 *
#6415040
b11111111 *
#6424384
b1100000 *
#6426176
b0 *
#6432968
b11111110 *
#6434840
b11111111 *
#6444188
b11100000 *
#6446060
b0 *
#6452864
b11111110 *
#6454728
b11111111 *
#6464084
b11100000 *
#6465948
b0 *
#6472748
b11111110 *
#6474620
b11111111 *
#6483968
b11100000 *
#6485840
b0 *
#6492636
b11111110 *
#6494508
b11111111 *
#6503860
b11100000 *
#6505728
b0 *
#6512528
b11111110 *
#6514404
b11111111 *
#6521876
b11111110 *
#6523748
b11100000 *
#6525624
b0 *
#6532420
b11111110 *
#6534288
b11111111 *
#6541768
b11111110 *
#6543640
b1100000 *
#6545424
b0 *
#6552228
b11111110 *
#6554092
b11111111 *
#6563448
b11100000 *
#6565312
b0 *
#6572112
b11111110 *
#6573984
b11111111 *
#6581464
b11111110 *
#6583332
b11100000 *
#6585204
b0 *
#6592008
b11111110 *
#6593872
b11111111 *
#6601360
b11111110 *
#6603224
b1100000 *
#6605008
b0 *
#6611808
b11111110 *
#6613684
b11111111 *
#6623028
b11100000 *
#6624904
b0 *
#6631696
b11111110 *
#6633568
b11111111 *
#6641048
b11111110 *
#6642920
b11100000 *
#6644788
b0 *
#6651596
b11111110 *
#6653464
b11111111 *
#6660940
b11111110 *
#6662816
b1100000 *
#6664592
b0 *
#6671392
b11111110 *
#6673264
b11111111 *
#6680744
b11111110 *
#6682612
b11100000 *
#6684484
b0 *
#6691284
b11111110 *
#6693152
b11111111 *
#6700640
b11111110 *
#6702504
b1100000 *
#6704288
b0 *
#6711088
b11111110 *
#6712964
b11111111 *
#6720436
b11111110 *
#6722308
b11100000 *
#6724184
b0 *
#6730976
b11111110 *
#6732848
b11111111 *
#6740328
b11111110 *
#6742196
b1100000 *
#6743984
b0 *
#6750788
b11111110 *
#6752652
b11111111 *
#6760140
b11111110 *
#6762008
b11100000 *
#6763872
b0 *
#6770672
b11111110 *
#6772544
b11111111 *
#6780024
b11111110 *
#6781892
b11100000 *
#6783764
b0 *
#6790564
b11111110 *
#6792432
b11111111 *
#6799920
b11111110 *
#6801784
b1100000 *
#6803568
b0 *
#6806792
1!
#6808668
1)
#6810368
b11111111 *
#6821596
b11100000 *
#6823464
b0 *
#6830260
b11111111 *
#6841480
b11100000 *
#6843348
b0 *
#6850156
b11111111 *
#6861376
b11100000 *
#6863240
b0 *
#6870036
b11111111 *
#6881260
b11100000 *
#6883128
b0 *
#6889928
b11111111 *
#6901148
b11100000 *
#6903020
b0 *
#6908120
b100000 *
#6909904
b11111111 *
#6921124
b1100000 *
#6922916
b0 *
#6928016
b1100000 *
#6929792
b11111111 *
#6941012
b1100000 *
#6942796
b0 *
#6947896
b1100000 *
#6949684
b11111111 *
#6959032
b11111110 *
#6960904
b1100000 *
#6962688
b0 *
#6967788
b1100000 *
#6969572
b11111111 *
#6978924
b11111110 *
#6980792
b1100000 *
#6982580
b0 *
#6987680
b11100000 *
#6989548
b11111111 *
#6998900
b11111110 *
#7000776
b1100000 *
#7002552
b0 *
#7007652
b11100000 *
#7009524
b11111111 *
#7018872
b11111110 *
#7020744
b1100000 *
#7022528
b0 *
#7027628
b11111000 *
#7029500
b11111111 *
#7038848
b11111110 *
#7040724
b0 *
#7047520
b11111000 *
#7049388
b11111111 *
#7058740
b11111110 *
#7060608
b0 *
#7067408
b11111000 *
#7069284
b11111111 *
#7078636
b11111110 *
#7080504
b0 *
#7087300
b11111000 *
#7089168
b11111111 *
#7098520
b11111110 *
#7100388
b0 *
#7107196
b11111000 *
#7109060
b11111111 *
#7118416
b11111110 *
#7120280
b0 *
#7127080
b11111000 *
#7128948
b11111111 *
#7138300
b11111010 *
#7140168
b0 *
#7146968
b11111000 *
#7148840
b11111111 *
#7158188
b11111000 *
#7160056
b0 *
#7166860
b11111000 *
#7168736
b11111111 *
#7178080
b11111000 *
#7179956
b0 *
#7186748
b11111000 *
#7188620
b11111111 *
#7197968
b11111000 *
#7199836
b0 *
#7206640
b11111000 *
#7208516
b11111111 *
#7217864
b11111000 *
#7219736
b0 *
#7226528
b11111000 *
#7228400
b11111111 *
#7237748
b11111000 *
#7239620
b0 *
#7246424
b11111000 *
#7248288
b11111111 *
#7257644
b11111000 *
#7259508
b0 *
#7266308
b11111000 *
#7268180
b11111111 *
#7277528
b11111000 *
#7279400
b0 *
#7286200
b11111000 *
#7288068
b11111111 *
#7297420
b11111000 *
#7299288
b0 *
#7301832
0!
#7304388
0)
#7306088
b11111000 *
#7307964
b11111111 *
#7317308
b11111000 *
#7319184
b0 *
#7325980
b11111000 *
#7327848
b11111111 *
#7337200
b11111000 *
#7339068
b0 *
#7345876
b11111000 *
#7347744
b11111111 *
#7357096
b11111000 *
#7358956
b0 *
#7365760
b11111000 *
#7367628
b11111111 *
#7376976
b11111000 *
#7378848
b0 *
#7385656
b11111000 *
#7387516
b11111111 *
#7396876
b11111000 *
#7398736
b0 *
#7405536
b11111000 *
#7407408
b11111111 *
#7416756
b11111000 *
#7418628
b0 *
#7425428
b11111000 *
#7427300
b11111111 *
#7436648
b11111000 *
#7438516
b0 *
#7445320
b11111000 *
#7447196
b11111111 *
#7456540
b11111000 *
#7458416
b0 *
#7465208
b11111000 *
#7467080
b11111111 *
#7476428
b11111000 *
#7478296
b0 *
#7485104
b11111000 *
#7486968
b11111111 *
#7496324
b11111000 *
#7498188
b0 *
#7504988
b11111000 *
#7506860
b11111111 *
#7516208
b11111000 *
#7518080
b0 *
#7524884
b11111000 *
#7526748
b11111111 *
#7536100
b11110000 *
#7537968
b0 *
#7544768
b11111000 *
#7546640
b11111111 *
#7555988
b11100000 *
#7557864
b0 *
#7564660
b11111000 *
#7566528
b11111111 *
#7575876
b11100000 *
#7577748
b0 *
#7584548
b11111000 *
#7586424
b11111111 *
#7595768
b1100000 *
#7597552
b0 *
#7604352
b11111000 *
#7606224
b11111111 *
#7615572
b11100000 *
#7617444
b0 *
#7624248
b11111000 *
#7626112
b11111111 *
#7635468
b1100000 *
#7637248
b0 *
#7644048
b11111000 *
#7645924
b11111111 *
#7655268
b11100000 *
#7657144
b0 *
#7663940
b11111000 *
#7665808
b11111111 *
#7675156
b1100000 *
#7676944
b0 *
#7683748
b11111000 *
#7685612
b11111111 *
#7694968
b1100000 *
#7696748
b0 *
#7703548
b11111000 *
#7705416
b11111111 *
#7714768
b11100000 *
#7716640
b0 *
#7723440
b11111000 *
#7725308
b11111111 *
#7734656
b11100000 *
#7736528
b0 *
#7743328
b11111000 *
#7745204
b11111111 *
#7754548
b1100000 *
#7756340
b0 *
#7763132
b11111000 *
#7765004
b11111111 *
#7774352
b1100000 *
#7776140
b0 *
#7782944
b11111000 *
#7784808
b11111111 *
#7794156
b11100000 *
#7796028
b0 *
#7802828
b11111000 *
#7804700
b11111111 *
#7806392
1!
#7808440
1)
#7814048
b11111000 *
#7815920
b0 *
#7822720
b11111000 *
#7824588
b11111111 *
#7833936
b11110000 *
#7835808
b0 *
#7842608
b11111000 *
#7844484
b11111111 *
#7853828
b11100000 *
#7855704
b0 *
#7862496
b11111000 *
#7864368
b11111111 *
#7873720
b11100000 *
#7875588
b0 *
#7882396
b11111000 *
#7884260
b11111111 *
#7893616
b11100000 *
#7895480
b0 *
#7902280
b11111000 *
#7904148
b11111111 *
#7913500
b11100000 *
#7915368
b0 *
#7922168
b11111000 *
#7924040
b11111111 *
#7933388
b11100000 *
#7935260
b0 *
#7942060
b11111000 *
#7943928
b11111111 *
#7953280
b1100000 *
#7955068
b0 *
#7961864
b11111000 *
#7963732
b11111111 *
#7973084
b11100000 *
#7974952
b0 *
#7981760
b11111000 *
#7983628
b11111111 *
#7992980
b11100000 *
#7994844
b0 *
#8001644
b11111000 *
#8003512
b11111111 *
#8012864
b1100000 *
#8014648
b0 *
#8021448
b11111000 *
#8023320
b11111111 *
#8032668
b11100000 *
#8034540
b0 *
#8041336
b11111000 *
#8043216
b11111111 *
