periphery/tests_16_jan/test_5/merged_1.vcd
$date 2026-01-16 19:08:49 $end
$timescale 1 us $end
$scope module debug $end
$var logic 1 ! clk $end
$var logic 8 " data $end
$var logic 8 # state $end
$var logic 1 $ pcinc $end
$var logic 1 % not_scclear $end
$var logic 1 & not_instread $end
$upscope $end
$scope module interface $end
$var logic 1 ' clk $end
$var logic 8 ( data $end
$var logic 16 ) address $end
$var logic 1 * not_read $end
$var logic 1 + not_write $end
$upscope $end
$enddefinitions $end
#0
$dumpvars
1!
b10000 "
b11111000 #
0$
1%
0&
1'
b0 (
b0 )
1*
1+
$end
#232560
0!
0'
#736436
1!
#736440
1'
#1232164
0!
#1232244
0'
#1736044
1!
#1736124
1'
#2231756
0!
#2231936
0'
#2734192
1'
#2735636
1!
#3229996
0'
#3231356
0!
#3733200
1!
#3733880
1'
#4229684
0'
#4230532
0!
#4610908
b0 "
b10000111 #
#4733316
1!
#4733568
1'
#5229028
0!
#5229368
0'
#5231068
b10001111 #
#5235148
b10000111 #
#5732908
1!
#5733248
1'
#6228628
0!
#6229052
0'
#6230668
b10001111 #
#6732508
1!
#6732932
1'
#7227632
0'
#7228228
0!
1$
0%
1&
#7229332
0*
#7230268
b10010111 #
#7730068
1!
#7732668
1'
b100 (
#8225788
0!
#8227232
0'
#8227828
0$
1%
0&
#8228932
1*
#8229868
b10000111 #
#8729668
1!
#8732132
1'
#9225388
0!
#9226840
0'
#9227428
b1 "
b10001111 #
#9729268
1!
#9730032
1'
#10224996
0!
#10226440
0'
#10227036
b0 "
b10010111 #
1$
0%
1&
#10228132
0*
#10728868
1!
#10729700
1'
#11224588
0!
1%
0&
#11226032
0'
#11226628
b10000111 #
0$
#11227740
1*
#11728468
1!
#11729232
1'
#12224188
0!
#12225632
0'
#12226228
b10 "
b10001111 #
#12726028
1!
#12728832
1'
#13221748
0!
#13223788
1$
0%
1&
#13225232
0'
#13225828
b0 "
b10010111 #
#13226932
0*
#13725628
1!
#13728504
1'
#13729708
b100 "
#14221348
0!
#14223388
0$
1%
0&
#14224832
0'
#14225428
b0 "
b10000111 #
#14226532
1*
#14725228
1!
#14728032
1'
#15220948
0!
#15224440
0'
#15225028
b11 "
b10001111 #
#15724836
1!
#15727632
1'
#16220548
0!
1$
1&
#16222332
0'
#16222596
b100 "
b10010111 #
#16224040
0*
#16724428
1!
#16727300
1'
#17220148
0!
#17221932
0'
#17222188
b10011111 #
#17223632
b1 )
#17721988
1!
#17726068
b0 "
#17726900
1'
b0 (
#18217708
0!
0&
#18219748
0$
#18221532
0'
#18221788
b100 "
b10100111 #
#18223232
1*
#18721588
1!
#18724732
1'
#19217308
0!
#19219348
b0 "
b10101111 #
#19221140
0'
#19721188
1!
#19724332
1'
#20216908
0!
#20218948
b10110111 #
1&
#20220732
0'
#20222432
0*
#20720788
1!
#20724000
1'
#21216508
0!
#21218548
b10111111 #
#21220332
0'
#21222040
1*
#21720396
1!
#21723532
1'
#22216108
0!
0&
#22218148
b101 "
b11000111 #
#22219932
0'
#22717948
1!
#22723132
1'
#23213668
0!
#23215708
1$
0%
#23217748
b0 "
b11001111 #
#23219532
0'
#23221232
0*
#23717548
1!
#23722804
1'
#24213268
0!
#24215308
0$
1%
#24217348
b10000010 #
#24219132
0'
#24220832
1*
#24717148
1!
#24722332
1'
#25212868
0!
#25214908
b110 "
b10001010 #
#25217032
0'
#25716748
1!
#25721932
1'
#26212468
0!
1$
0%
1&
#26214508
b0 "
b10010010 #
#26216632
0'
#26218332
0*
#26714308
1!
#26721600
1'
#27210036
0!
#27212076
0$
1%
0&
#27214116
b10000010 #
#27216232
0'
#27217932
1*
#27713916
1!
#27719440
1'
#28209628
0!
#28213708
b111 "
b10001010 #
#28215832
0'
#28713508
1!
#28719032
1'
#29209228
0!
#29211268
b0 "
b10010010 #
1$
0%
1&
#29215440
0'
#29217132
0*
#29713108
1!
#29718700
1'
#30208828
0!
0&
#30210868
b10000010 #
0$
1%
#30215032
0'
#30216732
1*
#30712708
1!
#30718232
1'
#31208428
0!
#31210468
b1000 "
b10001010 #
#31214632
0'
#31710268
1!
#31717832
1'
#32020348
b0 "
b10000010 #
#32023832
b0 )
#32205988
0!
#32214232
0'
#32709868
1!
#32717440
1'
#33205596
0!
#33213832
0'
#33709468
1!
#33717040
1'
#34205188
0!
#34211732
0'
#34709068
1!
#34716632
1'
#35204788
0!
#35211332
0'
#35708668
1!
#35716232
1'
#36204388
0!
#36210932
0'
#36706228
1!
#36714140
1'
#37201948
0!
#37206028
b10001010 #
#37210532
0'
#37705828
1!
#37713732
1'
#38201548
0!
#38203588
1$
0%
1&
#38205628
b10010010 #
#38210140
0'
#38211832
0*
#38705436
1!
#38713400
1'
b100 (
#38797228
b100 "
#39201156
0!
0&
#39203196
b0 "
b10000000 #
0$
1%
#39209740
0'
#39211432
1*
#39705028
1!
#39712932
1'
#40200748
0!
#40202788
b1 "
b10001000 #
#40209332
0'
#40704628
1!
#40712532
1'
#41200348
0!
1&
#41202388
b100 "
b10010000 #
1$
#41208932
0'
#41210640
0*
#41702188
1!
#41712200
1'
#42197908
0!
#42199948
b10011000 #
#42206840
0'
#42208532
b1 )
#42701788
1!
#42705868
b0 "
#42711804
1'
b0 (
#43197508
0!
0&
#43199548
b100 "
b10100000 #
0$
#43206440
0'
#43208132
1*
#43701388
1!
#43711332
1'
#44197108
0!
#44199148
b0 "
b10101000 #
#44206032
0'
#44700996
1!
#44709232
1'
#45196708
0!
1&
#45198748
b10110000 #
#45205632
0'
#45207340
0*
#45698548
1!
#45708904
1'
#46194268
0!
#46198348
b10111000 #
#46205232
0'
#46206932
1*
#46698148
1!
#46708440
1'
#47193868
0!
0&
#47197948
b11 "
b11000000 #
#47204832
0'
#47697748
1!
#47708032
1'
#48193468
0!
#48195508
1$
0%
#48197548
b0 "
b11001000 #
#48204440
0'
#48206132
0*
#48697348
1!
#48707700
1'
#49193068
0!
#49195108
b10000010 #
0$
1%
#49204032
0'
#49205732
1*
#49696948
1!
#49707232
1'
#50192676
0!
#50194716
b100 "
b10001010 #
#50203632
0'
#50694516
1!
#50706832
1'
#51190228
0!
#51192268
b0 "
b10010010 #
1$
0%
1&
#51201532
0'
#51203232
0*
#51694108
1!
#51706504
1'
#52189828
0!
0&
#52191868
b10000010 #
0$
1%
#52201140
0'
#52202832
1*
#52693708
1!
#52706040
1'
#53189428
0!
#53191468
b101 "
b10001010 #
#53200732
0'
#53693308
1!
#53703932
1'
#54189028
0!
1$
0%
1&
#54191068
b0 "
b10010010 #
#54200332
0'
#54202040
0*
#54692908
1!
#54703600
1'
#55188628
0!
0$
1%
0&
#55190668
b10000010 #
#55199932
0'
#55201632
1*
#55690468
1!
#55703140
1'
#56186196
0!
#56190276
b110 "
b10001010 #
#56199532
0'
#56690068
1!
#56702740
1'
#57185788
0!
#57187828
1$
0%
1&
#57189868
b0 "
b10010010 #
#57199132
0'
#57200832
0*
#57689668
1!
#57702400
1'
#58185388
0!
0&
#58187428
0$
1%
#58189468
b10000010 #
#58198740
0'
#58200432
1*
#58689268
1!
#58701932
1'
#59184988
0!
#59187028
b111 "
b10001010 #
#59198332
0'
#59688868
1!
#59701532
1'
#60182548
0!
#60184588
1$
0%
1&
#60186628
b0 "
b10010010 #
#60196232
0'
#60197932
0*
#60686428
1!
#60701200
1'
#61182148
0!
0&
#61184188
b10000010 #
0$
1%
#61195832
0'
#61197532
1*
#61686028
1!
#61700740
1'
#62181756
0!
#62183796
b1000 "
b10001010 #
#62195440
0'
#62685628
1!
#62698632
1'
#63181348
0!
0%
1&
#63183388
b0 "
b10010010 #
1$
#63195032
0'
#63196732
0*
#63685228
1!
#63698300
1'
#64180948
0!
0$
1%
0&
#64182988
b10000010 #
#64194632
0'
#64196340
1*
#64682788
1!
#64697832
1'
#65178508
0!
#65182588
b1001 "
b10001010 #
#65194232
0'
#65682388
1!
#65697440
1'
#66178108
0!
#66180148
1$
0%
1&
#66182188
b0 "
b10010010 #
#66193832
0'
#66195532
0*
#66681988
1!
#66697100
1'
#67177708
0!
0&
#67179748
0$
1%
#67181788
b10000010 #
#67193440
0'
#67195132
1*
#67681596
1!
#67696632
1'
#68177308
0!
#68179348
b1010 "
b10001010 #
#68191332
0'
#68680848
1!
#68696232
1'
#69175972
0!
1$
0%
1&
#69178096
b0 "
b10010010 #
#69190932
0'
#69192632
0*
#69679940
1!
#69695896
1'
#70175660
0!
0$
1%
0&
#70177700
b10000010 #
#70190532
0'
#70192232
1*
#70679536
1!
#71175260
0!
#71177300
b1011 "
b10001010 #
#71676672
1!
#72173928
0!
0%
1&
#72176048
b0 "
b10010010 #
1$
#72677888
1!
#73173608
0!
0$
1%
0&
#73175648
b10000010 #
#73675448
1!
#74171168
0!
#74175248
b1100 "
b10001010 #
#74674624
1!
#75171872
0!
0%
1&
#75174000
b0 "
b10010010 #
1$
#75673800
1!
#76169524
0!
0&
#76171564
0$
1%
#76173604
b10000010 #
#76673404
1!
#76856996
0%
#76859040
b1110 "
b10 #
#76860992
b11110 "
#76874676
b1110 "
b0 #
#76880544
b1000 "
#76886152
b0 "
