periphery/tests_16_jan/test_4/merged_1.vcd
$date 2026-01-16 19:08:37 $end
$timescale 1 us $end
$scope module debug $end
$var logic 1 ! clk $end
$var logic 8 " data $end
$var logic 8 # state $end
$var logic 1 $ pcinc $end
$var logic 1 % not_scclear $end
$var logic 1 & not_instread $end
$upscope $end
$scope module interface $end
$var logic 1 ' clk $end
$var logic 8 ( data $end
$var logic 16 ) address $end
$var logic 1 * not_read $end
$var logic 1 + not_write $end
$upscope $end
$enddefinitions $end
#0
$dumpvars
1!
b10000 "
b11111000 #
0$
1%
1&
1'
b100 (
b0 )
1*
1+
$end
#445236
b0 (
#495716
0'
#495720
0!
#497248
0*
#998884
1'
b100 (
#999600
1!
#1494552
0'
#1495320
0!
#1496168
1*
#1998092
1!
#1998432
1'
#2493224
0!
#2494244
0'
#2996844
1!
#2998124
1'
#3343224
b0 "
b10000000 #
#3493924
0'
#3494176
0!
#3495536
0*
#3996020
1!
#3997868
1'
#4491736
0!
#4493608
0'
#4495228
1*
#4495820
b10001000 #
#4995620
1!
#4997488
1'
#5491340
0!
#5493292
0'
#5493376
1$
0%
#5495420
b10010000 #
#5995216
1!
0&
#5997172
1'
#6490944
0!
#6492984
0$
1%
0'
#6494592
0*
#6495024
b10000000 #
#6713296
1&
#6994824
1!
#6996928
1'
#7490540
0!
#7492664
0'
#7494276
1*
#7623136
b1 "
b10001000 #
#7994420
1!
#7994928
1'
#8490136
0!
1$
0%
#8490740
0'
#8492180
b0 "
b10010000 #
#8991976
1!
#8994020
0&
#8994620
1'
#9487700
0!
#9489740
b10000000 #
0$
1%
#9490420
0'
#9492032
0*
#9991580
1!
1&
#9995048
1'
#10487296
0!
#10489340
b10 "
b10001000 #
#10489684
0'
#10491376
b1 )
#10991180
1!
#10994648
1'
b0 (
#11028580
b0 )
1*
#11486900
0!
0%
#11488936
b0 "
b10010000 #
1$
#11489276
0'
#11990776
1!
0&
#11992480
1'
#12486504
0!
0$
1%
#12488544
b10000000 #
#12488880
0'
#12988340
1!
#12990376
1&
#12992080
1'
#13484060
0!
#13488140
b11 "
b10001000 #
#13488480
0'
#13490176
0*
#13987940
1!
#13991748
1'
b100 (
#14483660
0!
#14485700
1$
0%
#14487736
b0 "
b10010000 #
#14488076
0'
#14489780
1*
#14987540
1!
#14989576
0&
#14991284
1'
#15481220
b100 "
#15483256
0!
#15485296
0$
1%
#15487336
b0 "
b10000000 #
#15487676
0'
#15987140
1!
1&
#15990880
1'
#16482860
0!
#16484896
b100 "
b10001000 #
#16487284
0'
#16488976
0*
#16986736
1!
#16990544
1'
#17482460
0!
1$
#17484500
b10010000 #
#17486876
0'
#17488580
1*
#17984304
1!
#17990080
1'
#18480016
0!
#18482060
b10011000 #
#18484780
0'
#18983900
1!
#18989680
1'
#19020624
b0 "
b10000000 #
0$
#19479616
0!
#19484384
0'
#19983496
1!
#19989284
1'
#20479220
0!
#20481260
b10001000 #
#20483984
0'
#20983096
1!
#20988880
1'
#21478816
0!
1$
0%
#21480860
b10010000 #
#21483576
0'
#21982700
1!
0&
#21986780
1'
#22476376
0!
#22478420
0$
1%
#22480456
b10000000 #
#22483180
0'
#22980260
1!
#22982296
1&
#22986380
1'
#23475976
0!
#23480056
b1 "
b10001000 #
#23482776
0'
#23979864
1!
#23985984
1'
#24475580
0!
#24477616
1$
0%
#24479660
b0 "
b10010000 #
#24482380
0'
#24781576
b100 "
#24979460
1!
#24981500
0&
#24985580
1'
#25475180
0!
#25477220
0$
1%
#25479260
b0 "
b10000000 #
#25481984
0'
#25979056
1!
1&
#25985180
1'
#26474780
0!
#26476816
b10 "
b10001000 #
#26481584
0'
#26584944
b0 "
b10000000 #
