periphery/tests_16_jan/test_3/merged_2.vcd
$date 2026-01-16 19:08:25 $end
$timescale 1 us $end
$scope module debug $end
$var logic 1 ! clk $end
$var logic 8 " data $end
$var logic 8 # state $end
$var logic 1 $ pcinc $end
$var logic 1 % not_scclear $end
$var logic 1 & not_instread $end
$upscope $end
$scope module interface $end
$var logic 1 ' clk $end
$var logic 8 ( data $end
$var logic 16 ) address $end
$var logic 1 * not_read $end
$var logic 1 + not_write $end
$upscope $end
$enddefinitions $end
#0
$dumpvars
1!
b0 "
b10000000 #
0$
1%
1&
1'
b0 (
b1 )
0*
1+
$end
#494616
0!
#495576
0'
#496572
b10001000 #
#497108
1*
#998692
1'
#999008
1!
#1493620
0!
#1494496
0'
#1495576
b10010000 #
1$
0%
#1998016
1!
0&
#1998380
1'
#2011696
0$
1%
1&
#2013652
b10000000 #
#2492628
0!
#2494188
0'
#2495796
0*
#2997016
1!
#2998136
1'
#3491632
0!
#3493868
0'
#3495484
1*
#3495540
b10001000 #
#3996020
1!
#3997748
1'
#4492592
0!
1$
0%
#4493552
0'
#4494548
b10010000 #
#4995028
1!
#4996980
0&
#4997432
1'
#5491596
0!
0$
1%
#5493236
0'
#5493552
b10000000 #
#5494852
0*
#5994032
1!
#5995984
1&
#5997184
1'
#6490600
0!
#6492556
b1 "
b10001000 #
#6492928
0'
#6494536
1*
#6993044
1!
#6995188
1'
#7489604
0!
#7490992
0'
#7589312
1$
0%
#7591264
b0 "
b10010000 #
#7992040
1!
#7993996
0&
#7994872
1'
#8489204
0!
0$
1%
#8490676
0'
#8491248
b10000000 #
#8492292
0*
#8991048
1!
#8993084
1&
#8994628
1'
#9486764
0!
#9490364
0'
#9490848
b10 "
b10001000 #
#9491980
1*
#9990648
1!
#9994840
1'
#10486368
0!
#10488404
b0 "
b10010000 #
1$
0%
#10489544
0'
#10990248
1!
#10992288
0&
#10994444
1'
#11485964
0!
#11488008
b10000000 #
0$
1%
#11489144
0'
#11490836
0*
#11989848
1!
#11991884
1&
#11992404
1'
#12485568
0!
#12487604
b11 "
b10001000 #
#12488736
0'
#12490444
1*
#12989444
1!
#12991940
1'
#13485172
0!
0%
#13487212
b0 "
b10010000 #
1$
#13488336
0'
#13987012
1!
#13989052
0&
#13991540
1'
#14482728
0!
#14484764
0$
1%
#14486804
b10000000 #
#14487940
0'
#14489636
0*
#14986604
1!
1&
#14991208
1'
#15482328
0!
#15484364
b100 "
b10001000 #
#15487536
0'
#15489240
1*
#15986208
1!
#15990740
1'
#16481928
0!
0%
#16483968
b0 "
b10010000 #
1$
#16487144
0'
#16985804
1!
0&
#16990340
1'
#17481528
0!
0$
1%
#17483568
b10000000 #
#17486744
0'
#17488436
0*
#17985408
1!
1&
#17990004
1'
#18481124
0!
#18483168
b101 "
b10001000 #
#18486336
0'
#18488044
1*
#18982968
1!
#18989540
1'
#19478692
0!
#19480732
1$
0%
#19482772
b0 "
b10010000 #
#19484236
0'
#19982568
1!
0&
#19989140
1'
#20478284
0!
#20480328
b10000000 #
0$
1%
#20483844
0'
#20485536
0*
#20982164
1!
1&
#20988808
1'
#21477884
0!
#21479928
b110 "
b10001000 #
#21483436
0'
#21485140
1*
#21981768
1!
#21988340
1'
#22477488
0!
0%
#22479524
b0 "
b10010000 #
1$
#22483036
0'
#22981368
1!
0&
#22986240
1'
#23475048
0!
#23477088
0$
1%
#23479128
b10000000 #
#23482636
0'
#23484336
0*
#23978928
1!
#23980968
1&
#23985908
1'
#24474648
0!
#24478728
b111 "
b10001000 #
#24482236
0'
#24483936
1*
#24978528
1!
#24985444
1'
#25474252
0!
#25476292
1$
0%
#25478332
b0 "
b10010000 #
#25481840
0'
#25595744
b0 )
#25978124
1!
#25980168
0&
#25985040
1'
#26473848
0!
#26475884
0$
1%
#26477928
b10000000 #
#26481444
0'
#26977724
1!
1&
#26984640
1'
#27473448
0!
#27475488
b1000 "
b10001000 #
#27481036
0'
#27482736
0*
#27975288
1!
#27984304
1'
b100001 (
#28471008
0!
#28473044
1$
0%
#28475088
b0 "
b10010000 #
#28480468
0'
#28482260
1*
#28974888
1!
#28976928
0&
#28983840
1'
#29470608
0!
#29472648
b10000000 #
0$
1%
#29480068
0'
#29974488
1!
#29976524
1&
#29983444
1'
#30470208
0!
#30472244
b1001 "
b10001000 #
#30479668
0'
#30481452
0*
#30974092
1!
#30983108
1'
#31469804
0!
0%
#31471848
b0 "
b10010000 #
1$
#31477488
0'
#31479268
1*
#31973688
1!
0&
#31982640
1'
#32469408
0!
0$
1%
#32471444
b10000000 #
#32477088
0'
#32971244
1!
#32973288
1&
#32982240
1'
#33466964
0!
#33471044
b1010 "
b10001000 #
#33476684
0'
#33478472
0*
#33583672
b0 "
b10000000 #
#33971272
1!
#33980124
1'
#34466996
0!
#34471076
b10001000 #
#34476284
0'
#34478068
1*
#34970872
1!
#34979660
1'
#35466592
0!
#35468632
b10010000 #
1$
0%
#35475884
0'
#35970472
1!
0&
#35979252
1'
#36466192
0!
#36468232
b10000000 #
0$
1%
#36475484
0'
#36477268
0*
#36968032
1!
#36970072
1&
#36978920
1'
#37463752
0!
#37467832
b1 "
b10001000 #
#37475088
0'
#37476868
b1 )
#37967632
1!
#37978520
1'
b0 (
#38463352
0!
#38465392
1$
0%
#38467432
b0 "
b10010000 #
#38474852
0'
#38476560
1*
#38967232
1!
#38969272
0&
#38978052
1'
#39462952
0!
0$
1%
#39464992
b10000000 #
#39474452
0'
#39966836
1!
#39968876
1&
#39977652
1'
#40462552
0!
#40464596
b10 "
b10001000 #
#40474052
0'
#40475752
0+
#40966432
1!
#40977388
1'
#41462152
0!
1$
0%
#41464192
b0 "
b10010000 #
#41471952
0'
#41473652
1+
#41963992
1!
#41966032
0&
#41976852
1'
#42380152
b100001 "
#42460900
0!
0$
1%
#42463028
b0 "
b10000101 #
#42471552
0'
#42964868
1!
1&
#42976452
1'
#43458548
0!
#43462624
b11 "
b10001101 #
#43471152
0'
#43472852
0*
#43962428
1!
#43974496
1'
#44458152
0!
#44460192
1$
#44462232
b100001 "
b10010101 #
#44470752
0'
#44472452
1*
#44961600
1!
#44973960
1'
#45458852
0!
#45460976
b10011101 #
#45470352
0'
#45960356
1!
#45973552
1'
#46085724
b0 "
#46457012
0!
#46459052
0$
#46461092
b11111111 "
b10100101 #
#46469960
0'
#46471652
0*
#46960548
1!
#46973220
1'
#47455584
0!
#47460008
b0 "
b10101101 #
#47469552
0'
#47471252
1*
#47959804
1!
#47972752
1'
#48455528
0!
#48459604
b10110101 #
#48469152
0'
#48959408
1!
#48972352
1'
#49455124
0!
#49457168
b10111101 #
#49468752
0'
#49470452
0*
#49959008
1!
#49972024
1'
#50454732
0!
#50456772
b101 "
b11000101 #
#50468352
0'
#50470052
1*
#50956568
1!
#50971560
1'
#51452288
0!
#51454328
b11001101 #
1$
0%
#51466252
0'
#51956168
1!
0&
#51971152
1'
#52019412
b1 "
#52080608
b0 "
#52451888
0!
#52453924
b10000100 #
0$
1%
#52465852
0'
#52467560
0*
#52955768
1!
1&
#52970820
1'
#53451488
0!
#53453524
b110 "
b10001100 #
#53465452
0'
#53467152
1*
#53955368
1!
#53970352
1'
#54451084
0!
1$
0%
#54453128
b0 "
b10010100 #
#54465052
0'
#54952928
1!
#54954968
0&
#54968252
1'
#55448644
0!
#55450688
0$
1%
#55452728
b10000100 #
#55464660
0'
#55466352
0*
#55952532
1!
#55954572
1&
#55967916
1'
#56448248
0!
#56452328
b111 "
b10001100 #
#56464260
0'
#56465952
1*
#56952128
1!
#56967452
1'
#57447848
0!
#57449884
1$
0%
#57451928
b0 "
b10010100 #
#57463852
0'
#57951728
1!
#57953768
0&
#57967052
1'
#58447448
0!
#58449488
0$
1%
#58451528
b10000100 #
#58463452
0'
#58465160
0*
#58951324
1!
1&
#58966720
1'
#59447048
0!
#59449088
b1000 "
b10001100 #
#59463052
0'
#59464752
1*
#59948888
1!
#59966260
1'
#60444604
0!
#60446644
b0 "
b10010100 #
1$
0%
#60462652
0'
#60593552
b0 )
#60948488
1!
#60950528
0&
#60965852
1'
#61444212
0!
#61446252
b10000100 #
0$
1%
#61460552
0'
#61948092
1!
#61950132
1&
#61965452
1'
#62443804
0!
#62445844
b1001 "
b10001100 #
#62460152
0'
#62461860
0*
#62947684
1!
#62965120
1'
b100001 (
#63443408
0!
1$
0%
#63445448
b0 "
b10010100 #
#63459496
0'
#63461288
1*
#63947288
1!
0&
#63964652
1'
#64443008
0!
0$
1%
#64445048
b10000100 #
#64459096
0'
#64944844
1!
#64946888
1&
#64962472
1'
#65440568
0!
#65444648
b1010 "
b10001100 #
#65458696
0'
#65460484
0*
#65944020
1!
#65962132
1'
#66441272
0!
1$
0%
#66443404
b0 "
b10010100 #
#66458296
0'
#66460084
1*
#66943196
1!
#66945236
0&
#66961668
1'
#67438916
0!
#67440956
0$
1%
#67442996
b10000100 #
#67457904
0'
#67942796
1!
#67944836
1&
#67961268
1'
#68438516
0!
#68442596
b1011 "
b10001100 #
#68457496
0'
#68459288
0*
#68572220
b0 "
b10000100 #
#68941460
1!
#68960932
1'
#69437180
0!
#69439220
b10001100 #
#69457096
0'
#69458884
b1 )
#69941060
1!
#69960540
1'
b0 (
#70436780
0!
#70438820
b10010100 #
1$
0%
#70456868
0'
#70458568
1*
#70940660
1!
#70942700
0&
#70960068
1'
#71436380
0!
0$
1%
#71438420
b10000100 #
#71456472
0'
#71940268
1!
#71942308
1&
#71959668
1'
#72435980
0!
#72438020
b1 "
b10001100 #
#72454368
0'
#72456072
0+
#72939860
1!
#72959400
1'
#73435580
0!
1$
0%
#73437620
b0 "
b10010100 #
#73453968
0'
#73455668
1+
#73937420
1!
#73939460
b100001 "
0&
#73958868
1'
#74434584
0!
0$
1%
#74436716
b0 "
b10000101 #
#74453568
0'
#74936516
1!
#74938556
1&
#74956768
1'
#75432232
0!
#75436312
b10 "
b10001101 #
#75453176
0'
#75454868
0*
#75936112
1!
#75956504
1'
#76431832
0!
#76433872
1$
#76435912
b100001 "
b10010101 #
#76452776
0'
#76454468
1*
#76935292
1!
#76955968
1'
#77430412
0!
#77434660
b10011101 #
#77452368
0'
#77934036
1!
#77938288
b0 "
#77955568
1'
#78429928
0!
#78431968
0$
#78434008
b11111111 "
b10100101 #
#78451968
0'
#78453672
0*
#78933464
1!
#78955240
1'
#79428504
0!
#79432928
b0 "
b10101101 #
#79451568
0'
#79453268
1*
#79932728
1!
#79954776
1'
#80428444
0!
#80430488
b10110101 #
#80451168
0'
#80932324
1!
#80954368
1'
#81428048
0!
#81430088
b10111101 #
#81450776
0'
#81452468
0*
#81931924
1!
#81954032
1'
#82427648
0!
#82429688
b100 "
b11000101 #
#82448668
0'
#82450368
1*
#82931528
1!
#82953568
1'
#83425208
0!
#83427248
1$
0%
#83429288
b11001101 #
#83448268
0'
#83929084
1!
#83931128
0&
#83953168
1'
#84067808
b0 "
#84424812
0!
#84426848
0$
1%
#84428884
b10000111 #
#84447868
0'
#84449568
0*
#84928692
1!
1&
#84951132
1'
#85424408
0!
#85426444
b101 "
b10001111 #
#85447472
0'
#85449168
1*
#85928288
1!
#85950668
1'
#86424008
0!
#86426044
b0 "
b10010111 #
1$
0%
#86447068
0'
#86927888
1!
0&
#86950268
1'
#87423608
0!
#87425648
b10000111 #
0$
1%
#87446668
0'
#87448372
0*
#87925444
1!
#87927488
1&
#87949932
1'
#88421164
0!
#88425248
b110 "
b10001111 #
#88446268
0'
#88447968
1*
#88925048
1!
#88949476
1'
#89420764
0!
#89422808
1$
0%
#89424844
b0 "
b10010111 #
#89445868
0'
#89924648
1!
#89926688
0&
#89949076
1'
#90420372
0!
0$
1%
#90422412
b10000111 #
#90445468
0'
#90447168
0*
#90924248
1!
#90926292
1&
#90948732
1'
#91419964
0!
#91422008
b111 "
b10001111 #
#91445072
0'
#91446768
1*
#91923848
1!
#91948268
1'
#92419568
0!
1$
0%
#92421608
b0 "
b10010111 #
#92442968
0'
#92921408
1!
#92923448
0&
#92947868
1'
#93417128
0!
#93419164
0$
1%
#93421208
b10000111 #
#93442568
0'
#93444268
0*
#93921008
1!
1&
#93947532
1'
#94416728
0!
#94418768
b1000 "
b10001111 #
#94442168
0'
#94443868
1*
#94920604
1!
#95416328
0!
#95418364
b0 "
b10010111 #
1$
0%
#95920208
1!
0&
#96415932
0!
#96417972
b10000111 #
0$
1%
#96917768
1!
#96919804
1&
#97413488
0!
#97417564
b1001 "
b10001111 #
#97917368
1!
#98413000
0!
#98415128
1$
0%
#98417252
b0 "
b10010111 #
#98916624
1!
#98918752
0&
#99411752
0!
#99416000
b10000111 #
0$
1%
#99915376
1!
#99917500
1&
#100412628
0!
#100414752
b1010 "
b10001111 #
#100916428
1!
#101411460
0!
1$
0%
#101413672
b0 "
b10010111 #
#101915172
1!
#101917296
0&
#102410296
0!
1%
#102412428
b10000111 #
0$
#102913920
1!
1&
#103409048
0!
#103411172
b1011 "
b10001111 #
