periphery/tests_16_jan/test_3/merged_1.vcd
$date 2026-01-16 19:08:19 $end
$timescale 1 us $end
$scope module debug $end
$var logic 1 ! clk $end
$var logic 8 " data $end
$var logic 8 # state $end
$var logic 1 $ pcinc $end
$var logic 1 % not_scclear $end
$var logic 1 & not_instread $end
$upscope $end
$scope module interface $end
$var logic 1 ' clk $end
$var logic 8 ( data $end
$var logic 16 ) address $end
$var logic 1 * not_read $end
$var logic 1 + not_write $end
$upscope $end
$enddefinitions $end
#0
$dumpvars
1!
b10000 "
b11111000 #
0$
1%
1&
1'
b0 (
b1111110100000000 )
1*
1+
$end
#495720
0!
#496572
0'
#999604
1!
#1000960
1'
#1495324
0!
#1495576
0'
#1999200
1!
#1999972
1'
#2494924
0!
#2496540
0'
#6995248
1!
#6997796
1'
#7405372
b0 "
b10000000 #
#7405800
b0 )
#7491052
0!
#7492496
0'
#7994940
1!
#7995696
1'
#8490652
0!
#8492100
0'
#8992492
1!
#8995296
1'
#9488212
0!
#9491700
0'
#9492292
b10001000 #
#9992092
1!
#9994896
1'
#10487812
0!
#10489852
1$
0%
#10491296
0'
#10491892
b10010000 #
#10493000
0*
#10991692
1!
#10993732
0&
#10994632
1'
b100001 (
#11487412
0!
#11489452
0$
1%
#11490724
0'
#11491492
b10000000 #
#11492516
1*
#11991292
1!
#11993332
1&
#11994096
1'
#12487012
0!
#12489052
b1 "
b10001000 #
#12490324
0'
#12990892
1!
#12993700
1'
#13486620
0!
#13488652
b0 "
b10010000 #
1$
0%
#13489924
0'
#13491708
0*
#13988460
1!
#13990500
0&
#13993360
1'
#14484172
0!
#14488252
b10000000 #
0$
1%
#14489524
0'
#14491312
1*
#14988052
1!
#14990092
1&
#14992896
1'
#15483772
0!
#15487852
b10 "
b10001000 #
#15489132
0'
#15987652
1!
#15992496
1'
#16483372
0!
1$
0%
#16485412
b100001 "
b10010000 #
#16486940
0'
#16488724
0*
#16986912
1!
#16989036
0&
#16992160
1'
#17482036
0!
#17484160
b0 "
b10000101 #
0$
1%
#17486540
0'
#17488324
1*
#17986004
1!
1&
#17989912
1'
#18481728
0!
#18483768
b11 "
b10001101 #
#18486140
0'
#18985608
1!
#18989512
1'
#19481320
0!
#19483364
b100001 "
b10010101 #
1$
#19485748
0'
#19487524
0*
#19984864
1!
#19989176
1'
#20479988
0!
#20482112
b10011101 #
#20485344
0'
#20487124
b1 )
#20983612
1!
#20988776
1'
b0 (
#21198236
b0 "
#21479756
0!
#21481796
b11111111 "
b10100101 #
0$
#21485108
0'
#21486816
1*
#21983468
1!
#21988312
1'
#22478508
0!
#22482928
b0 "
b10101101 #
#22484712
0'
#22982728
1!
#22987916
1'
#23478448
0!
#23480488
b10110101 #
#23484308
0'
#23486008
0+
#23980288
1!
#23987640
1'
#24476008
0!
#24480088
b10111101 #
#24483916
0'
#24485612
1+
#24979888
1!
#24987112
1'
#25475612
0!
#25477648
b101 "
b11000101 #
#25481812
0'
#25979492
1!
#25986712
1'
#26475208
0!
0%
#26477248
b11001101 #
1$
#26481408
0'
#26483108
0*
#26977048
b1 "
#26979088
1!
#26981128
0&
#26983168
b101 "
#26986448
1'
#27017852
b1 "
#27115768
b0 "
#27474808
0!
0$
1%
#27476848
b10000111 #
#27481008
0'
#27482708
1*
#27978688
1!
#27980728
1&
#27985912
1'
#28474408
0!
#28476448
b110 "
b10001111 #
#28480616
0'
#28976248
1!
#28983812
1'
#29471968
0!
#29474008
1$
0%
#29476048
b0 "
b10010111 #
#29480212
0'
#29481908
0*
#29975848
1!
#29977888
0&
#29983476
1'
#30471568
0!
#30473608
0$
1%
#30475648
b10000111 #
#30479808
0'
#30481516
1*
#30975448
1!
1&
#30983012
1'
#31471172
0!
#31475252
b111 "
b10001111 #
#31479408
0'
#31975048
1!
#31982616
1'
#32470768
0!
#32472808
b0 "
b10010111 #
1$
0%
#32479008
0'
#32480708
0*
#32974648
1!
0&
#32982280
1'
#33470368
0!
#33472408
b10000111 #
0$
1%
#33478608
0'
#33480312
1*
#33972208
1!
#33974248
1&
#33981812
1'
#34467928
0!
#34472008
b1000 "
b10001111 #
#34478216
0'
#34971808
1!
#34981412
1'
#35467528
0!
#35469568
1$
0%
#35471608
b0 "
b10010111 #
#35477808
0'
#35479508
0*
#35971408
1!
#35973448
0&
#35981076
1'
#36467128
0!
0$
1%
#36469168
b10000111 #
#36475708
0'
#36477408
1*
#36971008
1!
#36973048
1&
#36980612
1'
#37466732
0!
#37468772
b1001 "
b10001111 #
#37475308
0'
#37970608
1!
#37980216
1'
#38466328
0!
1$
0%
#38468368
b0 "
b10010111 #
#38474916
0'
#38476608
0*
#38968168
1!
#38970208
0&
#38978176
1'
#39463888
0!
#39465928
0$
1%
#39467968
b10000111 #
#39474508
0'
#39476208
1*
#39967768
1!
1&
#39977712
1'
#40463488
0!
#40467568
b1010 "
b10001111 #
#40474108
0'
#40966944
1!
#40977312
1'
#41462068
0!
#41464192
1$
0%
#41466316
b0 "
b10010111 #
#41473712
0'
#41475408
0*
#41966124
1!
#41968164
0&
#41976980
1'
#42461836
0!
#42463880
0$
1%
#42465924
b10000111 #
#42473308
0'
#42475008
1*
#42965716
1!
#42967756
1&
#42976512
1'
#43461436
0!
#43465516
b1011 "
b10001111 #
#43472916
0'
#43964892
1!
#43976112
1'
#44460016
0!
#44462140
1$
0%
#44464268
b0 "
b10010111 #
#44472516
0'
#44474208
0*
#44964068
1!
#44966108
0&
#44975776
1'
#45459788
0!
#45461828
0$
1%
#45463868
b10000111 #
#45472108
0'
#45473816
1*
#45963668
1!
#45965708
1&
#45975312
1'
#46459388
0!
#46461428
b1100 "
b10001111 #
#46470012
0'
#46962928
1!
#46974912
1'
#47458052
0!
1$
0%
#47460176
b0 "
b10010111 #
#47469616
0'
#47471308
0*
#47962016
1!
#47964056
0&
#47974580
1'
#48457736
0!
0$
1%
#48459776
b10000111 #
#48469216
0'
#48470908
1*
#48961616
1!
1&
#48972412
1'
#49457336
0!
#49459376
b1101 "
b10001111 #
#49468812
0'
#49960876
1!
#49972012
1'
#50456000
0!
0%
#50458128
b0 "
b10010111 #
1$
#50468408
0'
#50470116
0*
#50959972
1!
0&
#50971680
1'
#51455688
0!
0$
1%
#51457728
b10000111 #
#51468008
0'
#51469712
1*
#51957528
1!
#51959568
1&
#51971216
1'
#52453248
0!
#52457328
b1110 "
b10001111 #
#52467608
0'
#52956708
1!
#52970812
1'
#53453952
0!
0%
#53456076
b0 "
b10010111 #
1$
#53467216
0'
#53468908
0*
#53955876
1!
#53957916
0&
#53970476
1'
#54451596
0!
#54453636
0$
1%
#54455676
b10000111 #
#54466808
0'
#54468512
1*
#54955476
1!
#54957516
1&
#54970012
1'
#55451204
0!
#55455284
b1111 "
b10001111 #
#55466408
0'
#55954652
1!
#55969612
1'
#56449776
0!
#56451904
b0 "
b10010111 #
1$
0%
#56464312
0'
#56466008
0*
#56953744
1!
#56955784
0&
#56969280
1'
#57449464
0!
#57451500
b10000111 #
0$
1%
#57463916
0'
#57465608
1*
#57953340
1!
#57955384
1&
#57968816
1'
#58449064
0!
#58451100
b10000 "
b10001111 #
#58463512
0'
#58952604
1!
#58966712
1'
#59447728
0!
#59449852
b0 "
b10010111 #
1$
0%
#59463112
0'
#59464816
0*
#59951700
1!
0&
#59966376
1'
#60447412
0!
#60449452
b10000111 #
0$
1%
#60462708
0'
#60464408
1*
#60951292
1!
1&
#60965916
1'
#61447012
0!
#61449052
b10001 "
b10001111 #
#61462308
0'
#61950560
1!
#61965516
1'
#62445676
0!
#62447804
b0 "
b10010111 #
1$
0%
#62461908
0'
#62463608
0*
#62949644
1!
0&
#62965176
1'
#63445364
0!
#63447404
b10000111 #
0$
1%
#63461516
0'
#63463208
1*
#63949240
1!
1&
#63964712
1'
#64444968
0!
#64447008
b10010 "
b10001111 #
#64461108
0'
#64946376
1!
#64964312
1'
#65443628
0!
#65445752
1$
0%
#65447876
b0 "
b10010111 #
#65460708
0'
#65462416
0*
#65945636
1!
#65947676
0&
#65963976
1'
#66441356
0!
#66443396
b10000111 #
0$
1%
#66458608
0'
#66460308
1*
#66945236
1!
#66947276
1&
#66963516
1'
#67440956
0!
#67442996
b10011 "
b10001111 #
#67458216
0'
#67944496
1!
#67963116
1'
#68439628
0!
#68441748
1$
0%
#68443872
b0 "
b10010111 #
#68457812
0'
#68459508
0*
#68943672
1!
0&
#68961076
1'
#69439392
0!
#69441432
b10000111 #
0$
1%
#69457408
0'
#69459116
1*
#69943272
1!
1&
#69960612
1'
#70438992
0!
#70441032
b10100 "
b10001111 #
#70457008
0'
#70942532
1!
#70960216
1'
#71437656
0!
#71439784
1$
0%
#71441908
b0 "
b10010111 #
#71456608
0'
#71458308
0*
#71941712
1!
0&
#71959876
1'
#72437428
0!
#72439468
b10000111 #
0$
1%
#72456216
0'
#72457912
1*
#72941308
1!
1&
#72959412
1'
#73437028
0!
#73439068
b10101 "
b10001111 #
#73455816
0'
#73940572
1!
#73959012
1'
#74435692
0!
#74437816
1$
0%
#74439940
b0 "
b10010111 #
#74455412
0'
#74457116
0*
#74939744
1!
0&
#74958676
1'
#75435464
0!
0$
1%
#75437500
b10000111 #
#75453308
0'
#75455012
1*
#75937308
1!
#75939340
1&
#75958212
1'
#76433028
0!
#76437108
b10110 "
b10001111 #
#76452916
0'
#76936476
1!
#76957816
1'
#77433728
0!
1$
0%
#77435852
b0 "
b10010111 #
#77452516
0'
#77454208
0*
#77935652
1!
#77937692
0&
#77957476
1'
#78431372
0!
#78433412
0$
1%
#78435452
b10000111 #
#78452108
0'
#78453816
1*
#78935252
1!
#78937292
1&
#78955312
1'
#79430972
0!
#79435052
b10111 "
b10001111 #
#79451712
0'
#79934428
1!
#79954912
1'
#80429552
0!
#80431684
1$
0%
#80433800
b0 "
b10010111 #
#80451312
0'
#80453008
0*
#80933600
1!
#80935644
0&
#80954580
1'
#81429320
0!
#81431364
0$
1%
#81433404
b10000111 #
#81450908
0'
#81452608
1*
#81933204
1!
#81935244
1&
#81954112
1'
#82428920
0!
#82433004
b11000 "
b10001111 #
#82450516
0'
#82932376
1!
#82953712
1'
#83427504
0!
#83429628
1$
0%
#83431752
b0 "
b10010111 #
#83450112
0'
#83451808
0*
#83931552
1!
#83933592
0&
#83953376
1'
#84427272
0!
#84429312
0$
1%
#84431352
b10000111 #
#84449708
0'
#84451416
1*
#84931160
1!
#84933200
1&
#84952912
1'
#85426872
0!
#85428912
b11001 "
b10001111 #
#85447612
0'
#85930412
1!
#85952512
1'
#86425536
0!
1$
0%
#86427660
b0 "
b10010111 #
#86447216
0'
#86448908
0*
#86929504
1!
#86931544
0&
#86952180
1'
#87425220
0!
0$
1%
#87427264
b10000111 #
#87446808
0'
#87448508
1*
#87929100
1!
1&
#87950012
1'
#88424824
0!
#88426864
b11010 "
b10001111 #
#88446412
0'
#88928364
1!
#88949612
1'
#89423492
0!
0%
#89425612
b0 "
b10010111 #
1$
#89446008
0'
#89447708
0*
#89927452
1!
0&
#89949280
1'
#90423172
0!
0$
1%
#90425212
b10000111 #
#90445608
0'
#90447312
1*
#90925012
1!
#90927052
1&
#90948816
1'
#91420732
0!
#91424812
b11011 "
b10001111 #
#91445208
0'
#91924188
1!
#91948412
1'
#92421436
0!
0%
#92423564
b0 "
b10010111 #
1$
#92444816
0'
#92446508
0*
#92923364
1!
#92925404
0&
#92948076
1'
#93419088
0!
#93421128
0$
1%
#93423168
b10000111 #
#93444408
0'
#93446108
1*
#93922960
1!
#93925000
1&
#93947612
1'
#94419788
0!
#94421912
b11100 "
b10001111 #
#94443760
0'
#94921372
1!
#94947124
1'
#95418624
0!
#95420832
b0 "
b10010111 #
1$
0%
#95443356
0'
#95445144
0*
#95922332
1!
0&
#95946796
1'
#96417456
0!
#96419580
0$
1%
#96421708
b10000111 #
#96442956
0'
#96444740
1*
#96921084
1!
#96923212
1&
#96946332
1'
#97416208
0!
#97418332
b11101 "
b10001111 #
#97440772
0'
#97920004
1!
#97945924
1'
#98415044
0!
#98417260
b0 "
b10010111 #
1$
0%
#98440376
0'
#98442156
0*
#98918752
1!
0&
#98943804
1'
#99413876
0!
#99416004
0$
1%
#99418128
b10000111 #
#99439968
0'
#99441760
1*
#99917504
1!
#99919628
1&
#99943340
1'
#100414752
0!
#100416876
b11110 "
b10001111 #
#100439572
0'
#100916336
1!
#100942948
1'
#101413588
0!
1$
0%
#101415796
b0 "
b10010111 #
#101439168
0'
#101440956
0*
#101917304
1!
0&
#101942604
1'
#102412420
0!
#102414548
b10000111 #
0$
1%
#102438768
0'
#102440556
1*
#102916048
1!
1&
#102942140
1'
#103411172
0!
#103415428
b11111 "
b10001111 #
#103438376
0'
#103914884
1!
#103941740
1'
#104409924
0!
#104412132
1$
0%
#104414344
b0 "
b10010111 #
#104437976
0'
#104439756
0*
#104913716
1!
#104915844
0&
#104941404
1'
#105408840
0!
#105410968
0$
1%
#105413092
b10000111 #
#105437568
0'
#105439360
1*
#105912468
1!
#105914592
1&
#105940940
1'
#106409716
0!
#106411840
b100000 "
b10001111 #
#106435384
0'
#106911308
1!
#106940548
1'
#107408552
0!
1$
0%
#107410764
b0 "
b10010111 #
#107434984
0'
#107436768
0*
#107912260
1!
#107914388
0&
#107940204
1'
#108407392
0!
0$
1%
#108409512
b10000111 #
#108434592
0'
#108436368
1*
#108911012
1!
1&
#108937956
1'
#109406136
0!
#109408260
b100001 "
b10001111 #
#109434184
0'
#109909932
1!
#109937556
1'
#110404972
0!
#110407184
b0 "
b10010111 #
1$
0%
#110433784
0'
#110435572
0*
#110908684
1!
#110910808
0&
#110937228
1'
#111403808
0!
#111405932
0$
1%
#111408056
b10000111 #
#111433384
0'
#111435172
1*
#111907440
1!
#111909556
1&
#111936756
1'
#112404680
0!
#112406808
b100010 "
b10001111 #
#112432984
0'
#112906268
1!
#112936356
1'
#113403524
0!
#113405728
b0 "
b10010111 #
1$
0%
#113432584
0'
#113434368
0*
#113907232
1!
0&
#113936020
1'
#114402352
0!
#114404476
0$
1%
#114406600
b10000111 #
#114432192
0'
#114433972
1*
#114905976
1!
#114908100
1&
#114935556
1'
#115401104
0!
#115405360
b100011 "
b10001111 #
#115431784
0'
#115904812
1!
#115935156
1'
#116399852
0!
0%
#116402064
b0 "
b10010111 #
1$
#116429600
0'
#116431384
0*
#116903560
1!
#116905688
0&
#116934828
1'
#117398688
0!
#117400812
b10000111 #
0$
1%
#117429200
0'
#117430984
1*
#117902312
1!
#117904436
1&
#117934356
1'
#118399568
0!
#118401688
b100100 "
b10001111 #
#118428808
0'
#118901148
1!
#118932172
1'
#119398396
0!
1$
0%
#119400608
b0 "
b10010111 #
#119428400
0'
#119430192
0*
#119902108
1!
0&
#119931836
1'
#120397232
0!
#120399356
b10000111 #
0$
1%
#120428000
0'
#120429792
1*
#120900856
1!
1&
#120931376
1'
#121395980
0!
#121398108
b100101 "
b10001111 #
#121427600
0'
#121899776
1!
#121930976
1'
#122394816
0!
#122397028
1$
0%
#122399236
b0 "
b10010111 #
#122427200
0'
#122428984
0*
#122898612
1!
#122900736
0&
#122930636
1'
#123393736
0!
#123395864
0$
1%
#123397988
b10000111 #
#123426800
0'
#123428584
1*
#123897360
1!
#123899492
1&
#123930172
1'
#124394612
0!
#124396736
b100110 "
b10001111 #
#124426408
0'
#124896196
1!
#124929772
1'
#125393452
0!
#125395656
b0 "
b10010111 #
1$
0%
#125426000
0'
#125427792
0*
#125897156
1!
0&
#125929436
1'
#126392280
0!
0$
1%
#126394408
b10000111 #
#126423816
0'
#126425600
1*
#126895908
1!
#126898032
1&
#126928976
1'
#127391032
0!
#127393156
b100111 "
b10001111 #
#127423416
0'
#127894828
1!
#127926784
1'
#128389868
0!
#128392076
b0 "
b10010111 #
1$
0%
#128423020
0'
#128424800
0*
#128893576
1!
0&
#128926448
1'
#129388704
0!
#129390828
0$
1%
#129392952
b10000111 #
#129422616
0'
#129424404
1*
#129892328
1!
#129894452
1&
#129925984
1'
#130387452
0!
#130391700
b101000 "
b10001111 #
#130422216
0'
#130891164
1!
#130925592
1'
#131388412
0!
1$
0%
#131390620
b0 "
b10010111 #
#131421816
0'
#131423600
0*
#131892124
1!
0&
#131925256
1'
#132387248
0!
#132389372
b10000111 #
0$
1%
#132421416
0'
#132423200
1*
#132890872
1!
1&
#132924784
1'
#133385996
0!
#133390248
b101001 "
b10001111 #
#133421016
0'
#133889708
1!
#133924384
1'
#134384748
0!
#134386956
1$
0%
#134389168
b0 "
b10010111 #
#134420620
0'
#134422400
0*
#134888544
1!
#134890668
0&
#134924048
1'
#135383672
0!
#135385792
0$
1%
#135387916
b10000111 #
#135420216
0'
#135422008
1*
#135887292
1!
#135889416
1&
#136382416
0!
#136384540
b100000 "
#136386752
b101010 "
b10001111 #
#136886212
1!
#137383468
0!
1$
0%
#137385672
b0 "
b10010111 #
#137885048
1!
#137887172
0&
#138382296
0!
0$
1%
#138384424
b10000111 #
#138885924
1!
1&
#139381048
0!
#139383172
b101011 "
b10001111 #
#139884840
1!
#140379880
0!
#140382092
b0 "
b10010111 #
1$
0%
#140883592
1!
0&
#141378716
0!
#141380844
0$
1%
#141382968
b10000111 #
#141882344
1!
#141884468
1&
#142377468
0!
#142381716
b101100 "
b10001111 #
#142881176
1!
#143378428
0!
0%
#143380636
b0 "
b10010111 #
1$
#143880012
1!
#143882136
0&
#144377260
0!
#144379388
b10000111 #
0$
1%
#144880888
1!
1&
#145376012
0!
#145378136
b101101 "
b10001111 #
#145879808
1!
#146374848
0!
1$
0%
#146377056
b0 "
b10010111 #
#146878556
1!
#146880680
0&
#147373688
0!
#147375808
b10000111 #
0$
1%
#147877308
1!
1&
#148372432
0!
#148376684
b101110 "
b10001111 #
#148876144
1!
#149373392
0!
1$
0%
#149375608
b0 "
b10010111 #
#149874976
1!
#149877104
0&
#150372228
0!
0$
1%
#150374352
b10000111 #
#150875852
1!
1&
#151370976
0!
#151373100
b101111 "
b10001111 #
#151874772
1!
#152369812
0!
#152372024
1$
0%
#152374232
b0 "
b10010111 #
#152873608
1!
#152875732
0&
#153368732
0!
#153370856
0$
1%
#153372984
b10000111 #
#153872356
1!
#153874480
1&
#154367484
0!
#154371732
b110000 "
b10001111 #
#154871192
1!
#155366232
0!
#155368440
b0 "
b10010111 #
1$
0%
#155869944
1!
#155872068
0&
#156367192
0!
0$
1%
#156369316
b10000111 #
#156870816
1!
1&
#157365944
0!
#157368068
b110001 "
b10001111 #
#157869736
1!
#158364776
0!
#158366988
b0 "
b10010111 #
1$
0%
#158868488
1!
0&
#159363620
0!
#159365744
b10000111 #
0$
1%
#159867236
1!
#159869364
1&
#160362364
0!
#160366612
b110010 "
b10001111 #
#160866072
1!
#161361112
0!
#161363324
1$
0%
#161365540
b0 "
b10010111 #
#161864908
1!
#161867032
0&
#162362156
0!
#162364284
b10000111 #
0$
1%
#162865788
1!
1&
#163360908
0!
#163864532
1!
#164359656
0!
#164863284
1!
#165358408
0!
#165862032
1!
#166357156
0!
#166860784
1!
#167358040
0!
#167859532
1!
#168356784
0!
#168860408
1!
#169355532
0!
#169859156
1!
#170354288
0!
#170857908
1!
#171353032
0!
#171856656
1!
#172351784
0!
#172855408
1!
#173352656
0!
#173856288
1!
#174351408
0!
#174855032
1!
#175350156
0!
#175853780
1!
#176348908
0!
#176852540
1!
#177347656
0!
#177349784
b0 #
0%
#177367376
b10000 "
b111 #
#177375536
b0 "
b0 #
#177383356
b10000 "
b111 #
#177393556
b0 "
b0 #
#177403332
b10000 "
b111 #
#177413532
b0 "
b0 #
#177423308
b10000 "
b111 #
#177433508
b0 "
b0 #
0&
#177441332
1&
#177443284
b10000 "
b111 #
#177453484
b0 "
b0 #
0&
#177461300
1&
#177463256
b10000 "
b111 #
#177473456
b0 "
b0 #
0&
#177481284
1&
#177483232
b10000 "
b111 #
#177493432
b0 "
b0 #
0&
#177501252
1&
#177503208
b10000 "
b111 #
#177511368
0&
#177513408
b0 "
b0 #
#177521232
1&
#177523180
b10000 "
b111 #
#177531344
0&
#177533380
b0 "
b0 #
#177541204
1&
#177543156
b10000 "
b111 #
#177551316
0&
#177553356
b0 "
b0 #
#177561184
1&
#177563132
b10000 "
b111 #
#177571292
b0 "
b0 #
0&
#177581068
1&
#177583024
b10000 "
b111 #
#177591184
b0 "
0&
#177593136
b0 #
#177600956
1&
#177602912
b10000 "
b111 #
#177611072
b0 "
b0 #
#177613028
0&
#177620848
1&
#177622804
b10000 "
b111 #
#177630960
b0 "
b0 #
#177632916
0&
#177640736
1&
#177642692
b10000 "
b111 #
#177650852
b0 "
b0 #
#177652808
0&
#177658672
1&
#177662588
b10000 "
b111 #
#177670748
b0 "
b0 #
#177672696
0&
#177680516
1&
#177682472
b10000 "
b111 #
#177690632
b0 "
b0 #
#177692588
0&
#177698452
1&
#177702364
b10000 "
b111 #
#177710524
b0 "
b0 #
#177712476
0&
#177718344
1&
#177722252
b10000 "
b111 #
#177730412
b0 "
b0 #
#177732368
0&
#177738232
1&
#177742144
b10000 "
b111 #
#177750304
b0 "
b0 #
#177752256
0&
#177758124
1&
#177762032
b10000 "
b111 #
#177770192
b0 "
b0 #
#177772152
0&
#177778012
1&
#177781924
b10000 "
b111 #
#177790080
b0 "
b0 #
#177792036
0&
#177797904
1&
#177801820
b10000 "
b111 #
#177809980
b0 "
b0 #
#177811928
0&
#177817792
1&
#177821704
b10000 "
b111 #
#177829864
b0 "
b0 #
#177831816
0&
#177837688
1&
#177841592
b10000 "
b111 #
#177849752
b0 "
b0 #
#177851708
1!
0&
#177859528
b10000 "
b111 #
#177871768
b0 "
b0 #
#177879592
b10000 "
b111 #
#177891828
b0 "
b0 #
#177899648
b10000 "
b111 #
#177911888
b0 "
b0 #
#177919708
b10000 "
b111 #
#177929908
b0 "
b0 #
#177939680
b10000 "
b111 #
#177949884
b0 "
b0 #
#177959656
b10000 "
b111 #
#177969856
b0 "
b0 #
#177979632
b10000 "
b111 #
#177989832
b0 "
b0 #
#177999608
b10000 "
b111 #
#178009808
b0 "
b0 #
#178019584
b10000 "
b111 #
#178029780
b0 "
b0 #
#178039556
b10000 "
b111 #
#178049756
b0 "
b0 #
#178059532
b10000 "
b111 #
#178069732
b0 "
b0 #
#178079508
b10000 "
b111 #
#178089708
b0 "
b0 #
#178099484
b10000 "
b111 #
#178109680
b0 "
b0 #
#178119456
b10000 "
b111 #
#178129656
b0 "
b0 #
#178137476
b10000 "
b111 #
#178149716
b0 "
b0 #
#178157536
b10000 "
b111 #
#178169776
b0 "
b0 #
#178177604
b10000 "
b111 #
#178189836
b0 "
b0 #
#178197656
b10000 "
b111 #
#178209896
b0 "
b0 #
#178217716
b10000 "
b111 #
#178229956
b0 "
b0 #
#178237776
b10000 "
b111 #
#178247976
b0 "
b0 #
#178257752
b10000 "
b111 #
#178267952
b0 "
b0 #
#178277728
b10000 "
b111 #
#178287928
b0 "
b0 #
#178297700
b10000 "
b111 #
#178307904
b0 "
b0 #
#178317676
b10000 "
b111 #
#178327876
b0 "
b0 #
#178337652
b10000 "
b111 #
#178347852
0!
b0 "
b0 #
#178355672
b10000 "
b111 #
#178365872
b0 "
b0 #
#178375648
b10000 "
b111 #
#178385848
b0 "
b0 #
#178395624
b10000 "
b111 #
#178405824
b0 "
b0 #
#178415596
b10000 "
b111 #
#178425796
b0 "
b0 #
#178435572
b10000 "
b111 #
#178445772
b0 "
b0 #
#178455548
b10000 "
b111 #
#178465748
b0 "
b0 #
#178475524
b10000 "
b111 #
#178485724
b0 "
b0 #
#178495496
b10000 "
b111 #
#178505696
b0 "
b0 #
#178515472
b10000 "
b111 #
#178525672
b0 "
b0 #
#178535448
b10000 "
b111 #
#178545648
b0 "
b0 #
#178555428
b10000 "
b111 #
#178565624
b0 "
b0 #
#178575396
b10000 "
b111 #
#178585596
b0 "
b0 #
#178595380
b10000 "
b111 #
#178603532
b0 "
b0 #
#178615260
b10000 "
b111 #
#178623424
b0 "
b0 #
#178635152
b10000 "
b111 #
#178639232
b0 "
b0 #
#178654872
b10000 "
b111 #
#178658952
b0 "
b0 #
#178674592
b10000 "
b111 #
#178678672
b0 "
b0 #
#178694312
b10000 "
b111 #
#178700432
b0 "
b0 #
#178714116
b10000 "
b111 #
#178722276
b0 "
b0 #
#178734008
b10000 "
b111 #
#178744208
b0 "
b0 #
#178753984
b10000 "
b111 #
#178764180
b0 "
b0 #
#178773956
b10000 "
b111 #
#178784156
b0 "
b0 #
#178793932
b10000 "
b111 #
#178804132
b0 "
b0 #
#178813908
b10000 "
b111 #
#178822068
b0 "
b1 #
#178824024
b0 #
#178833796
b10000 "
b111 #
#178841956
b0 "
b1 #
#178843912
b0 #
#178851732
1!
#178853688
b10000 "
b111 #
#178863888
b0 "
b0 #
#178871708
b10000 "
#178873748
b111 #
#178883948
b0 "
b0 #
#178891768
b10000 "
b111 #
#178904008
b0 "
b0 #
#178911832
b10000 "
b111 #
#178924072
b0 "
b0 #
#178931888
b10000 "
b111 #
#178944128
b0 "
b0 #
#178951948
b10000 "
b111 #
#178964188
b0 "
b0 #
#178972008
b10000 "
b111 #
#178984248
b0 "
b0 #
#178992068
b10000 "
b111 #
#179004308
b0 "
b0 #
#179012132
b10000 "
b111 #
#179024368
b0 "
b0 #
#179032188
b10000 "
b111 #
#179044428
b0 "
b0 #
#179052248
b10000 "
b111 #
#179062448
b0 "
b0 #
#179072224
b10000 "
b111 #
#179082424
b0 "
b0 #
#179092196
b10000 "
b111 #
#179102396
b0 "
b0 #
#179110216
b10000 "
b111 #
#179122456
b0 "
b0 #
#179130276
b10000 "
b111 #
#179142516
b0 "
b0 #
#179150336
b10000 "
b111 #
#179162576
b0 "
b0 #
#179170396
b10000 "
b111 #
#179182636
b0 "
b0 #
#179190456
b10000 "
b111 #
#179202696
b0 "
b0 #
#179208564
b10000 "
b111 #
#179222840
b0 "
b0 #
#179228708
b10000 "
b111 #
#179242988
b0 "
b0 #
#179248852
b10000 "
b111 #
#179263132
b0 "
b0 #
#179268996
b10000 "
b111 #
#179281236
b0 "
b0 #
#179289056
b10000 "
b111 #
#179301296
b0 "
b0 #
#179309124
b10000 "
b111 #
#179319324
b0 "
b0 #
#179331048
b10000 "
b111 #
#179337168
b0 "
b0 #
#179346944
0!
#179350852
b10000 "
b111 #
#179354932
b0 "
b0 #
#179370580
b10000 "
b111 #
#179374660
b0 "
b0 #
#179390292
b10000 "
b111 #
#179398452
b0 "
b0 #
#179408228
b10000 "
b111 #
#179418428
b0 "
b0 #
#179428204
b10000 "
b111 #
#179438404
b0 "
b0 #
#179448176
b10000 "
b111 #
#179458376
b0 "
b0 #
#179468152
b10000 "
b111 #
#179478352
b0 "
b0 #
#179488128
b10000 "
b111 #
#179498328
b0 "
b0 #
#179508104
b10000 "
b111 #
#179518300
b0 "
b0 #
#179528076
b10000 "
b111 #
#179538276
b0 "
b0 #
#179548052
b10000 "
b111 #
#179558252
b0 "
b0 #
#179568028
b10000 "
b111 #
#179578228
b0 "
b0 #
#179588004
b10000 "
b111 #
#179598200
b0 "
b0 #
#179607976
b10000 "
b111 #
#179618176
b0 "
b0 #
#179627952
b10000 "
b111 #
#179638152
b0 "
b0 #
#179647928
b10000 "
b111 #
#179656088
b0 "
b0 #
#179667816
b10000 "
b111 #
#179675976
b0 "
b0 #
#179685752
b10000 "
b100 #
#179687792
b111 #
#179695952
b0 "
b0 #
#179705728
b10000 "
b111 #
#179715928
b0 "
b0 #
#179725704
b10000 "
#179727744
b111 #
#179735904
b0 "
b0 #
#179745676
b10000 "
b111 #
#179755876
b0 "
b0 #
#179765652
b10000 "
b111 #
#179775852
b0 "
b0 #
#179785628
b10000 "
b111 #
#179795828
b0 "
b0 #
#179805604
b10000 "
b111 #
#179815804
b0 "
b0 #
#179825576
b10000 "
b111 #
#179835776
b0 "
b0 #
#179845552
b10000 "
b111 #
#179849632
1!
#179855752
b0 "
b0 #
#179865528
b10000 "
b111 #
#179877768
b0 "
b0 #
#179885592
b10000 "
b111 #
#179897828
b0 "
b0 #
#179903692
b10000 "
b111 #
#179917972
b0 "
b0 #
#179923836
b10000 "
b111 #
#179936076
b0 "
b0 #
#179943896
b10000 "
b110 #
#179945936
b111 #
#179956136
b0 "
b0 #
#179963956
b10000 "
b111 #
#179976196
b0 "
b0 #
#179984016
b10000 "
b111 #
#179994224
b0 "
b0 #
#180003992
b10000 "
b111 #
#180014192
b0 "
b0 #
#180023968
b10000 "
b111 #
#180034172
b0 "
b0 #
#180043944
b10000 "
b111 #
#180054144
b0 "
b0 #
#180063916
b10000 "
b111 #
#180074120
b0 "
b0 #
#180083892
b10000 "
b111 #
#180096132
b0 "
b0 #
#180103952
b10000 "
b111 #
#180116192
b0 "
b0 #
#180124012
b10000 "
b111 #
#180134212
b0 "
b0 #
#180143988
b10000 "
b111 #
#180154188
b0 "
b0 #
#180163964
b10000 "
b111 #
#180174160
b0 "
b0 #
#180183936
b10000 "
b111 #
#180194136
b0 "
b0 #
#180201956
b10000 "
b111 #
#180214196
b0 "
b0 #
#180222016
b10000 "
b111 #
#180234256
b0 "
b0 #
#180242076
b10000 "
b111 #
#180254324
b0 "
b0 #
#180262136
b10000 "
b111 #
#180274376
b0 "
b0 #
#180282196
b10000 "
b111 #
#180294436
b0 "
b0 #
#180302256
b10000 "
b111 #
#180314496
b0 "
b0 #
#180322316
b10000 "
b111 #
#180334556
b0 "
b0 #
#180342384
b10000 "
b111 #
#180346464
0!
#180350544
b0 "
b0 #
#180362268
b10000 "
b111 #
#180370428
b0 "
b0 #
#180382156
b10000 "
b111 #
#180390316
b0 "
b0 #
#180402048
b10000 "
b111 #
#180410208
b0 "
b0 #
#180421936
b10000 "
b111 #
#180432136
b0 "
b0 #
#180439956
b10000 "
b100 #
#180441996
b111 #
