periphery/tests_16_jan/test_mov_only/merged.vcd
$date 2026-01-16 19:09:07 $end
$timescale 1 us $end
$scope module debug $end
$var logic 1 ! clk $end
$var logic 8 " data $end
$var logic 8 # state $end
$var logic 1 $ pcinc $end
$var logic 1 % not_scclear $end
$var logic 1 & not_instread $end
$upscope $end
$scope module interface $end
$var logic 1 ' clk $end
$var logic 8 ( data $end
$var logic 16 ) address $end
$var logic 1 * not_read $end
$var logic 1 + not_write $end
$upscope $end
$enddefinitions $end
#0
$dumpvars
1!
b0 "
b10000000 #
0$
1%
1&
1'
b0 (
b0 )
1*
1+
$end
#495720
0!
#495800
0'
#999600
1!
#999680
1'
#1495320
0!
#1495484
0'
#1997160
1!
#1999364
1'
#2492884
0!
#2495168
0'
#2996756
1!
#2997436
1'
#3492476
0!
#3493240
0'
#3996360
1!
#3997120
1'
#4492076
0!
#4492924
0'
#4995960
1!
#4997572
1'
#5338676
0!
#5340968
0'
#6993120
1!
#6995072
1'
#7488836
0!
#7491476
0'
#7992724
1!
#7994672
1'
#8488436
0!
#8491072
0'
#8492524
b10001000 #
#8496604
b10000000 #
#8992320
1!
#8994272
1'
#9488040
0!
#9490076
b10001000 #
#9490668
0'
#9991920
1!
#9993872
1'
#10487640
0!
#10489676
b10010000 #
1$
0%
#10490272
0'
#10491968
0*
#10989480
1!
#10991520
0&
#10993612
1'
b110011 (
#11485200
0!
#11487236
0$
1%
#11489280
b10000000 #
#11489700
0'
#11491484
1*
#11989076
1!
#11991120
1&
#11993076
1'
#12484800
0!
#12488876
b1 "
b10001000 #
#12489300
0'
#12988680
1!
#12992672
1'
#13484396
0!
1$
0%
#13486440
b0 "
b10010000 #
#13487120
0'
#13488900
0*
#13988284
1!
#13990324
0&
#13992336
1'
#14483996
0!
0$
1%
#14486036
b10000000 #
#14486716
0'
#14488508
1*
#14987880
1!
#14989916
1&
#14991872
1'
#15483600
0!
#15485640
b10 "
b10001000 #
#15486316
0'
#15985440
1!
#15989692
1'
#16481156
0!
#16483200
1$
0%
#16485236
b110011 "
b10010000 #
#16485916
0'
#16487700
0*
#16984612
1!
#16986740
0&
#16989352
1'
#17481864
0!
0$
1%
#17483988
b0 "
b10000100 #
#17485516
0'
#17487300
1*
#17983788
1!
#17985828
1&
#17988884
1'
#18479516
0!
#18483596
b10001100 #
#18485120
0'
#18983396
1!
#18988484
1'
#19479108
0!
#19483188
b11 "
b10010100 #
#19484716
0'
#19982988
1!
#19988084
1'
#20478708
0!
#20480748
b110011 "
b10011100 #
1$
0%
#20484316
0'
#20486104
0*
#20982252
1!
#20984372
0&
#20987756
1'
#21477372
0!
#21479500
0$
1%
#21481624
b0 "
b10000100 #
#21483916
0'
#21485700
1*
#21981424
1!
#21983464
1&
#21987292
1'
#22477144
0!
#22481224
b10001100 #
#22483516
0'
#22981028
1!
#22986884
1'
#23476744
0!
#23478784
b100 "
b10010100 #
#23481336
0'
#23978584
1!
#23986484
1'
#24474304
0!
#24476344
b110011 "
b10011100 #
1$
0%
#24480932
0'
#24482720
0*
#24977848
1!
#24979968
0&
#24984364
1'
#25475092
0!
0$
1%
#25477220
b0 "
b10000100 #
#25480528
0'
#25482316
1*
#25977020
1!
#25979060
1&
#25983908
1'
#26472740
0!
#26476816
b10001100 #
#26480128
0'
#26976620
1!
#26983500
1'
#27472344
0!
#27474384
b101 "
b10010100 #
#27479732
0'
#27976220
1!
#27983100
1'
#28471936
0!
#28473980
b110011 "
b10011100 #
1$
0%
#28479336
0'
#28481116
0*
#28975480
1!
0&
#28982764
1'
#29470604
0!
#29472728
0$
1%
#29474852
b0 "
b10000100 #
#29478936
0'
#29480716
1*
#29974652
1!
#29976692
1&
#29982300
1'
#30470372
0!
#30472412
b10001100 #
#30478528
0'
#30974252
1!
#30981900
1'
#31469980
0!
#31472020
b110 "
b10010100 #
#31478128
0'
#31971820
1!
#31981508
1'
#32467532
0!
#32469572
b110011 "
b10011100 #
1$
0%
#32475944
0'
#32477728
0*
#32971072
1!
#32973204
0&
#32981164
1'
#33468324
0!
0$
1%
#33470448
b0 "
b10000100 #
#33475552
0'
#33477332
1*
#33970248
1!
1&
#33978916
1'
#34465968
0!
#34468008
b10001100 #
#34475144
0'
#34969848
1!
#34978516
1'
#35465568
0!
#35467608
b111 "
b10010100 #
#35474744
0'
#35969456
1!
#35978120
1'
#36465168
0!
#36467208
b110011 "
b10011100 #
1$
0%
#36474344
0'
#36476128
0*
#36968708
1!
0&
#36977780
1'
#37463832
0!
#37465956
b0 "
b10000100 #
0$
1%
#37473944
0'
#37475732
1*
#37967800
1!
1&
#37977316
1'
#38463520
0!
#38465560
b10001100 #
#38473552
0'
#38967400
1!
#38976916
1'
#39463120
0!
#39465160
b1000 "
b10010100 #
#39473152
0'
#39964956
1!
#39976516
1'
#40460684
0!
#40462724
1$
0%
#40464760
b110011 "
b10011100 #
#40472744
0'
#40474536
0*
#40964132
1!
#40966256
0&
#40976180
1'
#41461384
0!
0$
1%
#41463508
b0 "
b10000100 #
#41470560
0'
#41472344
1*
#41963308
1!
#41965348
1&
#41975720
1'
#42459028
0!
#42461068
b10001100 #
#42470160
0'
#42962908
1!
#42975316
1'
#43458628
0!
#43460668
b1001 "
b10010100 #
#43469768
0'
#43962508
1!
#43973132
1'
#44458228
0!
0%
#44460268
b110011 "
b10011100 #
1$
#44469360
0'
#44471152
0*
#44961768
1!
0&
#44972796
1'
#45456892
0!
#45459020
b0 "
b10000100 #
0$
1%
#45468960
0'
#45470752
1*
#45960860
1!
1&
#45972336
1'
#46456580
0!
#46458616
b10001100 #
#46468560
0'
#46960460
1!
#46971936
1'
#47456180
0!
#47458216
b1010 "
b10010100 #
#47468160
0'
#47959720
1!
#47971532
1'
#48454844
0!
#48456968
b110011 "
b10011100 #
1$
0%
#48467760
0'
#48469544
0*
#48958468
1!
0&
#48971196
1'
#49453592
0!
#49455716
0$
1%
#49457844
b0 "
b10000100 #
#49467364
0'
#49469144
1*
#49957644
1!
#49959684
1&
#49970732
1'
#50453364
0!
#50455404
b10001100 #
#50465176
0'
#50957244
1!
#50970332
1'
#51452964
0!
#51455004
b1011 "
b10010100 #
#51464776
0'
#51954376
1!
#51969936
1'
#52451628
0!
1$
0%
#52453760
b110011 "
b10011100 #
#52464376
0'
#52466160
0*
#52955252
1!
0&
#52967812
1'
#53450380
0!
1%
#53452504
b0 "
b10000100 #
0$
#53463980
0'
#53465760
1*
#53954344
1!
1&
#53967344
1'
#54450064
0!
#54452104
b10001100 #
#54463576
0'
#54951904
1!
#54966944
1'
#55447624
0!
#55451704
b1100 "
b10010100 #
#55463176
0'
#55951080
1!
#55966552
1'
#56448328
0!
0%
#56450460
b110011 "
b10011100 #
1$
#56462776
0'
#56464560
0*
#56951952
1!
0&
#56966216
1'
#57447080
0!
#57449204
b0 "
b10000100 #
0$
1%
#57462376
0'
#57464160
1*
#57951044
1!
1&
#57965744
1'
#58446764
0!
#58448804
b10001100 #
#58461976
0'
#58948604
1!
#58965344
1'
#59444324
0!
#59448404
b1101 "
b10010100 #
#59461580
0'
#59947780
1!
#59964944
1'
#60445028
0!
1$
0%
#60447160
b110011 "
b10011100 #
#60459388
0'
#60461176
0*
#60948652
1!
#60950780
0&
#60964612
1'
#61443780
0!
0$
1%
#61445904
b0 "
b10000100 #
#61458988
0'
#61460776
1*
#61947744
1!
1&
#61962360
1'
#62443464
0!
#62445504
b10001100 #
#62458588
0'
#62945304
1!
#62961960
1'
#63441024
0!
#63445104
b1110 "
b10010100 #
#63458196
0'
#63944480
1!
#63961560
1'
#64441736
0!
1$
0%
#64443860
b110011 "
b10011100 #
#64457788
0'
#64459576
0*
#64943228
1!
#64945352
0&
#64961224
1'
#65440480
0!
#65442604
b0 "
b10000100 #
0$
1%
#65457388
0'
#65459180
1*
#65942404
1!
#65944444
1&
#65960768
1'
#66438124
0!
#66442204
b10001100 #
#66456992
0'
#66942004
1!
#66960368
1'
#67437724
0!
#67441804
b1111 "
b10010100 #
#67456588
0'
#67941176
1!
#67959960
1'
#68436304
0!
#68440556
b110011 "
b10011100 #
1$
0%
#68456192
0'
#68457976
0*
#68939928
1!
#68942052
0&
#68959624
1'
#69437180
0!
0$
1%
#69439304
b0 "
b10000100 #
#69454004
0'
#69455796
1*
#69939104
1!
#69941144
1&
#69959160
1'
#70434824
0!
#70438904
b10001100 #
#70453604
0'
#70938704
1!
#70956980
1'
#71434424
0!
#71436464
b10000 "
b10010100 #
#71453204
0'
#71937964
1!
#71956576
1'
#72433096
0!
#72435212
1$
0%
#72437336
b110011 "
b10011100 #
#72452804
0'
#72454588
0*
#72936712
1!
#72938840
0&
#72956240
1'
#73433964
0!
0$
1%
#73436088
b0 "
b10000100 #
#73452412
0'
#73454192
1*
#73935888
1!
#73937928
1&
#73955776
1'
#74431608
0!
#74435688
b10001100 #
#74452004
0'
#74935488
1!
#74955376
1'
#75431208
0!
#75435288
b10001 "
b10010100 #
#75451604
0'
#75934664
1!
#75954976
1'
#76429796
0!
#76431912
1$
0%
#76434040
b110011 "
b10011100 #
#76451204
0'
#76452988
0*
#76933412
1!
#76935536
0&
#76954648
1'
#77428536
0!
#77432788
b0 "
b10000100 #
0$
1%
#77450804
0'
#77452592
1*
#77932588
1!
#77934628
1&
#77954176
1'
#78428820
0!
#78430944
b10001100 #
#78448628
0'
#78932448
1!
#78953776
1'
#79427568
0!
#79429692
b10010 "
b10010100 #
#79448220
0'
#79931364
1!
#79951592
1'
#80426408
0!
#80428612
b110011 "
b10011100 #
1$
0%
#80447820
0'
#80449604
0*
#80930284
1!
0&
#80951260
1'
#81425324
0!
#81427532
0$
1%
#81429744
b0 "
b10000100 #
#81447420
0'
#81449204
1*
#81929120
1!
#81931244
1&
#81950792
1'
#82424248
0!
#82428492
b10001100 #
#82447020
0'
#82927868
1!
#82950392
1'
#83425120
0!
#83427244
b10011 "
b10010100 #
#83446628
0'
#83928912
1!
#83949992
1'
#84423952
0!
#84426168
b110011 "
b10011100 #
1$
0%
#84446228
0'
#84448004
0*
#84927832
1!
0&
#84949656
1'
#85422872
0!
#85425084
0$
1%
#85427292
b0 "
b10000100 #
#85445820
0'
#85447612
1*
#85926668
1!
#85928792
1&
#85949192
1'
#86421792
0!
#86426048
b10001100 #
#86445420
0'
#86925416
1!
#86948796
1'
#87420544
0!
#87422668
b10100 "
b10010100 #
#87443236
0'
#87924340
1!
#87948392
1'
#88419376
0!
#88421588
b110011 "
b10011100 #
1$
0%
#88442840
0'
#88444620
0*
#88923256
1!
0&
#88946272
1'
#89418296
0!
#89420508
0$
1%
#89422720
b0 "
b10000100 #
#89442436
0'
#89444228
1*
#89922092
1!
#89924220
1&
#89945804
1'
#90419344
0!
#90421468
b10001100 #
#90442036
0'
#90920844
1!
#90945412
1'
#91418092
0!
#91420220
b10101 "
b10010100 #
#91441636
0'
#91921896
1!
#91945004
1'
#92416928
0!
#92419136
b110011 "
b10011100 #
1$
0%
#92441236
0'
#92443020
0*
#92920808
1!
0&
#92944672
1'
#93415856
0!
#93418056
0$
1%
#93420268
b0 "
b10000100 #
#93440840
0'
#93442620
1*
#93919648
1!
#93921772
1&
#94414768
0!
#94419016
b10001100 #
#94918392
1!
#95413520
0!
#95415644
b10110 "
b10010100 #
#95917312
1!
#96412352
0!
#96414564
1$
0%
#96416772
b110011 "
b10011100 #
