periphery/test_19_jan/merged_2.vcd
$date 2026-01-19 16:59:09 $end
$timescale 1 us $end
$scope module debug $end
$var logic 1 ! clk $end
$var logic 8 " data $end
$var logic 8 # state $end
$var logic 1 $ pcinc $end
$var logic 1 % not_scclear $end
$var logic 1 & not_instread $end
$var logic 1 ' not_enable $end
$var logic 1 ( direction $end
$upscope $end
$scope module interface $end
$var logic 1 ) clk $end
$var logic 8 * data $end
$var logic 16 + address $end
$var logic 1 , not_read $end
$var logic 1 - not_write $end
$upscope $end
$enddefinitions $end
#0
$dumpvars
1!
b0 "
b10000000 #
0$
1%
1&
1'
0(
1)
b11111111 *
b0 +
1,
1-
$end
#7480
b0 *
#17680
b11101111 *
#19552
b11111111 *
#27032
b0 *
#37232
b10101000 *
#39100
b11111111 *
#46580
b0 *
#56780
b101000 *
#58564
b11111111 *
#66044
b100000 *
#67832
b0 *
#78032
b11111111 *
#85512
b10101001 *
#87380
b0 *
#97580
b11101111 *
#99448
b11111111 *
#105060
b11101111 *
#106928
b0 *
#117132
b11101111 *
#119000
b11111111 *
#126480
b0 *
#136680
b11101000 *
#138552
b11111111 *
#146032
b0 *
#156228
b101000 *
#158016
b11111111 *
#165496
b0 *
#175696
b100000 *
#177480
b11111111 *
#184960
b101000 *
#186744
b0 *
#196944
b11101111 *
#198816
b11111111 *
#204424
b11101111 *
#206296
b0 *
#216496
b11101111 *
#218364
b11111111 *
#225844
b0 *
#236044
b11101000 *
#237916
b11111111 *
#245396
b0 *
#255596
b101000 *
#257380
b11111111 *
#264860
b0 *
#275060
b100000 *
#276844
b11111111 *
#284324
b101000 *
#286108
b0 *
#296312
b11101111 *
#298180
b11111111 *
#303792
b11101111 *
#305660
b0 *
#315860
b11101111 *
#317732
b11111111 *
#325212
b0 *
#335408
b11101000 *
#337280
b11111111 *
#344760
b0 *
#354960
b10101000 *
#356832
b11111111 *
#364316
b0 *
#374508
b100000 *
#376296
b11111111 *
#383780
b100000 *
#385560
b0 *
#395760
b11111111 *
#403248
b101000 *
#405024
b0 *
#415224
b11101111 *
#417096
b11111111 *
#422712
b11101111 *
#424576
b0 *
#434776
b11101000 *
#436644
b11111111 *
#444124
b0 *
#454324
b10101000 *
#456196
b11111111 *
#463680
b0 *
#473880
b100000 *
#475660
b11111111 *
#483148
b0 *
#495040
b11101111 *
#496908
0)
b11111111 *
#497420
0!
#502520
b101000 *
#504304
b0 *
#514504
b11101000 *
#516376
b11111110 *
#518244
b11111111 *
#521984
b11101000 *
#523856
b0 *
#534056
b10101000 *
#535924
b11111110 *
#537796
b11111111 *
#541540
b11111110 *
#543404
b0 *
#553604
b101000 *
#555388
b11111110 *
#557260
b11111111 *
#562872
b0 *
#573072
b100000 *
#574856
b11111110 *
#578596
b11111111 *
#582336
b0 *
#594236
b11101000 *
#596104
b11111110 *
#597980
b11111111 *
#601716
b101000 *
#603500
b0 *
#613700
b11101000 *
#615572
b11111110 *
#617448
b11111111 *
#621180
b11101010 *
#623052
b0 *
#633252
b10101000 *
#635120
b11111110 *
#636992
b11111111 *
#640728
b11111110 *
#642600
b0 *
#652800
b101000 *
#654584
b11111110 *
#656456
b11111111 *
#662064
b0 *
#673964
b11101010 *
#675836
b11111111 *
#681444
b100000 *
#683228
b0 *
#693432
b11101000 *
#695300
b11111110 *
#697176
b11111111 *
#700908
b10101000 *
#702780
b0 *
#712980
b11101000 *
#714852
b11111110 *
#716728
b11111111 *
#720460
b11101110 *
#722328
b0 *
#732528
b10101000 *
#734400
b11111110 *
#736272
b11111111 *
#741880
b0 *
#752080
b101000 *
#753864
b11111110 *
#755736
b11111111 *
#761344
b0 *
#773244
b11111110 *
#775120
b11111111 *
#780724
b100000 *
#782512
b0 *
#792712
b11101000 *
#794588
b11111110 *
#796456
b11111111 *
#800192
b11101000 *
#802060
b0 *
#812260
b11101000 *
#814128
b11111110 *
#816008
b11111111 *
#819740
b11101110 *
#821608
b0 *
#831808
b11101000 *
#833680
b11111110 *
#835556
b11111111 *
#841160
b0 *
#851360
b101000 *
#853144
b11111110 *
#855020
b11111111 *
#860624
b0 *
#870824
b100000 *
#872612
b11111110 *
#874480
b11111111 *
#880092
b100000 *
#881876
b0 *
#892076
b11101010 *
#893944
b11111110 *
#895820
b11111111 *
#899556
b10101000 *
#901424
b0 *
#911624
b11101000 *
#913496
b11111110 *
#915372
b11111111 *
#919104
b11101110 *
#920976
b0 *
#931176
b11101000 *
#933044
b11111110 *
#934916
b11111111 *
#940524
b0 *
#950724
b10101000 *
#952596
b11111110 *
#954464
b11111111 *
#960076
b0 *
#970276
b100000 *
#972060
b11111110 *
#973932
b11111111 *
#979540
b0 *
#991440
b11101010 *
#993312
b11111111 *
#998920
1)
b10101000 *
#999600
1!
#1000792
b0 *
#1010992
b11111111 *
#1020340
b0 *
#1030540
b11101111 *
#1032412
b11111111 *
#1039892
b0 *
#1050092
b11101000 *
#1051960
b11111111 *
#1059440
b0 *
#1069640
b10101000 *
#1071508
b11111111 *
#1078992
b100000 *
#1080776
b0 *
#1089276
b100000 *
#1091060
b11111111 *
#1098548
b101000 *
#1100324
b0 *
#1110524
b11111111 *
#1118012
b11101111 *
#1119876
b0 *
#1130076
b11111111 *
#1139424
b0 *
#1149624
b11101111 *
#1151496
b11111111 *
#1158980
b0 *
#1169180
b11101000 *
#1171044
b11111111 *
#1178532
b0 *
#1188732
b101000 *
#1190512
b11111111 *
#1197996
b100000 *
#1199776
b0 *
#1208280
b100000 *
#1210060
b11111111 *
#1217540
b10101000 *
#1219416
b0 *
#1229616
b11111111 *
#1237088
b11101111 *
#1238968
b0 *
#1249168
b11111111 *
#1258508
b0 *
#1268716
b11101110 *
#1270588
b11111111 *
#1278060
b0 *
#1288260
b11101000 *
#1290136
b11111111 *
#1297612
b0 *
#1307812
b101000 *
#1309600
b11111111 *
#1317076
b100000 *
#1318868
b0 *
#1327360
b100000 *
#1329144
b11111111 *
#1336624
b10101000 *
#1338496
b0 *
#1348696
b11111111 *
#1356176
b11101111 *
#1358044
b0 *
#1368244
b11101111 *
#1370116
b11111111 *
#1377596
b0 *
#1387796
b11101000 *
#1389664
b11111111 *
#1397144
b0 *
#1407344
b10101000 *
#1409216
b11111111 *
#1416696
b0 *
#1426896
b100000 *
#1428680
b11111111 *
#1436160
b101000 *
#1437944
b0 *
#1448144
b11111111 *
#1455624
b11101111 *
#1457496
b0 *
#1467696
b11111111 *
#1477044
b0 *
#1487244
b11101000 *
#1489116
b11111111 *
#1494644
0!
#1494724
0)
#1496596
b0 *
#1506796
b10101000 *
#1508664
b11111110 *
#1510536
b11111111 *
#1516144
b0 *
#1526344
b100000 *
#1528132
b11111110 *
#1530000
b11111111 *
#1535612
b0 *
#1547512
b11101000 *
#1549380
b11111110 *
#1551256
b11111111 *
#1554992
b101000 *
#1556776
b0 *
#1566976
b11101000 *
#1568844
b11111110 *
#1570720
b11111111 *
#1574456
b11101000 *
#1576324
b0 *
#1586524
b11101000 *
#1588396
b11111110 *
#1590264
b11111111 *
#1594004
b11111110 *
#1595876
b0 *
#1606076
b10101000 *
#1607944
b11111110 *
#1609816
b11111111 *
#1615424
b0 *
#1625624
b100000 *
#1627412
b11111110 *
#1629280
b11111111 *
#1634892
b0 *
#1646788
b11101010 *
#1648660
b11111110 *
#1650536
b11111111 *
#1654268
b101000 *
#1656056
b0 *
#1666256
b11101000 *
#1668124
b11111110 *
#1670000
b11111111 *
#1673736
b11101010 *
#1675604
b0 *
#1685804
b11101000 *
#1687676
b11111110 *
#1689552
b11111111 *
#1695156
b0 *
#1705356
b10101000 *
#1707224
b11111110 *
#1709096
b11111111 *
#1714704
b0 *
#1724904
b100000 *
#1726692
b11111110 *
#1728560
b11111111 *
#1734168
b0 *
#1746072
b11111010 *
#1747948
b11111111 *
#1753548
b101000 *
#1755336
b0 *
#1765536
b11101000 *
#1767408
b11111110 *
#1769280
b11111111 *
#1773016
b11101110 *
#1774884
b0 *
#1785084
b11101000 *
#1786956
b11111110 *
#1788832
b11111111 *
#1794436
b0 *
#1804636
b10101000 *
#1806504
b11111110 *
#1808376
b11111111 *
#1813984
b0 *
#1824184
b100000 *
#1825972
b11111110 *
#1827840
b11111111 *
#1833452
b0 *
#1845352
b11101010 *
#1847228
b11111111 *
#1852828
b10101000 *
#1854700
b0 *
#1864900
b11101000 *
#1866768
b11111110 *
#1868648
b11111111 *
#1872380
b11101010 *
#1874252
b0 *
#1884448
b11101000 *
#1886320
b11111110 *
#1888196
b11111111 *
#1891932
b11111110 *
#1893800
b0 *
#1904000
b10101000 *
#1905872
b11111110 *
#1907740
b11111111 *
#1913348
b0 *
#1923552
b100000 *
#1925336
b11111110 *
#1927204
b11111111 *
#1932816
b0 *
#1944716
b11111010 *
#1946592
b11111111 *
#1952196
b101000 *
#1953980
b0 *
#1964180
b11101000 *
#1966056
b11111110 *
#1967928
b11111111 *
#1971660
b11101110 *
#1973528
b0 *
#1983728
b11101000 *
#1985600
b11111110 *
#1987476
b11111111 *
#1993080
b0 *
#1998180
1)
#1999208
1!
#2003280
b11101000 *
#2005152
b11111111 *
#2012628
b0 *
#2022832
b10101000 *
#2024700
b11111111 *
#2032180
b100000 *
#2033964
b0 *
#2042464
b101000 *
#2044252
b11111111 *
#2051732
b101000 *
#2053516
b0 *
#2063716
b11111111 *
#2071196
b11101111 *
#2073064
b0 *
#2083264
b11111111 *
#2092616
b0 *
#2102816
b11101111 *
#2104684
b11111111 *
#2112164
b0 *
#2122364
b11101000 *
#2124236
b11111111 *
#2131716
b0 *
#2141916
b10101000 *
#2143784
b11111111 *
#2151272
b100000 *
#2153052
b0 *
#2161556
b100000 *
#2163336
b11111111 *
#2170820
b101000 *
#2172600
b0 *
#2182800
b11111111 *
#2192156
b0 *
#2202348
b11111111 *
#2211708
b0 *
#2221908
b11101110 *
#2223772
b11111111 *
#2231256
b0 *
#2241456
b11101000 *
#2243320
b11111111 *
#2250800
b0 *
#2261000
b101000 *
#2262784
b11111111 *
#2270264
b101000 *
#2272056
b0 *
#2280548
b100000 *
#2282340
b11111111 *
#2289816
b11101001 *
#2291692
b0 *
#2301892
b11111111 *
#2311236
b0 *
#2321436
b11101111 *
#2323312
b11111111 *
#2330784
b0 *
#2340984
b11101000 *
#2342860
b11111111 *
#2350336
b0 *
#2360536
b10101000 *
#2362404
b11111111 *
#2369884
b0 *
#2380084
b101000 *
#2381872
b11111111 *
#2389352
b101000 *
#2391136
b0 *
#2399636
b100000 *
#2401420
b11111111 *
#2408900
b11101111 *
#2410768
b0 *
#2420972
b11111111 *
#2430320
b0 *
#2440520
b11101111 *
#2442388
b11111111 *
#2449872
b0 *
#2460068
b11101000 *
#2461940
b11111111 *
#2469420
b0 *
#2479620
b10101000 *
#2481492
b11111111 *
#2488972
b0 *
#2494068
0)
#2494240
0!
#2500872
b11101000 *
#2502740
b11111110 *
#2508348
b100000 *
#2510136
b0 *
#2520336
b11101000 *
#2522204
b11111110 *
#2527816
b10101000 *
#2529684
b0 *
#2539884
b10101000 *
#2541756
b11101000 *
#2543624
b11111110 *
#2547364
b11101000 *
#2549236
b0 *
#2559436
b100000 *
#2561220
b11101000 *
#2563088
b11111010 *
#2564968
b11111110 *
#2566832
b11101000 *
#2568700
b0 *
#2580600
b11101000 *
#2582476
b11111000 *
#2588080
b0 *
#2599980
b101000 *
#2601772
b11101000 *
#2603636
b11111000 *
#2607376
b100000 *
#2609160
b0 *
#2619368
b100000 *
#2621144
b11101000 *
#2623016
b11111000 *
#2626756
b10101000 *
#2628624
b0 *
#2638832
b100000 *
#2640608
b11101000 *
#2642480
b11111110 *
#2648092
b0 *
#2659988
b11101000 *
#2661860
b11111110 *
#2667476
b0 *
#2679368
b11101000 *
#2681240
b11111110 *
#2686856
b101000 *
#2688636
b0 *
#2698836
b11101000 *
#2700704
b11111110 *
#2702576
b11111111 *
#2706320
b11101010 *
#2708184
b0 *
#2718384
b10101000 *
#2720256
b11111110 *
#2722124
b11111111 *
#2725872
b11111110 *
#2727740
b0 *
#2737940
b101000 *
#2739720
b11111110 *
#2741592
b11111111 *
#2747208
b0 *
#2757408
b100000 *
#2759184
b11111110 *
#2761056
b11111111 *
#2766672
b100000 *
#2768452
b0 *
#2778648
b11111010 *
#2780520
b11111110 *
#2782392
b11111111 *
#2786136
b11101000 *
#2788000
b0 *
#2798200
b11101000 *
#2800068
b11111110 *
#2801940
b11111111 *
#2805688
b11111110 *
#2807552
b0 *
#2817748
b11101000 *
#2819620
b11111110 *
#2821488
b11111111 *
#2825228
b11111110 *
#2827108
b0 *
#2837308
b10101000 *
#2839168
b11111110 *
#2841040
b11111111 *
#2846656
b0 *
#2856856
b100000 *
#2858636
b11111110 *
#2860504
b11111111 *
#2866120
b100000 *
#2867900
b0 *
#2876400
b100000 *
#2878184
b11111110 *
#2881924
b11111111 *
#2885664
b10101000 *
#2887540
b0 *
#2897740
b11111010 *
#2899604
b11111110 *
#2901476
b11111111 *
#2905216
b11101000 *
#2907092
b0 *
#2917292
b11101000 *
#2919156
b11111110 *
#2921024
b11111111 *
#2924764
b11111110 *
#2926636
b0 *
#2936836
b11101000 *
#2938712
b11111110 *
#2940576
b11111111 *
#2946184
b0 *
#2956384
b11101000 *
#2958260
b11111110 *
#2960124
b11111111 *
#2965736
b0 *
#2975936
b10101000 *
#2977804
b11111110 *
#2979680
b11111111 *
#2985284
b100000 *
#2987068
b0 *
#2995572
b100000 *
#2997356
b11111110 *
#2998800
1!
#2999232
1)
b11111111 *
#3004836
b11101111 *
#3006704
b0 *
#3015204
b100000 *
#3016992
b11111111 *
#3026340
b0 *
#3036540
b11111111 *
#3045888
b0 *
#3056092
b11111111 *
#3065440
b0 *
#3075640
b11101110 *
#3077508
b11111111 *
#3084992
b100000 *
#3086776
b0 *
#3095276
b11101000 *
#3097144
b11111111 *
#3104632
b101000 *
#3106412
b0 *
#3114916
b11101000 *
#3116780
b11111111 *
#3124260
b11101000 *
#3126136
b0 *
#3134628
b10101000 *
#3136500
b11111111 *
#3143980
b11101111 *
#3145852
b0 *
#3154352
b10101000 *
#3156220
b11111111 *
#3165572
b0 *
#3174068
b100000 *
#3175856
b11111111 *
#3185204
b0 *
#3193712
b100000 *
#3195488
b11111111 *
#3204840
b0 *
#3215040
b11111111 *
#3224396
b0 *
#3234596
b11111111 *
#3243948
b100000 *
#3245724
b0 *
#3254232
b11101110 *
#3256100
b11111111 *
#3263576
b101000 *
#3265368
b0 *
#3273860
b11101000 *
#3275736
b11111111 *
#3283208
b11101000 *
#3285080
b0 *
#3293580
b11101000 *
#3295452
b11111111 *
#3302928
b11101111 *
#3304800
b0 *
#3313300
b11101000 *
#3315172
b11111111 *
#3324520
b0 *
#3333028
b10101000 *
#3334892
b11111111 *
#3344248
b0 *
#3352740
b100000 *
#3354532
b11111111 *
#3363876
b0 *
#3374076
b11111111 *
#3383424
b0 *
#3393624
b11111111 *
#3402976
b0 *
#3413176
b11111110 *
#3415044
b11111111 *
#3422524
b101000 *
#3424312
b0 *
#3432808
b11101000 *
#3434680
b11111111 *
#3442160
b10101000 *
#3444032
b0 *
#3452532
b11101000 *
#3454400
b11111111 *
#3461880
b11101000 *
#3463752
b0 *
#3472256
b11101000 *
#3474120
b11111111 *
#3481600
b11101111 *
#3483476
b0 *
#3491972
b10101000 *
#3493840
0!
#3493844
0)
b11111111 *
#3501320
b11101000 *
#3503188
b0 *
#3511688
b100000 *
#3513476
b11111110 *
#3515352
b11111111 *
#3520956
b11111010 *
#3522824
b0 *
#3533024
b11111110 *
#3534896
b11111111 *
#3540504
b11111110 *
#3542376
b0 *
#3552576
b11111000 *
#3554444
b11111111 *
#3561924
b0 *
#3572124
b11101000 *
#3573996
b11111111 *
#3581476
b0 *
#3591676
b11101000 *
#3593544
b11111111 *
#3601024
b100000 *
#3602812
b0 *
#3611308
b10101000 *
#3613180
b11111110 *
#3615052
b11111111 *
#3620668
b11101000 *
#3622532
b0 *
#3631036
b10100000 *
#3632900
b11111110 *
#3634772
b11111111 *
#3640380
b11101000 *
#3642256
b0 *
#3650752
b100000 *
#3652540
b11111110 *
#3654404
b11111111 *
#3660016
b11111010 *
#3661884
b0 *
#3672084
b11111110 *
#3673960
b11111111 *
#3679564
b11111110 *
#3681436
b0 *
#3691636
b11111010 *
#3693512
b11111111 *
#3700984
b0 *
#3711184
b11101000 *
#3713056
b11111111 *
#3720536
b0 *
#3730736
b11101000 *
#3732604
b11111111 *
#3740084
b100000 *
#3741872
b0 *
#3750372
b10101000 *
#3752240
b11111110 *
#3754108
b11111111 *
#3759720
b10101000 *
#3761588
b0 *
#3770088
b10100000 *
#3771960
b11111110 *
#3773828
b11111111 *
#3779448
b11101000 *
#3781308
b0 *
#3789808
b100000 *
#3791596
b11111110 *
#3793464
b11111111 *
#3799076
b11111000 *
#3800952
b0 *
#3811152
b11111110 *
#3813016
b11111111 *
#3818624
b11111110 *
#3820500
b0 *
#3830700
b11111010 *
#3832564
b11111111 *
#3840044
b0 *
#3850244
b11111000 *
#3852120
b11111111 *
#3859596
b0 *
#3869796
b11101000 *
#3871672
b11111111 *
#3879144
b100000 *
#3880936
b0 *
#3889428
b11101000 *
#3891300
b11111110 *
#3893176
b11111111 *
#3898780
b10101000 *
#3900652
b0 *
#3909152
b10100000 *
#3911020
b11111110 *
#3912888
b11111111 *
#3918500
b11101000 *
#3920368
b0 *
#3928876
b100000 *
#3930656
b11111110 *
#3932524
b11111111 *
#3938140
b11111000 *
#3940004
b0 *
#3950204
b11111110 *
#3952076
b11111111 *
#3957692
b11111110 *
#3959556
b0 *
#3969756
b11111110 *
#3971624
b11111111 *
#3979112
b0 *
#3989312
b11101000 *
#3991176
b11111111 *
#3998400
1!
#3998660
1)
b0 *
#4008860
b11101010 *
#4010724
b11111111 *
#4018204
b10101000 *
#4020080
b0 *
#4028576
b11101000 *
#4030448
b11111111 *
#4037924
b10101000 *
#4039796
b0 *
#4048296
b11101000 *
#4050164
b11111111 *
#4057644
b11101000 *
#4059516
b0 *
#4068016
b11101000 *
#4069884
b11111111 *
#4077372
b11101111 *
#4079236
b0 *
#4087740
b10101000 *
#4089604
b11111111 *
#4098960
b0 *
#4107456
b10100000 *
#4109324
b11111111 *
#4118676
b0 *
#4127176
b100000 *
#4128960
b11111111 *
#4138312
b0 *
#4148512
b11111111 *
#4157860
b0 *
#4168060
b11111111 *
#4177412
b0 *
#4187612
b11101000 *
#4189480
b11111111 *
#4196960
b101000 *
#4198744
b0 *
#4207244
b11101000 *
#4209116
b11111111 *
#4216600
b10101000 *
#4218464
b0 *
#4226972
b11101000 *
#4228836
b11111111 *
#4236316
b11101000 *
#4238192
b0 *
#4246684
b10101000 *
#4248560
b11111111 *
#4256036
b11101111 *
#4257904
b0 *
#4266404
b10100000 *
#4268276
b11111111 *
#4277624
b0 *
#4286124
b100000 *
#4287908
b11111111 *
#4297260
b0 *
#4307460
b11111111 *
#4316812
b0 *
#4327012
b11111111 *
#4336360
b0 *
#4346560
b11101010 *
#4348428
b11111111 *
#4355916
b100000 *
#4357696
b0 *
#4366200
b11101000 *
#4368064
b11111111 *
#4375544
b10101000 *
#4377420
b0 *
#4385916
b11101000 *
#4387792
b11111111 *
#4395264
b11101000 *
#4397136
b0 *
#4405636
b10101000 *
#4407504
b11111111 *
#4414984
b11101001 *
#4416856
b0 *
#4425356
b100000 *
#4427140
b11111111 *
#4436488
b0 *
#4446692
b11111111 *
#4456040
b0 *
#4466240
b11111111 *
#4475588
b0 *
#4485792
b11101111 *
#4487660
b11111111 *
#4493276
0)
#4493440
0!
#4495148
b0 *
#4505340
b11101000 *
#4507212
b11111110 *
#4509080
b11111111 *
#4514696
b0 *
#4524896
b100000 *
#4526676
b11111110 *
#4528544
b11111111 *
#4534160
b101000 *
#4535940
b0 *
#4546140
b11111010 *
#4548008
b11111111 *
#4553628
b11101000 *
#4555492
b0 *
#4565692
b11111000 *
#4567560
b11111110 *
#4569428
b11111111 *
#4573168
b11111110 *
#4575048
b0 *
#4585248
b11101000 *
#4587112
b11111110 *
#4588980
b11111111 *
#4594596
b0 *
#4604796
b11101000 *
#4606660
b11111110 *
#4608532
b11111111 *
#4614140
b0 *
#4624348
b10100000 *
#4626216
b11111110 *
#4628080
b11111111 *
#4633692
b0 *
#4645592
b11111010 *
#4647460
b11111111 *
#4653072
b11101000 *
#4654948
b0 *
#4665148
b11111010 *
#4667008
b11111110 *
#4668880
b11111111 *
#4672620
b11111010 *
#4674496
b0 *
#4684696
b11101000 *
#4686560
b11111110 *
#4688432
b11111111 *
#4692172
b11111110 *
#4694040
b0 *
#4704240
b11101000 *
#4706116
b11111110 *
#4707980
b11111111 *
#4713588
b0 *
#4723788
b10101000 *
#4725668
b11111110 *
#4727528
b11111111 *
#4733140
b0 *
#4743340
b100000 *
#4745132
b11111110 *
#4746996
b11111111 *
#4752604
b101000 *
#4754396
b0 *
#4764596
b11111010 *
#4766460
b11111111 *
#4772068
b11101000 *
#4773940
b0 *
#4784140
b11101000 *
#4786016
b11111111 *
#4791620
b11111110 *
#4793488
b0 *
#4803692
b11101000 *
#4805568
b11111110 *
#4807432
b11111111 *
#4813040
b0 *
#4823240
b10101000 *
#4825108
b11111110 *
#4826988
b11111111 *
#4832592
b0 *
#4842792
b100000 *
#4844576
b11111110 *
#4846452
b11111111 *
#4852056
b100000 *
#4853840
b0 *
#4864040
b11111010 *
#4865916
b11111111 *
#4871520
b11101000 *
#4873392
b0 *
#4883588
b11101010 *
#4885464
b11111111 *
#4891068
b11101010 *
#4892940
b0 *
#4903140
b11101000 *
#4905012
b11111110 *
#4906888
b11111111 *
#4910620
b11111110 *
#4912488
b0 *
#4922692
b11101000 *
#4924560
b11111110 *
#4926436
b11111111 *
#4932040
b0 *
#4942240
b100000 *
#4944024
b11111110 *
#4945900
b11111111 *
#4951504
b0 *
#4963404
b11111010 *
#4965280
b11111111 *
#4970884
b101000 *
#4972672
b0 *
#4982868
b11101000 *
#4984748
b11111111 *
#4990348
b11101010 *
#4992220
b0 *
#4997320
1)
#4998004
1!
#5002420
b11101111 *
#5004292
b11111111 *
#5011772
b0 *
#5021968
b11101000 *
#5023840
b11111111 *
#5031320
b0 *
#5041520
b10101000 *
#5043392
b11111111 *
#5050872
b0 *
#5061072
b100000 *
#5062856
b11111111 *
#5070336
b101000 *
#5072120
b0 *
#5082320
b11111111 *
#5089800
b11101111 *
#5091672
b0 *
#5101872
b11111111 *
#5111220
b0 *
#5121420
b11101010 *
#5123292
b11111111 *
#5130772
b0 *
#5140972
b10101000 *
#5142840
b11111111 *
#5150320
b0 *
#5160520
b100000 *
#5162304
b11111111 *
#5169784
b100000 *
#5171572
b0 *
#5181772
b11111111 *
#5189248
b11101001 *
#5191120
b0 *
#5201320
b11111111 *
#5210672
b0 *
#5220872
b11101011 *
#5222740
b11111111 *
#5230220
b0 *
#5240420
b11101000 *
#5242292
b11111111 *
#5249772
b0 *
#5259968
b10101000 *
#5261840
b11111111 *
#5269328
b0 *
#5279528
b100000 *
#5281304
b11111111 *
#5288792
b101000 *
#5290572
b0 *
#5300768
b11111111 *
#5308256
b11101111 *
#5310120
b0 *
#5320320
b11101111 *
#5322192
b11111111 *
#5329672
b0 *
#5339872
b11101000 *
#5341740
b11111111 *
#5349228
b0 *
#5359428
b10101000 *
#5361292
b11111111 *
#5368776
b0 *
#5378976
b100000 *
#5380756
b11111111 *
#5388240
b100000 *
#5390020
b0 *
#5400220
b11111111 *
#5407708
b11101001 *
#5409576
b0 *
#5419768
b11111111 *
#5429128
b0 *
#5439328
b11101010 *
#5441188
b11111111 *
#5448676
b0 *
#5458876
b11101000 *
#5460740
b11111111 *
#5468220
b0 *
#5478420
b101000 *
#5480212
b11111111 *
#5487684
b0 *
#5492784
0)
#5493048
0!
#5499584
b11101000 *
#5501456
b11111110 *
#5503324
b11111111 *
#5507064
b101000 *
#5508848
b0 *
#5519052
b11101000 *
#5520920
b11111110 *
#5522788
b11111111 *
#5526528
b11101000 *
#5528408
b0 *
#5538608
b11101000 *
#5540468
b11111110 *
#5542340
b11111111 *
#5546080
b11111110 *
#5547956
b0 *
#5558156
b10101000 *
#5560020
b11111110 *
#5561888
b11111111 *
#5567500
b0 *
#5577708
b100000 *
#5579484
b11111110 *
#5581356
b11111111 *
#5586964
b0 *
#5598864
b11101000 *
#5600736
b11111110 *
#5602604
b11111111 *
#5606352
b101000 *
#5608128
b0 *
#5618332
b11101000 *
#5620200
b11111110 *
#5622068
b11111111 *
#5625816
b11101000 *
#5627688
b0 *
#5637880
b11101000 *
#5639748
b11111110 *
#5641620
b11111111 *
#5645360
b11111110 *
#5647236
b0 *
#5657436
b10101000 *
#5659300
b11111110 *
#5661168
b11111111 *
#5666788
b0 *
#5676988
b100000 *
#5678764
b11111110 *
#5680636
b11111111 *
#5686252
b0 *
#5698144
b11101010 *
#5700016
b11111110 *
#5701884
b11111111 *
#5705632
b101000 *
#5707412
b0 *
#5717612
b11101000 *
#5719480
b11111110 *
#5721348
b11111111 *
#5725096
b11101010 *
#5726960
b0 *
#5737160
b11101000 *
#5739028
b11111110 *
#5740900
b11111111 *
#5744640
b11111110 *
#5746516
b0 *
#5756716
b10101000 *
#5758580
b11111110 *
#5760452
b11111111 *
#5766068
b0 *
#5776268
b100000 *
#5778044
b11111110 *
#5779916
b11111111 *
#5785532
b0 *
#5797424
b11111010 *
#5799296
b11111111 *
#5804912
b10101000 *
#5806776
b0 *
#5816976
b11101000 *
#5818844
b11111110 *
#5820716
b11111111 *
#5824460
b11101010 *
#5826332
b0 *
#5836524
b11101000 *
#5838396
b11111110 *
#5840264
b11111111 *
#5844004
b11111110 *
#5845880
b0 *
#5856080
b11101000 *
#5857944
b11111110 *
#5859816
b11111111 *
#5865432
b0 *
#5875632
b101000 *
#5877408
b11111110 *
#5879280
b11111111 *
#5884896
b0 *
#5896788
b11111110 *
#5898660
b11111111 *
#5904276
b10101000 *
#5906140
b0 *
#5916340
b11101010 *
#5918208
b11111110 *
#5920080
b11111111 *
#5923824
b11101010 *
#5925696
b0 *
#5935896
b11101000 *
#5937760
b11111110 *
#5939632
b11111111 *
#5943372
b11111110 *
#5945248
b0 *
#5955444
b11101000 *
#5957312
b11111110 *
#5959180
b11111111 *
#5964788
b0 *
#5974996
b10101000 *
#5976868
b11111110 *
#5978728
b11111111 *
#5984340
b0 *
#5994540
b100000 *
#5995220
1!
#5996332
1)
b11111110 *
#5998196
b11111111 *
#6003804
b101000 *
#6005596
b0 *
#6014092
b100000 *
#6015880
b11111111 *
#6023356
b11101111 *
#6025224
b0 *
#6035432
b11111111 *
#6044776
b0 *
#6054976
b11111111 *
#6064324
b0 *
#6074524
b11101000 *
#6076400
b11111111 *
#6083876
b0 *
#6094076
b10101000 *
#6095944
b11111111 *
#6103424
b100000 *
#6105208
b0 *
#6113712
b101000 *
#6115496
b11111111 *
#6122976
b101000 *
#6124760
b0 *
#6134960
b11111111 *
#6142440
b11101111 *
#6144308
b0 *
#6154512
b11111111 *
#6163860
b0 *
#6174060
b11101111 *
#6175932
b11111111 *
#6183408
b0 *
#6193608
b11101000 *
#6195480
b11111111 *
#6202960
b0 *
#6213160
b10101000 *
#6215032
b11111111 *
#6222512
b100000 *
#6224296
b0 *
#6232796
b100000 *
#6234580
b11111111 *
#6242068
b10101000 *
#6243932
b0 *
#6254132
b11111111 *
#6261616
b11101111 *
#6263480
b0 *
#6273680
b11111111 *
#6283036
b0 *
#6293228
b11101010 *
#6295100
b11111111 *
#6302588
b0 *
#6312788
b11101000 *
#6314652
b11111111 *
#6322136
b0 *
#6332336
b10101000 *
#6334200
b11111111 *
#6341680
b100000 *
#6343472
b0 *
#6351964
b100000 *
#6353756
b11111111 *
#6361232
b101000 *
#6363020
b0 *
#6373220
b11111111 *
#6380696
b11101111 *
#6382572
b0 *
#6392772
b11111111 *
#6402116
b0 *
#6412316
b11101000 *
#6414192
b11111111 *
#6421664
b0 *
#6431864
b11101000 *
#6433740
b11111111 *
#6441216
b0 *
#6451416
b101000 *
#6453208
b11111111 *
#6460680
b100000 *
#6462464
b0 *
#6470964
b100000 *
#6472752
b11111111 *
#6480232
b11101000 *
#6482100
b0 *
#6492300
0)
b11111111 *
#6492640
0!
#6494176
b11111110 *
#6496048
b11111111 *
#6499780
b11101000 *
#6501652
b0 *
#6511848
b11101000 *
#6513720
b11111110 *
#6515596
b11111111 *
#6519328
b11111110 *
#6521200
b0 *
#6531400
b11101000 *
#6533268
b11111110 *
#6535148
b11111111 *
#6540748
b0 *
#6550952
b101000 *
#6552736
b11111110 *
#6554608
b11111111 *
#6560216
b0 *
#6572116
b11111010 *
#6573992
b11111110 *
#6575856
b11111111 *
#6579596
b101000 *
#6581380
b0 *
#6591580
b11101000 *
#6593456
b11111110 *
#6595320
b11111111 *
#6599060
b11101000 *
#6600928
b0 *
#6611128
b11101000 *
#6613000
b11111110 *
#6614876
b11111111 *
#6618608
b11111110 *
#6620480
b0 *
#6630680
b11101000 *
#6632548
b11111110 *
#6634428
b11111111 *
#6640028
b0 *
#6650232
b101000 *
#6652016
b11111110 *
#6653892
b11111111 *
#6659496
b0 *
#6671396
b11111010 *
#6673272
b11111111 *
#6678876
b101000 *
#6680660
b0 *
#6690860
b11101000 *
#6692736
b11111110 *
#6694600
b11111111 *
#6698340
b11101000 *
#6700212
b0 *
#6710408
b11101000 *
#6712288
b11111110 *
#6714156
b11111111 *
#6717888
b11111110 *
#6719760
b0 *
#6729960
b11101000 *
#6731832
b11111110 *
#6733708
b11111111 *
#6739312
b0 *
#6749508
b10101000 *
#6751380
b11111110 *
#6753256
b11111111 *
#6758860
b0 *
#6769060
b100000 *
#6770844
b11111110 *
#6772720
b11111111 *
#6778324
b101000 *
#6780112
b0 *
#6790308
b11111010 *
