periphery/test_19_jan/merged_10.vcd
$date 2026-01-19 20:07:45 $end
$timescale 1 us $end
$scope module debug $end
$var logic 1 ! clk $end
$var logic 8 " data $end
$var logic 8 # state $end
$var logic 1 $ pcinc $end
$var logic 1 % not_scclear $end
$var logic 1 & not_instread $end
$var logic 1 ' not_enable $end
$var logic 1 ( direction $end
$upscope $end
$scope module interface $end
$var logic 1 ) clk $end
$var logic 8 * data $end
$var logic 16 + address $end
$var logic 1 , not_read $end
$var logic 1 - not_write $end
$upscope $end
$enddefinitions $end
#0
$dumpvars
1!
b10000 "
b11111111 #
0$
1%
1&
0'
0(
1)
b0 *
b1111110111000010 +
1,
1-
$end
#495472
0!
#495716
0)
#998332
1!
#999600
1)
#1493788
0!
#1495320
0)
#1996656
1!
#1999200
1)
#2201244
0!
#2203200
0)
#2978396
b100000 *
#2982648
b10100000 *
#3000328
b11100000 *
#3020220
b11100010 *
#3022428
b11101010 *
#3040112
b11101110 *
#3059996
b11101111 *
#3077680
b11111111 *
#4520816
b11111011 *
#4527436
b11111111 *
#4534076
b11111011 *
#4538488
b11111001 *
#4545116
b11111011 *
#4558380
b11111001 *
#4565008
b11111011 *
#4576064
b11111001 *
#4578276
b11111000 *
#4587108
b11111001 *
#4595948
b11111000 *
#4615840
b10110000 *
#4772752
b100000 *
#4774880
b0 *
#4825872
b10000000 *
#4843552
b10110000 *
#4903224
b11111110 *
#4905432
b11111111 *
#5071184
b11111101 *
#5073392
b11111100 *
#5077820
b10111100 *
#5082232
b11111100 *
#5091072
b10111100 *
#5102124
b10110100 *
b11000010 +
#5104164
b10111100 *
b0 +
#5105016
b0 "
b10000100 #
#5109772
b10110100 *
#5113512
b10110000 *
#5309864
b10100000 *
#5321084
b10110000 *
#5332304
b10100000 *
#5343524
b10110000 *
#5351004
b10100000 *
#5360352
b10110000 *
#5418324
b10110100 *
#5442632
b10111100 *
#5450112
b10110100 *
#5459464
b10111100 *
#5470684
b10110100 *
#5478168
b10111100 *
#5509960
b10110100 *
#5519308
b10111100 *
#5528652
b10110100 *
#5573540
b10100100 *
#5579144
b10110100 *
#5588492
b10100000 *
#5627768
b10000000 *
#5638988
b10100000 *
#5648340
b10000000 *
#5657684
b10100000 *
#5719392
b10110100 *
#5723132
b10110110 *
#5739964
b10111110 *
#5743704
b10111111 *
#5818504
b11111111 *
#5825984
b10111111 *
#5831600
b10110111 *
#5837204
b10111111 *
#5846552
b10110110 *
#5867124
b10110010 *
#5868992
b10100010 *
#5885828
b10000000 *
#6099004
b10100000 *
#6115832
b10110000 *
#6119572
b10110100 *
#6132668
b10110110 *
#6134532
b10111110 *
#6155108
b11111111 *
#6321532
b10111111 *
#6323404
b10011111 *
#6353324
b11111111 *
#6480484
b11111010 *
#6502924
b11111000 *
#6521628
b11110000 *
#6523492
b10110000 *
#6530980
b10111000 *
#6540324
b10110000 *
#6544064
b10100000 *
#6559024
b10000000 *
#6562768
b0 *
#6589964
b100000 *
#6598888
b0 *
#8475096
1!
#8477388
1)
#8486996
0!
#8490992
0)
#8991556
1!
#8994188
1)
#9486596
0!
#9488976
1'
#9490588
0)
#9991156
1!
#9993788
1)
#9995488
b100000 *
#10486196
0!
#10489932
0)
#10990756
1!
#10993304
1)
#11076436
0!
#11078984
0)
#11293016
1!
#11296760
1)
#11485796
0!
#11489532
0)
#11987976
1!
#11992908
1)
#12416376
0!
#12419516
0)
#13520868
b10100000 *
#13580704
b11100000 *
#13621844
b11100010 *
#13640548
b11101010 *
#13659244
b11101110 *
#13661120
b11111110 *
#13681684
b11111111 *
#14880352
b11011111 *
#14882224
b10011111 *
#14889704
b10111111 *
#14891572
b11111111 *
#14899060
b10011111 *
#14900924
b10011011 *
#14908408
b10011111 *
#14910280
b10111111 *
#14919628
b10111001 *
#14921500
b10110001 *
#14928972
b10110011 *
#14930848
b10111011 *
#14938324
b10110001 *
#14979464
b110001 *
#14983040
b10001 *
#14988388
b110001 *
#14999100
b1 *
#15000796
b0 *
#15007604
b100000 *
#15009384
b110001 *
#15018308
b100000 *
#15020092
b0 *
#15028592
b100000 *
#15032168
b110000 *
#15039308
b100000 *
#15048228
b110000 *
#15092852
b110001 *
#15099992
b110000 *
#15151760
b110100 *
#15157120
b110000 *
#15166040
b110100 *
#15169608
b110101 *
#15296348
b100100 *
#15299912
b100000 *
#15319548
b0 *
#15965548
b100000 *
#15981612
b100001 *
#16001248
b100111 *
#16004816
b101111 *
#16006604
b111111 *
#16044088
b1111111 *
#16053440
b111111 *
#16060580
b1111111 *
#16111068
b111111 *
#16134272
b110111 *
#16146768
b110011 *
#16148552
b100011 *
#16152124
b100001 *
#16155692
b100000 *
#16168188
b0 *
#16419796
b100000 *
#16480476
b100010 *
#16489408
b100000 *
#16496548
b100010 *
#16498328
b10100111 *
#16500200
b10110111 *
#16502068
b10111111 *
#16526380
b10100111 *
#16530116
b10100011 *
#16535728
b10100111 *
#16537600
b10101111 *
#16539476
b10111111 *
#16561908
b11111111 *
#16567516
b10111111 *
#16576868
b11111111 *
#17321128
b11111011 *
#17334224
b11111111 *
#17560496
b11111011 *
#17581056
b11111001 *
#17624068
b11111000 *
#17629676
b11111001 *
#17652116
b11111101 *
#17667080
b11111111 *
#17781148
b11111101 *
#17786764
b11111111 *
#17801720
b11111101 *
#17807332
b11111111 *
#17897088
b11111101 *
#17900828
b11111001 *
#17921400
b11111000 *
#17938236
b11110000 *
#17962540
b10100000 *
#17971888
b10110000 *
#17975628
b10100000 *
#17998068
b100000 *
#18008776
b100100 *
#18015920
b100000 *
#18028420
b100100 *
#18035560
b100000 *
#18055188
b0 *
#18060288
b10 *
#18077288
b0 *
#20195488
b100000 *
#20306076
1!
#20311512
1)
#20477436
0!
#20482196
b10001100 #
#20484656
0)
#20981996
1!
#20988028
1)
#21477036
0!
#21479416
b100000 "
b10010100 #
1$
0%
1(
#21484256
0)
#21486044
0,
#21935440
b10100000 "
#21981340
1!
0&
#21983892
b0 "
#21987764
1)
b0 *
#22476552
0!
#22478928
b1 "
b10001100 #
0$
1%
0(
#22484028
0)
#22485728
1,
#22981108
1!
1&
#22987228
1)
#22988928
b1 +
#23476156
0!
0'
#23478528
b0 "
b10000100 #
#23481928
0)
#23978328
1!
#23986828
1)
#24475748
0!
1$
0%
1'
1(
#24478128
b10010100 #
#24481528
0)
#24483228
0,
#24977928
1!
#24980308
0&
#24982688
b11 "
#24986500
1)
b11 *
#25472976
0!
#25475348
b0 "
b10000100 #
0$
1%
0'
0(
#25481132
0)
#25482828
1,
#25977528
1!
#25979908
1&
#25986036
1)
#26472568
0!
1'
#26474948
b10011100 #
#26480728
0)
#26977136
1!
#26983928
1)
#27472168
0!
#27474548
b10000100 #
#27480328
0)
#27976728
1!
#27983528
1)
#28471768
0!
#28474148
b10011100 #
#28479928
0)
#28973956
1!
#28983136
1)
#29471372
0!
#29473748
b10000100 #
#29479528
0)
#29973552
1!
#29982728
1)
#30470972
0!
#30473348
b10011100 #
#30479136
0)
#30973148
1!
#30982328
1)
#31468188
0!
#31472948
b10000100 #
#31478736
0)
#31972748
1!
#31981928
1)
#32467788
0!
#32472548
b10011100 #
#32478328
0)
#32972348
1!
#32981528
1)
#33467392
0!
#33469768
b10000100 #
#33477928
0)
#33971948
1!
#33981128
1)
#34466988
0!
#34469368
b10011100 #
#34477528
0)
#34969168
1!
#34980736
1)
#35466588
0!
b10001100 #
#35468968
b10000100 #
#35475436
0)
#35968768
1!
#35980328
1)
#36463808
0!
#36466192
b10011100 #
#36475028
0)
#36968376
1!
#36979928
1)
#37463408
0!
#37465788
b10000100 #
#37474628
0)
#37967968
1!
#37979528
1)
#38429688
0!
#38434448
b10011100 #
