periphery/test_19_jan/merged_6.vcd
$date 2026-01-19 19:12:32 $end
$timescale 1 us $end
$scope module debug $end
$var logic 1 ! clk $end
$var logic 8 " data $end
$var logic 8 # state $end
$var logic 1 $ pcinc $end
$var logic 1 % not_scclear $end
$var logic 1 & not_instread $end
$var logic 1 ' not_enable $end
$var logic 1 ( direction $end
$upscope $end
$scope module interface $end
$var logic 1 ) clk $end
$var logic 8 * data $end
$var logic 16 + address $end
$var logic 1 , not_read $end
$var logic 1 - not_write $end
$upscope $end
$enddefinitions $end
#0
$dumpvars
1!
b0 "
b10000000 #
0$
1%
1&
1'
0(
1)
b0 *
b0 +
1,
1-
$end
#495716
0!
#495804
0)
#998324
1!
#999692
1)
#1494044
0!
#1495496
0)
#1998944
1!
#1999372
1)
#2494664
0!
#2495176
0)
#2997268
1!
#2999056
1)
#3492988
0!
#3494860
0)
#3995592
1!
#3998740
1)
#4491312
0!
#4494544
0)
#4996212
1!
#4998516
1)
#5491932
0!
#5493208
0)
#5994536
1!
#5996412
1)
#6171252
0!
#6173212
0)
#9095516
b100 *
#9115916
b1100 *
#9117696
b1110 *
#9131976
b1001110 *
#9133760
b1111110 *
#9135628
b11111110 *
#9156200
b11111111 *
#9345072
b11011110 *
#9358160
b11111110 *
#9384348
b11011110 *
#9403040
b1001110 *
#9408396
b1000110 *
#9429816
b1000100 *
#9442312
b1000000 *
#9467308
b0 *
#9571000
b1000000 *
#9592420
b1000100 *
#9613840
b1000110 *
#9628120
b11000110 *
#9652432
b11000111 *
#9673008
b11000110 *
#9676740
b11000100 *
#9753408
b11000110 *
#9755280
b11011110 *
#9794548
b11111110 *
#9833828
b11111111 *
#9940416
b11111110 *
#9962856
b11011110 *
#10018952
b11010110 *
#10020820
b11000110 *
#10039520
b1000110 *
#10041304
b110 *
#10058304
b100 *
#10080404
b0 *
#10265704
b100 *
#10292904
b110 *
#10303104
b1110 *
#10306676
b10001110 *
#10308544
b10001111 *
#10347820
b11011111 *
#10388956
b11111111 *
#10594660
b11011110 *
#10611484
b11010110 *
#10613356
b11000010 *
#10615232
b11000000 *
#10618964
b1000000 *
#10629676
b0 *
#10821776
b10000000 *
#10823644
b11000000 *
#10829260
b11000100 *
#10834864
b10000100 *
#10838604
b100 *
#10842004
b10000100 *
#10843876
b11000100 *
#10849484
b11100100 *
#10860704
b11110100 *
#10862576
b11111100 *
#10864444
b11111110 *
#10868184
b11111111 *
#11055184
b11111110 *
#11070144
b10111110 *
#11094460
b10110110 *
#11111284
b10100110 *
#11116900
b10100010 *
#11129984
b10100000 *
#11131856
b100000 *
#11169340
b0 *
#11381840
b100 *
#11388640
b0 *
#11398840
b100 *
#11652140
b0 *
#11655548
b100 *
#11670844
b0 *
#11675948
b100 *
#11689540
b0 *
#11696340
b100 *
#11706540
b0 *
#11718440
b100 *
#11725248
b0 *
#11837440
b10000000 *
#11844924
b0 *
#11858520
b10000000 *
#11866000
b0 *
#11876200
b10000000 *
#11889288
b0 *
#11894392
b10000000 *
#11907488
b0 *
#11915980
b10000000 *
#11925332
b0 *
#11938932
b10000000 *
#11944540
b0 *
#12021048
b11000000 *
#12183728
b1000000 *
#12194440
b11000000 *
#12201920
b1000000 *
#12205496
b0 *
#12212292
b1000000 *
#12221216
b0 *
#12296016
b1000000 *
#12317436
b11000000 *
#12321180
b1000000 *
#12331884
b11000000 *
#12393596
b11001000 *
#12401080
b11000000 *
#12414164
b11001000 *
#12421644
b11000000 *
#12442216
b1000000 *
#12452924
b11000000 *
#12462276
b1000000 *
#12464060
b0 *
#12472568
b1000000 *
#12479700
b0 *
#12534104
b10001000 *
#12539708
b1000 *
#12551616
b10001000 *
#12572180
b11001110 *
#12579660
b11001010 *
#12581528
b10001000 *
#12589008
b11001000 *
#12590880
b11001110 *
#12600228
b11001010 *
#12605848
b11001000 *
#12609580
b11001010 *
#12611448
b11001110 *
#12620800
b11001010 *
#12630152
b11001110 *
#12639508
b11001010 *
#12650720
b11001110 *
#12660076
b11001010 *
#12669420
b11001110 *
#12678772
b11001010 *
#12691868
b11001110 *
#12699340
b11001010 *
#12703088
b1001010 *
#12710228
b11001010 *
#12719568
b1001010 *
#12721356
b1001000 *
#12728496
b1001010 *
#12739204
b1001000 *
#12742776
b1000 *
#12749576
b1001010 *
#12758500
b1001000 *
#12760284
b1000 *
#12768784
b1001000 *
#12770576
b1001010 *
#12779496
b1000 *
#12788000
b1001000 *
#12789780
b1001010 *
#12798704
b1001000 *
#12800488
b1000 *
#12808992
b1001000 *
#12812568
b1001010 *
#12817916
b1001000 *
#12819708
b1000 *
#12828200
b1001000 *
#12838912
b1000 *
#12849112
b1001000 *
#12859828
b1000 *
#12868320
b1001000 *
#12879028
b1000 *
#12887528
b1001000 *
#12898240
b1000 *
#12908440
b1001000 *
#12917364
b1000 *
#13027864
b1001000 *
#13036796
b1000 *
#13046988
b1001000 *
#13048776
b1001010 *
#13057700
b1001000 *
#13066632
b1001010 *
#13068408
b1001011 *
#13086260
b11001011 *
#14301760
b11011011 *
#14307372
b11001011 *
#14320460
b11011011 *
#14327940
b11001011 *
#14339160
b11011011 *
#14350380
b11001011 *
#14357864
b11011011 *
#14526160
b11111011 *
#14571040
b11111001 *
#14576652
b11111011 *
#14587868
b11111001 *
#14597220
b11111011 *
#14634620
b11111111 *
#14649588
b11111011 *
#14928216
b11111111 *
#15124560
b11111011 *
#15176920
b11111111 *
#15186276
b11111011 *
#15193748
b11111111 *
#15206848
b11111011 *
#15214320
b11111111 *
#15223668
b11111011 *
#15560272
b10111011 *
#15621980
b10011011 *
#15679948
b10011001 *
#15700520
b11001 *
#15721940
b1001 *
#15759340
b1000 *
#15778048
b0 *
#16464840
b10 *
#16471640
b0 *
#16485240
b10 *
#16492040
b0 *
#16505640
b10 *
#16510740
b0 *
#16624640
b10 *
#16631440
b0 *
#16641640
b10 *
#16719840
b10000010 *
#16721708
b10000011 *
#16820820
b11000011 *
#16861960
b11001011 *
#16869440
b11000011 *
#16878788
b11001011 *
#16904972
b11011011 *
#16910588
b11001011 *
#16940500
b11011011 *
#16947980
b11011001 *
#16949852
b11001001 *
#16962948
b11011001 *
#16974168
b11111001 *
#16983508
b11111011 *
#17015300
b11111111 *
#19005656
1!
#19012460
1)
#19479276
0!
#19481656
b10001000 #
#19485572
0)
#19487440
b11011111 *
#19610868
b11011011 *
#19983836
1!
#19990472
1)
#20478876
0!
#20481256
1$
0%
1(
#20483636
b11011011 "
b10010000 #
#20486020
0)
#20487888
b11001011 *
0,
#20824496
b10001011 *
#20904900
b10000011 *
#20980888
b11001011 "
#20983436
1!
0&
#20985988
b110011 "
#20989192
1)
b110011 *
#21478988
0!
0(
#21481452
b0 "
b10000100 #
0$
1%
0'
#21485280
0)
#21487064
1,
#21981252
1!
#21983632
1&
#21988656
1)
#22478680
0!
0%
1'
1(
#22481052
b110011 "
b10010100 #
1$
#22484880
0)
#22486664
0,
#22562396
b1 "
0$
1%
0(
#22567156
1(
#22568776
1,
#22569536
0(
#22576676
b100001 "
#22579144
b1 "
#22981364
1!
#22988252
1)
#22990036
b1 +
#23476404
0!
#23478784
0'
#23481168
b0 "
b10000100 #
#23484480
0)
#23980964
1!
#23987852
1)
#24476004
0!
#24478384
1'
#24480764
b1 "
b10010100 #
#24484084
0)
#24980564
1!
#24987452
1)
#25475604
0!
#25477988
0'
#25480364
b0 "
b10000100 #
#25483688
0)
#25980164
1!
#25987052
1)
#26475204
0!
#26477584
b1 "
b10010100 #
1'
#26483280
0)
#26977384
1!
#26986652
1)
#27474808
0!
0'
#27477184
b0 "
b10000100 #
#27481096
0)
#27976984
1!
#27986256
1)
#28474404
0!
b1 "
b10010100 #
1'
#28480696
0)
#28976584
1!
#28985852
1)
#29471624
0!
#29474004
b0 "
b10000100 #
0'
#29480300
0)
#29976184
1!
#29983664
1)
#30471224
0!
1'
#30473604
b1 "
b10010100 #
#30479896
0)
#30975788
1!
#30983264
1)
#31470824
0!
#31473204
b0 "
b10000100 #
0'
#31479496
0)
#31975384
1!
#31982872
1)
#32470424
0!
1'
#32472804
b1 "
b10010100 #
#32479096
0)
#32972608
1!
#32982472
1)
#33470024
0!
0'
#33472404
b0 "
b10000100 #
#33478696
0)
#33972204
1!
#33982064
1)
#34469624
0!
1'
#34472004
b1 "
b10010100 #
#34478296
0)
#34971804
1!
#34981664
1)
#35466844
0!
#35469224
0'
#35471604
b0 "
b10000100 #
#35477900
0)
#35971404
1!
#35981264
1)
#36466444
0!
#36468824
1'
#36471204
b1 "
b10010100 #
#36477496
0)
#36971004
1!
#36980864
1)
#37466044
0!
#37468424
b0 "
b10000100 #
0'
#37477096
0)
#37970604
1!
#37980472
1)
#38465644
0!
#38468024
b1 "
b10010100 #
1'
#38476696
0)
#38967824
1!
#38980064
1)
#39465244
0!
#39467624
b0 "
b10000100 #
0'
#39476296
0)
#39967424
1!
#39979664
1)
#40462464
0!
#40464844
b1 "
b10010100 #
1'
#40474112
0)
#40967028
1!
#40979264
1)
#41462064
0!
#41464444
b0 "
b10000100 #
0'
#41473712
0)
#41966624
1!
#41978864
1)
#42461664
0!
1'
#42464048
b1 "
b10010100 #
#42473312
0)
#42966224
1!
#42976688
1)
#43461264
0!
0'
#43463644
b0 "
b10000100 #
#43472908
0)
#43965824
1!
#43976280
1)
#44460868
0!
1'
#44463244
b1 "
b10010100 #
#44472508
0)
#44963044
1!
#44975880
1)
#45460464
0!
0'
#45462844
b0 "
b10000100 #
#45472116
0)
#45962644
1!
#45975480
1)
#46457688
0!
#46460064
1'
#46462444
b1 "
b10010100 #
#46471712
0)
#46962244
1!
#46975080
1)
#47457284
0!
#47459664
0'
#47462044
b0 "
b10000100 #
#47471308
0)
#47961844
1!
#47974688
1)
#48456884
0!
#48459264
b1 "
b10010100 #
1'
#48470908
0)
#48961444
1!
#48974284
1)
#49004284
0'
#49006664
b0 "
b10000100 #
#49018904
b0 +
#49456484
0!
#49458864
b1 "
b10010100 #
1'
#49470512
0)
#49780164
b10000100 #
0'
#49782548
b0 "
#49882504
b10000111 #
#49958664
1!
#49973880
1)
#50456084
0!
#50470112
0)
#50958264
1!
#50973480
1)
#51455684
0!
1'
#51469716
0)
#51957864
1!
#51973080
1)
#52452904
0!
#52467524
0)
#52957464
1!
#52972680
1)
#53452504
0!
#53467124
0)
#53957064
1!
#53972288
1)
#54452104
0!
#54466724
0)
#54956664
1!
#54970096
1)
#55451704
0!
#55466332
0)
#55953884
1!
#55969696
1)
#56451304
0!
#56465924
0)
#56953484
1!
#56969296
1)
#57450904
0!
1$
0%
1(
#57453284
b110011 "
b10010111 #
#57465524
0)
#57467316
0,
#57953676
1!
0&
#57968968
1)
#58449144
0!
0'
0(
#58451608
b0 "
b10000100 #
0$
1%
#58465124
0)
#58466908
1,
#58951408
1!
#58953788
1&
#58968500
1)
#59448828
0!
1'
#59451216
b1 "
b10010100 #
#59464724
0)
#59951008
1!
#59968096
1)
#59969888
b1 +
#60448428
0!
0'
#60450808
b0 "
b10000100 #
#60464324
0)
#60950608
1!
#60967696
1)
#61445648
0!
#61448036
1'
#61450408
b1 "
b10010100 #
#61463932
0)
#61950208
1!
#61967296
1)
#62445248
0!
#62447628
0'
#62450008
b0 "
b10000100 #
#62463524
0)
#62949808
1!
#62966896
1)
#63444856
0!
#63447228
1'
#63449608
b1 "
b10010100 #
#63463124
0)
#63949408
1!
#63966500
1)
#64444448
0!
0'
#64446828
b0 "
b10000100 #
#64460940
0)
#64946628
1!
#64966096
1)
#65444048
0!
1'
#65446428
b1 "
b10010100 #
#65460548
0)
#65946228
1!
#65963912
1)
#66443648
0!
0'
#66446028
b0 "
b10000100 #
#66460140
0)
#66945836
1!
#66963512
1)
#67440868
0!
#67443248
b1 "
b10010100 #
1'
#67459740
0)
#67945428
1!
#67963116
1)
#68440468
0!
#68442848
b0 "
b10000100 #
0'
#68459340
0)
#68945028
1!
#68962716
1)
#69440068
0!
1'
#69442448
b1 "
b10010100 #
#69458940
0)
#69944628
1!
#69962312
1)
#70439668
0!
#70442048
b0 "
b10000100 #
0'
#70458540
0)
#70941848
1!
#70961912
1)
#71439268
0!
1'
#71441648
b1 "
b10010100 #
#71458144
0)
#71941448
1!
#71961512
1)
#72436488
0!
#72438868
0'
#72441248
b0 "
b10000100 #
#72457740
0)
#72941048
1!
#72961112
1)
#73436088
0!
#73438468
1'
#73440848
b1 "
b10010100 #
#73457340
0)
#73940648
1!
#73960716
1)
#74435688
0!
#74438068
0'
#74440448
b0 "
b10000100 #
#74456940
0)
#74940256
1!
#74960316
1)
#75435288
0!
1'
#75437668
b1 "
b10010100 #
#75454760
0)
#75937468
1!
#75959912
1)
#76434888
0!
0'
#76437272
b0 "
b10000100 #
#76454356
0)
#76937072
1!
#76959512
1)
#77434488
0!
1'
#77436868
b1 "
b10010100 #
#77453956
0)
#77936668
1!
#77957324
1)
#78431708
0!
#78434096
b0 "
b10000100 #
0'
#78453556
0)
#78936268
1!
#78956932
1)
#79110440
b0 +
#79431308
0!
#79433688
1'
#79453156
0)
#79935868
1!
#79956524
1)
#80430916
0!
#80452756
0)
#80935468
1!
#80956124
1)
#81430508
0!
#81452360
0)
#81932688
1!
#81955724
1)
#82430108
0!
#82451956
0)
#82932288
1!
#82955324
1)
#83429708
0!
#83451556
0)
#83931888
1!
#83954932
1)
#84426928
0!
#84429308
1$
0%
1(
#84431692
b110011 "
b10010100 #
#84451156
0)
#84452940
0,
#84932084
1!
0&
#84954596
1)
#85427548
0!
0'
0(
#85430012
b0 "
b10000100 #
0$
1%
#85450756
0)
#85452540
1,
#85929820
1!
#85932192
1&
#85954124
1)
#86427232
0!
b1 "
b10010100 #
1'
#86448576
0)
#86929412
1!
#86953724
1)
#86955512
b1 +
#87424452
0!
#87426840
b0 "
b10000100 #
0'
#87448172
0)
#87929012
1!
#87953324
1)
#88424052
0!
1'
#88426432
b1 "
b10010100 #
#88447772
0)
#88928612
1!
#88951148
1)
#89423660
0!
0'
#89426032
b0 "
b10000100 #
#89447372
0)
#89928212
1!
#89950740
1)
#90423252
0!
1'
#90425632
b1 "
b10010100 #
#90446968
0)
#90815952
0'
#90818340
b0 "
b10000111 #
#90841460
b0 +
#90925432
1!
#90950340
1)
#91422852
0!
#91446576
0)
#91925032
1!
#91949940
1)
#92420072
0!
#92446172
0)
#92924632
1!
#92949540
1)
#93419672
0!
#93422052
1$
0%
1'
1(
#93424440
b110011 "
b10010111 #
#93445772
0)
#93447560
0,
#93924828
1!
0&
#93949212
1)
#94420292
0!
0$
1%
0'
0(
#94422756
b0 "
b10000100 #
#94445368
0)
#94447156
1,
#94922564
1!
#94924936
1&
#94948484
1)
#95417596
0!
#95419976
1'
#95422356
b1 "
b10010100 #
#95444036
0)
#95922156
1!
#95947072
1)
#95948936
b1 +
#96417876
0!
#96420344
b0 "
b10000100 #
0'
#96444484
0)
#96920736
1!
#96947520
1)
#97416204
0!
#97418668
b1 "
b10010100 #
1'
#97443072
0)
#97921528
1!
#97946096
1)
#98103936
0'
#98106404
b0 "
b10000100 #
#98131232
b0 +
#98416992
0!
#98443520
0)
#98919852
1!
#98946544
1)
#99415320
0!
1'
#99442100
0)
#99918176
1!
#99945124
1)
#100413644
0!
#100440676
0)
#100918968
1!
#100945576
1)
#101251744
0!
#101278436
0)
#109911288
1!
#109940276
1)
#110406752
0!
1$
0%
1(
#110409220
b110011 "
b10010100 #
#110435824
0)
#110437700
0,
#110909016
1!
#110911568
0&
#110938920
1)
#111406268
0!
b0 "
b10000100 #
0$
1%
0'
0(
#111434404
0)
#111436276
1,
#111909128
1!
#111911592
1&
#111939304
1)
#112404592
0!
1'
#112407056
b1 "
b10010100 #
#112434856
0)
#112907452
1!
#112937884
1)
#112939756
b1 +
#113402916
0!
#113405384
b0 "
b10000100 #
0'
#113433436
0)
#113908244
1!
#113938336
1)
#114403708
0!
1'
#114406180
b1 "
b10010100 #
#114433884
0)
#114906568
1!
#114936916
1)
#115402032
0!
0'
#115404496
b0 "
b10000100 #
#115432464
0)
#115904892
1!
#115937364
1)
#116400356
0!
#116402824
1'
#116405288
b1 "
b10010100 #
#116432916
0)
#116905684
1!
#116935952
1)
#117401148
0!
0'
#117403612
b0 "
b10000100 #
#117431496
0)
#117904008
1!
#117936400
1)
#118399472
0!
#118401936
b10010100 #
1'
#118404404
b1 "
#118431944
0)
#118902332
1!
#118934980
1)
#119397796
0!
#119400268
b10000100 #
0'
#119402728
b0 "
#119430532
0)
#119903124
1!
#119933556
1)
#120398588
0!
1'
#120401052
b1 "
b10010100 #
#120430980
0)
#120901456
1!
#120934004
1)
#121396912
0!
#121399376
b0 "
b10000100 #
0'
#121429556
0)
#121899772
1!
#121932584
1)
#122395236
0!
1'
#122397704
b1 "
b10010100 #
#122428136
0)
#122900564
1!
#122933036
1)
#123396028
0!
0'
#123398492
b0 "
b10000100 #
#123428584
0)
#123898888
1!
#123931616
1)
#124394360
0!
1'
#124396820
b1 "
b10010100 #
#124427164
0)
#124897212
1!
#124932064
1)
#125392684
0!
#125395144
0'
#125397608
b0 "
b10000100 #
#125427616
0)
#125898004
1!
#125930644
1)
#126393468
0!
1'
#126395932
b1 "
b10010100 #
#126426196
0)
#126896328
1!
#126931096
1)
#127391792
0!
#127394256
b10000100 #
0'
#127396728
b0 "
#127426644
0)
#127894652
1!
#127929680
1)
#128390116
0!
#128392584
b10010100 #
1'
#128395056
b1 "
#128425232
0)
#128895444
1!
#128930132
1)
#129390908
0!
#129393372
b0 "
b10000100 #
0'
#129425680
0)
#129893768
1!
#129928704
1)
#130389232
0!
1'
#130391696
b1 "
b10010100 #
#130424260
0)
#130892092
1!
#130927284
1)
#131387556
0!
#131390024
0'
#131392488
b0 "
b10000100 #
#131424712
0)
#131892884
1!
#131927736
1)
#132388348
0!
1'
#132390812
b1 "
b10010100 #
#132423284
0)
#132891208
1!
#132926316
1)
#133386672
0!
0'
#133389144
b0 "
b10000100 #
#133421864
0)
#133889532
1!
#133926764
1)
#134384996
0!
#134387464
1'
#134389928
b1 "
b10010100 #
#134422316
0)
#134890328
1!
#134925344
1)
#135385788
0!
0'
#135388252
b0 "
b10000100 #
#135420896
0)
#135888648
1!
#135925796
1)
#136384112
0!
#136386576
1'
#136389044
b1 "
b10010100 #
#136421344
0)
#136886972
1!
#136924376
1)
#137384904
0!
0'
#137387368
b0 "
b10000100 #
#137419924
0)
#137887764
1!
#137924824
1)
#138383236
0!
1'
#138385692
b1 "
b10010100 #
#138420376
0)
#138886088
1!
#138923412
1)
#139381560
0!
#139384016
b0 "
b10000100 #
0'
#139418960
0)
#139884420
1!
#139921984
1)
#140382344
0!
1'
#140384808
b1 "
b10010100 #
#140419412
0)
#140885204
1!
#140922436
1)
#141380668
0!
0'
#141383132
b0 "
b10000100 #
#141417984
0)
#141883528
1!
#141921016
1)
#142378992
0!
#142381456
1'
#142383928
b1 "
b10010100 #
#142418436
0)
#142881852
1!
#142921464
1)
#143379784
0!
0'
#143382248
b0 "
b10000100 #
#143417016
0)
#143882644
1!
#143920044
1)
#144378108
0!
1'
#144380572
b1 "
b10010100 #
#144415596
0)
#144880968
1!
#144920496
1)
#145376432
0!
#145378896
0'
#145381364
b0 "
b10000100 #
#145416044
0)
#145879292
1!
#145919076
1)
#146377224
0!
1'
#146379688
b1 "
b10010100 #
#146414624
0)
#146880084
1!
#146919524
1)
#147375548
0!
#147378020
b0 "
b10000100 #
0'
#147415076
0)
#147878408
1!
#147918112
1)
#148373872
0!
1'
#148376344
b1 "
b10010100 #
#148413656
0)
#148876732
1!
#148918560
1)
#149374664
0!
0'
#149377128
b0 "
b10000100 #
#149414104
0)
#149877528
1!
#149917136
1)
#150372988
0!
1'
#150375452
b1 "
b10010100 #
#150412692
0)
#150875848
1!
#150915716
1)
#151371312
0!
#151373780
0'
#151376244
b0 "
b10000100 #
#151413140
0)
#151876636
1!
#151916164
1)
#152372104
0!
1'
#152374568
b1 "
b10010100 #
#152411716
0)
#152874964
1!
#152914744
1)
#153370436
0!
0'
#153372892
b0 "
b10000100 #
#153410296
0)
#153873288
1!
#153915196
1)
#154368752
0!
#154371216
1'
#154373684
b1 "
b10010100 #
#154410744
0)
#154874076
1!
#154913776
1)
#155369544
0!
0'
#155372008
b0 "
b10000100 #
#155409324
0)
#155872404
1!
#155914224
1)
#156367868
0!
1'
#156370332
b1 "
b10010100 #
#156409776
0)
#156870728
1!
#156912804
1)
#157366192
0!
#157368656
b0 "
b10000100 #
0'
#157408356
0)
#157871516
1!
#157913256
1)
#158366984
0!
1'
#158369448
b1 "
b10010100 #
#158408804
0)
#158869844
1!
#158911840
1)
#159365308
0!
0'
#159367772
b0 "
b10000100 #
#159407392
0)
#159868168
1!
#159912292
1)
#160363632
0!
#160366096
1'
#160368564
b1 "
b10010100 #
#160407840
0)
#160868956
1!
#160910864
1)
#161364424
0!
0'
#161366892
b0 "
b10000100 #
#161406416
0)
#161867284
1!
#161909444
1)
#162362748
0!
#162365220
1'
#162367676
b1 "
b10010100 #
#162406864
0)
#162865608
1!
#162909896
1)
#163361072
0!
#163363536
0'
#163366004
b0 "
b10000100 #
#163405444
0)
#163866404
1!
#163908476
1)
#164361864
0!
1'
#164364328
b1 "
b10010100 #
#164404024
0)
#164864724
1!
#164908924
1)
#165360188
0!
#165362652
b0 "
b10000100 #
0'
#165404476
0)
#165863048
1!
#165907504
1)
#166358512
0!
1'
#166360980
b1 "
b10010100 #
#166403056
0)
#166863840
1!
#166907956
1)
#167359308
0!
0'
#167361768
b0 "
b10000100 #
#167403504
0)
#167862164
1!
#167906540
1)
#168357628
0!
1'
#168360092
b1 "
b10010100 #
#168402084
0)
#168860496
1!
#168906992
1)
#169355952
0!
#169358416
0'
#169360884
b0 "
b10000100 #
#169402536
0)
#169861276
1!
#169905572
1)
#170356744
0!
1'
#170359208
b1 "
b10010100 #
