periphery/test_19_jan/merged_3.vcd
$date 2026-01-19 17:15:47 $end
$timescale 1 us $end
$scope module debug $end
$var logic 1 ! clk $end
$var logic 8 " data $end
$var logic 8 # state $end
$var logic 1 $ pcinc $end
$var logic 1 % not_scclear $end
$var logic 1 & not_instread $end
$var logic 1 ' not_enable $end
$var logic 1 ( direction $end
$upscope $end
$scope module interface $end
$var logic 1 ) clk $end
$var logic 8 * data $end
$var logic 16 + address $end
$var logic 1 , not_read $end
$var logic 1 - not_write $end
$upscope $end
$enddefinitions $end
#0
$dumpvars
1!
b0 "
b10000100 #
0$
1%
1&
1'
0(
1)
b11111111 *
b0 +
1,
1-
$end
#1868
b101111 *
#3660
b0 *
#13860
b11101111 *
#15724
b11111111 *
#21332
b11101111 *
#23208
b0 *
#33408
b101111 *
#35188
b11111111 *
#42672
b0 *
#52876
b100010 *
#54652
b11111111 *
#62132
b0 *
#72340
b100010 *
#74120
b11111111 *
#81600
b100010 *
#83384
b0 *
#93584
b11101111 *
#95452
b11111111 *
#101064
b101111 *
#102848
b0 *
#113048
b11101111 *
#114920
b11111111 *
#122404
b0 *
#132604
b100111 *
#134384
b11111111 *
#141868
b0 *
#152068
b100010 *
#153848
b11111111 *
#161336
b10 *
#163028
b0 *
#171536
b100000 *
#173312
b11111111 *
#180800
b100111 *
#182576
b0 *
#192780
b11101111 *
#194648
b11111111 *
#200264
b1101111 *
#202128
b0 *
#212328
b11101111 *
#214196
b11111111 *
#221684
b0 *
#231880
b100110 *
#233664
b11111111 *
#241148
b0 *
#251348
b100010 *
#253128
b11111111 *
#260616
b0 *
#270816
b100000 *
#272592
b11111111 *
#280080
b100010 *
#281860
b0 *
#292060
b11101111 *
#293928
b11111111 *
#299544
b11101111 *
#301408
b0 *
#311608
b11101111 *
#313480
b11111111 *
#320960
b0 *
#331156
b100010 *
#332944
b11111111 *
#340428
b0 *
#350624
b100010 *
#352408
b11111111 *
#359896
b100000 *
#361672
b0 *
#370180
b100000 *
#371960
b11111111 *
#379444
b100010 *
#381224
b0 *
#391424
b11101111 *
#393292
b11111111 *
#398908
b1101111 *
#400772
b0 *
#410972
b11101111 *
#412844
b11111111 *
#420328
b0 *
#430524
b1101010 *
#432392
b11111111 *
#439880
b0 *
#450080
b100010 *
#451856
b11111111 *
#459344
b0 *
#469544
b100000 *
#471324
b11111111 *
#478808
b100010 *
#480588
b0 *
#490788
b11101111 *
#492660
b11111111 *
#495040
0!
#496400
0)
#498276
b100010 *
#500052
b0 *
#510252
b11100010 *
#512124
b11111110 *
#513992
b11111111 *
#517740
b11101110 *
#519604
b0 *
#529804
b100010 *
#531588
b11111110 *
#533460
b11111111 *
#539068
b0 *
#549268
b100000 *
#551052
b11111110 *
#552924
b11111111 *
#558532
b0 *
#570432
b11101010 *
#572304
b11111111 *
#577912
b100000 *
#579696
b0 *
#589896
b11101010 *
#591768
b11111110 *
#593636
b11111111 *
#597380
b1101010 *
#599248
b0 *
#609448
b11100010 *
#611320
b11111110 *
#613188
b11111111 *
#616936
b11101110 *
#618796
b0 *
#629000
b100010 *
#630784
b11111110 *
#632652
b11111111 *
#638264
b0 *
#648464
b100000 *
#650248
b11111110 *
#652120
b11111111 *
#657728
b0 *
#669628
b11101010 *
#671500
b11111110 *
#673376
b11111111 *
#677108
b100010 *
#678892
b0 *
#689092
b11101010 *
#690964
b11111110 *
#692840
b11111111 *
#696572
b11101010 *
#698444
b0 *
#708644
b1100010 *
#710428
b11111110 *
#712304
b11111111 *
#717908
b0 *
#728108
b100000 *
#729892
b11111110 *
#731768
b11111111 *
#737372
b0 *
#747572
b100000 *
#749356
b11111110 *
#751236
b11111111 *
#756836
b100000 *
#758624
b0 *
#768824
b11101010 *
#770700
b11111110 *
#772568
b11111111 *
#776304
b100010 *
#778088
b0 *
#788288
b11101010 *
#790164
b11111110 *
#792036
b11111111 *
#795768
b11101110 *
#797636
b0 *
#807836
b1100010 *
#809628
b11111110 *
#811500
b11111111 *
#817104
b0 *
#827304
b100000 *
#829096
b11111110 *
#830964
b11111111 *
#836568
b0 *
#846768
b100000 *
#848560
b11111110 *
#850428
b11111111 *
#856032
b100000 *
#857816
b0 *
#868020
b11101010 *
#869896
b11111110 *
#871760
b11111111 *
#875496
b1101010 *
#877368
b0 *
#887568
b11101010 *
#889444
b11111110 *
#891308
b11111111 *
#895048
b11101110 *
#896920
b0 *
#907120
b11100010 *
#908988
b11111110 *
#910864
b11111111 *
#916468
b0 *
#926668
b100000 *
#928452
b11111110 *
#930328
b11111111 *
#935932
b0 *
#946132
b100000 *
#947916
b11111110 *
#949796
b11111111 *
#955400
b100000 *
#957184
b0 *
#967384
b11111010 *
#969260
b11111110 *
#971124
b11111111 *
#974864
b1101010 *
#976732
b0 *
#986932
b11101010 *
#988808
b11111110 *
#990680
b11111111 *
#994412
b11101110 *
#996284
b0 *
#997220
1!
#999684
1)
#1006484
b11101110 *
#1008352
b11111111 *
#1015832
b0 *
#1026032
b11100010 *
#1027904
b11111111 *
#1035384
b0 *
#1045584
b100000 *
#1047368
b11111111 *
#1054848
b100000 *
#1056632
b0 *
#1065132
b100000 *
#1066920
b11111111 *
#1074400
b101010 *
#1076184
b0 *
#1086384
b11111111 *
#1095732
b0 *
#1105932
b11101110 *
#1107804
b11111111 *
#1115284
b0 *
#1125484
b11101010 *
#1127352
b11111111 *
#1134832
b0 *
#1145032
b10100010 *
#1146904
b11111111 *
#1154384
b0 *
#1164584
b100000 *
#1166368
b11111111 *
#1173848
b100000 *
#1175632
b0 *
#1184132
b100000 *
#1185920
b11111111 *
#1193400
b11101110 *
#1195268
b0 *
#1205468
b11111111 *
#1214820
b0 *
#1225016
b11101110 *
#1226888
b11111111 *
#1234368
b0 *
#1244568
b11101010 *
#1246440
b11111111 *
#1253924
b0 *
#1264124
b100000 *
#1265904
b11111111 *
#1273388
b100000 *
#1275168
b0 *
#1283676
b100000 *
#1285452
b11111111 *
#1292940
b100010 *
#1294720
b0 *
#1303220
b100000 *
#1305004
b11111111 *
#1312484
b11101110 *
#1314360
b0 *
#1324560
b11111110 *
#1326424
b11111111 *
#1333908
b0 *
#1344108
b11101010 *
#1345972
b11111111 *
#1353452
b0 *
#1363652
b11101010 *
#1365528
b11111111 *
#1373004
b0 *
#1383204
b100000 *
#1384996
b11111111 *
#1392468
b100000 *
#1394260
b0 *
#1402752
b100000 *
#1404544
b11111111 *
#1412020
b100010 *
#1413808
b0 *
#1424008
b11111110 *
#1425880
b11111111 *
#1431484
b11101111 *
#1433352
b0 *
#1443552
b11101110 *
#1445428
b11111111 *
#1452904
b0 *
#1463104
b11101010 *
#1464980
b11111111 *
#1472452
b0 *
#1482652
b10100000 *
#1484524
b11111111 *
#1492004
b0 *
#1494648
0!
#1495404
0)
#1497020
b10001100 #
#1501788
b10000100 #
#1502204
b100000 *
#1503988
b11111110 *
#1507728
b11111111 *
#1511468
b100000 *
#1513252
b0 *
#1523452
b11111010 *
#1525328
b11111110 *
#1527192
b11111111 *
#1530932
b1100000 *
#1532720
b0 *
#1542920
b11101010 *
#1544796
b11111110 *
#1546660
b11111111 *
#1550400
b11111010 *
#1552268
b0 *
#1562468
b11101000 *
#1564340
b11111110 *
#1566216
b11111111 *
#1569948
b11111110 *
#1571816
b0 *
#1582016
b100000 *
#1583804
b11111110 *
#1585680
b11111111 *
#1591284
b0 *
#1601484
b100000 *
#1603268
b11111110 *
#1607008
b11111111 *
#1610748
b100000 *
#1612532
b0 *
#1621032
b100000 *
#1622820
b11111010 *
#1624696
b11111110 *
#1626556
b11111111 *
#1630300
b100000 *
#1632084
b0 *
#1642284
b11111010 *
#1644160
b11111110 *
#1646028
b11111111 *
#1649764
b11111010 *
#1651632
b0 *
#1661832
b11101010 *
#1663704
b11111110 *
#1665580
b11111111 *
#1669312
b11111110 *
#1671184
b0 *
#1681384
b11100000 *
#1683252
b11111110 *
#1685128
b11111111 *
#1690732
b0 *
#1700932
b100000 *
#1702716
b11111110 *
#1704596
b11111111 *
#1710196
b100000 *
#1711984
b0 *
#1720484
b100000 *
#1722268
b11111110 *
#1726016
b11111111 *
#1729748
b100000 *
#1731532
b0 *
#1741732
b11111010 *
#1743604
b11111110 *
#1745480
b11111111 *
#1749212
b11101010 *
#1751084
b0 *
#1761284
b11101010 *
#1763152
b11111110 *
#1765028
b11111111 *
#1768764
b11111110 *
#1770632
b0 *
#1780832
b11101000 *
#1782704
b11111110 *
#1784572
b11111111 *
#1790184
b0 *
#1800384
b10100000 *
#1802252
b11111110 *
#1804124
b11111111 *
#1809732
b0 *
#1819932
b100000 *
#1821720
b11111110 *
#1823588
b11111111 *
#1829196
b100000 *
#1830984
b0 *
#1839484
b100000 *
#1841268
b11111110 *
#1845008
b11111111 *
#1848748
b11101000 *
#1850616
b0 *
#1860820
b11111010 *
#1862688
b11111110 *
#1864556
b11111111 *
#1868304
b11111010 *
#1870168
b0 *
#1880368
b11111010 *
#1882240
b11111110 *
#1884108
b11111111 *
#1887856
b11111110 *
#1889716
b0 *
#1899916
b11101000 *
#1901788
b11111110 *
#1903656
b11111111 *
#1909276
b0 *
#1919476
b10100000 *
#1921340
b11111110 *
#1923208
b11111111 *
#1928824
b0 *
#1939024
b100000 *
#1940804
b11111110 *
#1942672
b11111111 *
#1948288
b100000 *
#1950068
b0 *
#1958576
b100000 *
#1960352
b11111110 *
#1962224
b11111111 *
#1967832
b11101010 *
#1969708
b0 *
#1979908
b11111010 *
#1981772
b11111110 *
#1983644
b11111111 *
#1987384
b11111110 *
#1989260
b0 *
#1996820
1!
#1999460
1)
b11111010 *
#2001324
b11111111 *
#2008804
b0 *
#2019004
b11101010 *
#2020880
b11111111 *
#2028352
b0 *
#2038552
b11101000 *
#2040428
b11111111 *
#2047904
b100000 *
#2049696
b0 *
#2058188
b100000 *
#2059972
b11111111 *
#2067452
b101000 *
#2069240
b0 *
#2077740
b100000 *
#2079524
b11111111 *
#2087004
b11101111 *
#2088872
b0 *
#2099072
b11111111 *
#2108424
b0 *
#2118624
b11111111 *
#2127972
b0 *
#2138172
b11101010 *
#2140044
b11111111 *
#2147524
b0 *
#2157724
b11101010 *
#2159592
b11111111 *
#2167072
b100000 *
#2168860
b0 *
#2177360
b100000 *
#2179144
b11111111 *
#2186624
b100000 *
#2188408
b0 *
#2196908
b100000 *
#2198692
b11111111 *
#2206180
b11101111 *
#2208044
b0 *
#2218244
b11111111 *
#2227592
b0 *
#2237792
b11111110 *
#2239664
b11111111 *
#2247148
b0 *
#2257344
b11101010 *
#2259212
b11111111 *
#2266700
b0 *
#2276900
b11101000 *
#2278764
b11111111 *
#2286248
b100000 *
#2288028
b0 *
#2296528
b100000 *
#2298320
b11111111 *
#2305792
b100000 *
#2307584
b0 *
#2316080
b100000 *
#2317868
b11111111 *
#2325344
b11101110 *
#2327216
b0 *
#2335712
b100000 *
#2337500
b11111111 *
#2346848
b0 *
#2357048
b11111111 *
#2366400
b0 *
#2376600
b11111110 *
#2378468
b11111111 *
#2385948
b0 *
#2396148
b11101010 *
#2398020
b11111111 *
#2405500
b0 *
#2415700
b10100000 *
#2417568
b11111111 *
#2425048
b100000 *
#2426832
b0 *
#2435332
b100000 *
#2437120
b11111111 *
#2444596
b11101010 *
#2446468
b0 *
#2454968
b100000 *
#2456752
b11111111 *
#2466104
b0 *
#2476304
b11111111 *
#2485652
b0 *
#2494152
0)
#2494240
0!
#2495852
b11101010 *
#2497724
b11111110 *
#2499592
b11111111 *
#2503340
b11111110 *
#2505208
b0 *
#2515408
b11100000 *
#2517272
b11111110 *
#2519144
b11111111 *
#2524760
b0 *
#2534960
b100000 *
#2536740
b11111110 *
#2538608
b11111111 *
#2544224
b100000 *
#2546004
b0 *
#2554508
b100000 *
#2556288
b11111110 *
#2558156
b11111111 *
#2563768
b100000 *
#2565552
b0 *
#2575752
b11111010 *
#2577624
b11111110 *
#2579492
b11111111 *
#2583232
b11101010 *
#2585108
b0 *
#2595308
b11111010 *
#2597172
b11111110 *
#2599044
b11111111 *
#2602784
b11111110 *
#2604660
b0 *
#2614860
b11101000 *
#2616724
b11111110 *
#2618592
b11111111 *
#2624204
b0 *
#2634408
b11100000 *
#2636280
b11111110 *
#2638144
b11111111 *
#2643752
b0 *
#2653952
b100000 *
#2655744
b11111110 *
#2657608
b11111111 *
#2663220
b100000 *
#2665008
b0 *
#2673504
b100000 *
#2675296
b11111110 *
#2677160
b11111111 *
#2682768
b11101000 *
#2684636
b0 *
#2694840
b11111010 *
#2696716
b11111110 *
#2698576
b11111111 *
#2702316
b11111010 *
#2704188
b0 *
#2714388
b11111010 *
#2716264
b11111110 *
#2718128
b11111111 *
#2721868
b11111110 *
#2723740
b0 *
#2733940
b11101000 *
#2735808
b11111110 *
#2737684
b11111111 *
#2743288
b0 *
#2753488
b10100000 *
#2755360
b11111110 *
#2757236
b11111111 *
#2762836
b0 *
#2773040
b100000 *
#2774824
b11111110 *
#2778564
b11111111 *
#2782304
b100000 *
#2784088
b0 *
#2794288
b11111010 *
#2796164
b11111110 *
#2799896
b11111111 *
#2801768
b11101000 *
#2803636
b0 *
#2813840
b11101000 *
#2815708
b11111110 *
#2821316
b11101010 *
#2823188
b0 *
#2833388
b11100000 *
#2835260
b11111010 *
#2837136
b11111110 *
#2842736
b0 *
#2852936
b100000 *
#2854724
b11111010 *
#2856600
b11111110 *
#2862204
b0 *
#2874104
b11111000 *
#2875980
b11111110 *
#2881584
b0 *
#2893488
b11101000 *
#2895360
b11111010 *
#2897224
b11111110 *
#2900964
b100000 *
#2902748
b0 *
#2912948
b10100000 *
#2914824
b11111010 *
#2916688
b11111110 *
#2920428
b11101000 *
#2922296
b0 *
#2932496
b100000 *
#2934288
b11111000 *
#2936152
b11111110 *
#2939892
b11111010 *
#2941764
b0 *
#2953664
b11101000 *
#2955532
b11111010 *
#2957404
b11111110 *
#2961144
b0 *
#2973044
b11100000 *
#2974912
b11111010 *
#2976784
b11111110 *
#2980528
b100000 *
#2982308
b0 *
#2992508
b10100000 *
#2994376
b11111000 *
#2996248
b11111110 *
#2996424
1!
#2998120
1)
#2999988
b11101000 *
#3001864
b0 *
#3012064
b10100000 *
#3013928
b11111110 *
#3015800
b11111111 *
#3019540
b11111110 *
#3021416
b0 *
#3031616
b100000 *
#3033392
b11111110 *
#3035264
b11111111 *
#3040880
b0 *
#3051080
b100000 *
#3052860
b11111010 *
#3054728
b11111111 *
#3060344
b100000 *
#3062124
b0 *
#3072324
b11101010 *
#3074192
b11111111 *
#3079808
b101000 *
#3081588
b0 *
#3091788
b11101000 *
#3093660
b11111110 *
#3095528
b11111111 *
#3099276
b11101110 *
#3101144
b0 *
#3111340
b11101000 *
#3113208
b11111110 *
#3115080
b11111111 *
#3120696
b0 *
#3130896
b100000 *
#3132672
b11111110 *
#3134544
b11111111 *
#3140160
b0 *
#3150360
b100000 *
#3152140
b11111110 *
#3154008
b11111111 *
#3159624
b100000 *
#3161404
b0 *
#3171604
b11111010 *
#3173472
b11111111 *
#3179088
b10101000 *
#3180952
b0 *
#3191152
b11101010 *
#3193024
b11111110 *
#3194892
b11111111 *
#3198640
b11101010 *
#3200508
b0 *
#3210708
b11101000 *
#3212572
b11111110 *
#3214444
b11111111 *
#3220060
b0 *
#3230260
b10100000 *
#3232124
b11111110 *
#3233992
b11111111 *
#3239604
b0 *
#3249808
b100000 *
#3251588
b11111110 *
#3253460
b11111111 *
#3259068
b0 *
#3270968
b11111000 *
#3272840
b11111110 *
#3274708
b11111111 *
#3278456
b100000 *
#3280232
b0 *
#3290432
b11101000 *
#3292304
b11111110 *
#3294172
b11111111 *
#3297920
b11101000 *
#3299788
b0 *
#3309984
b10100000 *
#3311852
b11111110 *
#3313724
b11111111 *
#3317464
b11111110 *
#3319340
b0 *
#3329540
b100000 *
#3331316
b11111010 *
#3333188
b11111110 *
#3338804
b0 *
#3349004
b100000 *
#3350784
b11111000 *
#3352652
b11111110 *
#3358268
b0 *
#3370164
b11101000 *
#3372032
b11111110 *
#3377648
b100000 *
#3379428
b0 *
#3389628
b10100000 *
#3391500
b11111010 *
#3393368
b11111110 *
#3397116
b11101000 *
#3398980
b0 *
#3409180
b100000 *
#3410964
b11111010 *
#3412832
b11111110 *
#3418444
b0 *
#3428644
b100000 *
#3430428
b11111000 *
#3432300
b11111110 *
#3437908
b0 *
#3449808
b11101000 *
#3451680
b11111110 *
#3457288
b100000 *
#3459072
b0 *
#3469272
b10101000 *
#3471144
b11111010 *
#3473020
b11111110 *
#3476752
b100000 *
#3478540
b0 *
#3488740
b10100000 *
#3490608
b11111000 *
#3491468
0!
#3492484
b11111110 *
#3494356
0)
#3496216
b10101000 *
#3498088
b0 *
#3508288
b100000 *
#3510072
b11101000 *
#3511948
b11111000 *
#3513820
b11111010 *
#3515684
b11111000 *
#3517552
b0 *
#3529452
b11101000 *
#3531328
b11111000 *
#3533192
b11111010 *
#3536932
b0 *
#3548840
b10100000 *
#3550708
b11111000 *
#3552572
b11111010 *
#3556312
b100000 *
#3558096
b0 *
#3568304
b100000 *
#3570084
b11111000 *
#3571952
b11111010 *
#3575692
b11101000 *
#3577564
b0 *
#3587764
b100000 *
#3589548
b11101000 *
#3591420
b11111010 *
#3597028
b0 *
#3608928
b11101000 *
#3610800
b11111010 *
#3616416
b0 *
#3628308
b10100000 *
#3630180
b11111000 *
#3632048
b11111010 *
#3635796
b100000 *
#3637572
b0 *
#3647772
b10100000 *
#3649644
b11111000 *
#3651512
b11111010 *
#3655260
b10101000 *
#3657124
b0 *
#3667324
b100000 *
#3669108
b11111000 *
#3670976
b11111110 *
#3674724
b11111000 *
#3676588
b0 *
#3686788
b100000 *
#3688572
b11111000 *
#3690444
b11111010 *
#3692312
b11111110 *
#3696052
b0 *
#3707952
b11101000 *
#3709824
b11111010 *
#3711692
b11111110 *
#3715432
b100000 *
#3717216
b0 *
#3727420
b11101000 *
#3729288
b11111010 *
#3731160
b11111110 *
#3734900
b100000 *
#3736684
b0 *
#3746884
b100000 *
#3748668
b11111000 *
#3750544
b11111110 *
#3754276
b11111000 *
#3756148
b0 *
#3766348
b100000 *
#3768132
b11111000 *
#3770008
b11111110 *
#3775612
b0 *
#3787512
b11111000 *
#3789388
b11111110 *
#3794992
b0 *
#3806896
b11101000 *
#3808768
b11111010 *
#3810632
b11111110 *
#3814372
b100000 *
#3816156
b0 *
#3826356
b10100000 *
#3828236
b11111010 *
#3830100
b11111110 *
#3833836
b11101000 *
#3835708
b0 *
#3845908
b100000 *
#3847700
b11111000 *
#3849564
b11111110 *
#3855172
b0 *
#3865372
b100000 *
#3867164
b11111000 *
#3869028
b11111110 *
#3874640
b0 *
#3886544
b11101000 *
#3888408
b11111010 *
#3890276
b11111110 *
#3894020
b100000 *
#3895808
b0 *
#3906008
b11101000 *
#3907872
b11111010 *
#3909744
b11111110 *
#3913484
b10101000 *
#3915360
b0 *
#3925560
b10100000 *
#3927424
b11111010 *
#3929292
b11111110 *
#3933032
b11111010 *
#3934904
b0 *
#3945108
b100000 *
#3946888
b11111010 *
#3948760
b11111110 *
#3954368
b0 *
#3964576
b100000 *
#3966352
b11111010 *
#3968224
b11111110 *
#3973832
b0 *
#3985732
b11101000 *
#3987604
b11111110 *
#3993220
b100000 *
#3995000
b0 *
#3996020
1!
#3998400
1)
#4005196
b11111010 *
#4007068
b11111110 *
#4008940
b11111111 *
#4012684
b11111110 *
#4014556
b0 *
#4024748
b11101000 *
#4026620
b11111110 *
#4028488
b11111111 *
#4034104
b0 *
#4044304
b10100000 *
#4046168
b11111110 *
#4048040
b11111111 *
#4053656
b0 *
#4063856
b100000 *
#4065632
b11111110 *
#4067504
b11111111 *
#4073120
b100000 *
#4074896
b0 *
#4083396
b100000 *
#4085184
b11111110 *
#4087052
b11111111 *
#4092664
b101000 *
#4094456
b0 *
#4104656
b11111010 *
#4106516
b11111111 *
#4112128
b11111110 *
#4114004
b0 *
#4124204
b11101000 *
#4126068
b11111110 *
#4127940
b11111111 *
#4133552
b0 *
#4143756
b11101000 *
#4145624
b11111110 *
#4147488
b11111111 *
#4153100
b0 *
#4163300
b10100000 *
#4165176
b11111110 *
#4167040
b11111111 *
#4172648
b0 *
#4182848
b100000 *
#4184640
b11111110 *
#4186504
b11111111 *
#4192112
b100000 *
#4193904
b0 *
#4204104
b11111110 *
#4205968
b11111111 *
#4211580
b11101000 *
#4213448
b0 *
#4223656
b11111010 *
#4225524
b11111111 *
#4231128
b11111110 *
#4233000
b0 *
#4243196
b11101000 *
#4245076
b11111110 *
#4246940
b11111111 *
#4252548
b0 *
#4262748
b10101000 *
#4264624
b11111110 *
#4266496
b11111111 *
#4272096
b0 *
#4282300
b100000 *
#4284084
b11111110 *
#4285960
b11111111 *
#4291564
b100000 *
#4293348
b0 *
#4301848
b100000 *
#4303632
b11111110 *
#4305508
b11111111 *
#4311112
b101000 *
#4312896
b0 *
#4323100
b11111110 *
#4324976
b11111111 *
#4330580
b11111110 *
#4332448
b0 *
#4342648
b11111010 *
#4344520
b11111111 *
#4351996
b0 *
#4362196
b11101000 *
#4364068
b11111111 *
#4371548
b0 *
#4381748
b10100000 *
#4383620
b11111110 *
#4385488
b11111111 *
#4391100
b0 *
#4401300
b100000 *
#4403084
b11111110 *
#4404952
b11111111 *
#4410564
b100000 *
#4412348
b0 *
#4420848
b100000 *
#4422632
b11111110 *
#4424504
b11111111 *
#4430112
b11101000 *
#4431984
b0 *
#4442184
b11111110 *
#4444052
b11111111 *
#4449664
b11111110 *
#4451532
b0 *
#4461732
b11111010 *
#4463604
b11111111 *
#4471084
b0 *
#4481284
b11101000 *
#4483152
b11111111 *
#4490632
b0 *
#4491060
0!
#4494032
0)
#4495820
b10001100 #
#4500580
b10000100 #
#4500832
b100000 *
#4502616
b11111010 *
#4504488
b11111110 *
#4510100
b0 *
#4520300
b100000 *
#4522084
b11111010 *
#4523952
b11111110 *
#4529564
b100000 *
#4531348
b0 *
#4541548
b11111010 *
#4543420
b11111110 *
#4549028
b11101000 *
#4550896
b0 *
#4561100
b11111000 *
#4562968
b11111110 *
#4570448
b0 *
#4580648
b11101000 *
#4582520
b11111110 *
#4590000
b0 *
#4600196
b10100000 *
#4602068
b11111110 *
#4609556
b0 *
#4619756
b100000 *
#4621532
b11111110 *
#4625272
b11111111 *
#4629020
b100000 *
#4630800
b0 *
#4639304
b100000 *
#4641084
b11111010 *
#4642952
b11111110 *
#4644824
b11111111 *
#4648568
b10101000 *
#4650432
b0 *
#4660632
b11111010 *
#4662504
b11111110 *
#4664372
b11111111 *
#4668112
b11111010 *
#4669988
b0 *
#4680188
b11111010 *
#4682052
b11111110 *
#4683924
b11111111 *
#4687664
b11111110 *
#4689540
b0 *
#4699740
b11101000 *
#4701604
b11111110 *
#4703472
b11111111 *
#4709084
b0 *
#4719284
b10100000 *
#4721160
b11111110 *
#4723024
b11111111 *
#4728632
b0 *
#4738832
b100000 *
#4740624
b11111110 *
#4742488
b11111111 *
#4748100
b100000 *
#4749888
b0 *
#4758384
b100000 *
#4760176
b11111110 *
#4763908
b11111111 *
#4767648
b11101000 *
#4769520
b0 *
#4779716
b11111010 *
#4781596
b11111110 *
#4783456
b11111111 *
#4787196
b11111110 *
#4789068
b0 *
#4799268
b11111010 *
#4801144
b11111110 *
#4803008
b11111111 *
#4806748
b11111110 *
#4808616
b0 *
#4818820
b11101000 *
#4820688
b11111110 *
#4822564
b11111111 *
#4828168
b0 *
#4838368
b11101000 *
#4840240
b11111110 *
#4842116
b11111111 *
#4847720
b100000 *
#4849504
b0 *
#4858004
b100000 *
#4859788
b11111110 *
#4861660
b11111111 *
#4867268
b100000 *
#4869052
b0 *
#4877552
b100000 *
#4879340
b11111110 *
#4881208
b11111111 *
#4886820
b11101000 *
#4888688
b0 *
#4898888
b11111110 *
#4900756
b11111111 *
#4906368
b11111110 *
#4908240
b0 *
#4918436
b11111010 *
#4920308
b11111111 *
#4925924
b11111110 *
#4927788
b0 *
#4937988
b11111000 *
#4939856
b11111110 *
#4941728
b11111111 *
#4947336
b0 *
#4957540
b11101000 *
#4959408
b11111110 *
#4961276
b11111111 *
#4966896
b100000 *
#4968672
b0 *
#4977180
b10100000 *
#4979044
b11111110 *
#4980912
b11111111 *
#4986528
b100000 *
#4988308
b0 *
#4995628
1!
#4996808
1)
b100000 *
#4998592
b11111111 *
#5006072
b11111110 *
#5007948
b0 *
#5016444
b100000 *
#5018236
b11111111 *
#5027580
b0 *
#5036076
b100000 *
#5037864
b11111111 *
#5047212
b0 *
#5057412
b11111111 *
#5066764
b0 *
#5076964
b11111110 *
#5078832
b11111111 *
#5086312
b0 *
#5096512
b11101010 *
#5098384
b11111111 *
#5105864
b100000 *
#5107648
b0 *
#5116148
b11101000 *
#5118020
b11111111 *
#5125500
b101000 *
#5127284
b0 *
#5135784
b100000 *
#5137568
b11111111 *
#5145056
b11111110 *
#5146920
b0 *
#5155424
b100000 *
#5157204
b11111111 *
#5166560
b0 *
#5176752
b11111111 *
#5186108
b0 *
#5196308
b11111111 *
#5205660
b0 *
#5215860
b11111110 *
#5217724
b11111111 *
#5225204
b100000 *
#5226996
b0 *
#5235488
b11101010 *
#5237364
b11111111 *
#5244836
b100000 *
#5246628
b0 *
#5255124
b10101000 *
#5256992
b11111111 *
#5264472
b101000 *
#5266256
b0 *
#5274760
b100000 *
#5276544
b11111111 *
#5284024
b11111110 *
#5285892
b0 *
#5294392
b100000 *
#5296180
b11111111 *
#5305528
b0 *
#5315728
b11111111 *
#5325080
b0 *
#5335280
b11111110 *
#5337148
b11111111 *
#5344628
b0 *
#5354828
b11111010 *
#5356696
b11111111 *
#5364184
b0 *
#5374380
b11101000 *
#5376248
b11111111 *
#5383736
b100000 *
#5385512
b0 *
#5394020
b100000 *
#5395800
b11111111 *
#5403284
b11101010 *
#5405156
b0 *
#5413648
b100000 *
#5415440
b11111111 *
#5424788
b0 *
#5433284
b100000 *
#5435068
b11111111 *
#5444420
b0 *
#5454620
b11111111 *
#5463968
b0 *
#5474168
b11111110 *
#5476040
b11111111 *
#5483520
b0 *
#5490660
0!
#5493720
0)
b11101010 *
#5495588
b11111110 *
#5497464
b11111111 *
#5503068
b0 *
#5513268
b100000 *
#5515052
b11111110 *
#5516928
b11111111 *
#5522532
b100000 *
#5524320
b0 *
#5532820
b100000 *
#5534604
b11111110 *
#5536472
b11111111 *
#5542084
b11101000 *
#5543952
b0 *
#5554152
b11111110 *
#5556024
b11111111 *
#5561632
b11111110 *
#5563504
b0 *
#5573704
b11111010 *
#5575572
b11111111 *
#5581184
b11111110 *
#5583052
b0 *
#5593252
b11111000 *
#5595124
b11111110 *
#5596992
b11111111 *
#5602604
b0 *
#5612804
b11101000 *
#5614672
b11111110 *
#5616544
b11111111 *
#5622152
b0 *
#5632352
b100000 *
#5634140
b11111110 *
#5636008
b11111111 *
#5641620
b100000 *
#5643404
b0 *
#5651904
b100000 *
#5653688
b11111110 *
#5655560
b11111111 *
#5661176
b11101010 *
#5663036
b0 *
#5673236
b11111110 *
#5675108
b11111111 *
#5680724
b11111110 *
#5682588
b0 *
#5692788
b11111010 *
#5694656
b11111111 *
#5702144
b0 *
#5712344
b11101000 *
#5714208
b11111111 *
#5721696
b0 *
#5731896
b11101000 *
#5733756
b11111110 *
#5735628
b11111111 *
#5741236
b100000 *
#5743024
b0 *
#5751524
b100000 *
#5753316
b11111110 *
#5755180
b11111111 *
#5760788
b100000 *
#5762580
b0 *
#5771072
b100000 *
#5772864
b11111110 *
#5774728
b11111111 *
#5780336
b11101000 *
#5782208
b0 *
#5792416
b11111110 *
#5794284
b11111111 *
#5799888
b11111110 *
#5801760
b0 *
#5811960
b11111010 *
#5813832
b11111111 *
#5821308
b0 *
#5831508
b11111000 *
#5833384
b11111111 *
#5840860
b0 *
#5851060
b11101000 *
#5852928
b11111111 *
#5860408
b100000 *
#5862192
b0 *
#5870692
b100000 *
#5872480
b11111110 *
#5874352
b11111111 *
#5879960
b100000 *
#5881744
b0 *
#5890244
b100000 *
#5892028
b11111110 *
#5893896
b11111111 *
#5899508
b11101000 *
#5901380
b0 *
#5911580
b11111110 *
#5913448
b11111111 *
#5919056
b11111110 *
#5920928
b0 *
#5931128
b11111010 *
#5932996
b11111111 *
#5940480
b0 *
#5950676
b11111010 *
#5952548
b11111111 *
#5960028
b0 *
#5970228
b11101000 *
#5972100
b11111111 *
#5979580
b0 *
#5989776
b100000 *
#5991564
b11111110 *
#5993432
b11111111 *
#5995220
1!
#5997180
1)
#5999044
b10101000 *
#6000912
b0 *
#6009420
b100000 *
#6011200
b11111111 *
#6020548
b0 *
#6029048
b100000 *
#6030840
b11111111 *
#6040188
b0 *
#6050388
b11111111 *
#6059732
b0 *
#6069936
b11111111 *
#6079284
b0 *
#6089484
b11101010 *
#6091360
b11111111 *
#6098832
b0 *
#6109032
b10101000 *
#6110904
b11111111 *
#6118384
b100000 *
#6120168
b0 *
#6128668
b100000 *
#6130452
b11111111 *
#6137932
b11101010 *
#6139804
b0 *
#6148304
b100000 *
#6150088
b11111111 *
#6159440
b0 *
#6169640
b11111111 *
#6178988
b0 *
#6189188
b11111111 *
#6198540
b0 *
#6208740
b11111010 *
#6210608
b11111111 *
#6218088
b0 *
#6228288
b11101000 *
#6230160
b11111111 *
#6237636
b100000 *
#6239424
b0 *
#6247928
b100000 *
#6249708
b11111111 *
#6257196
b101000 *
#6258972
b0 *
#6267480
b100000 *
#6269256
b11111111 *
#6278616
b0 *
#6288808
b11111111 *
#6298164
b0 *
#6308364
b11111110 *
#6310228
b11111111 *
#6317716
b0 *
#6327916
b11111010 *
#6329776
b11111111 *
#6337256
b0 *
#6347460
b11101000 *
#6349336
b11111111 *
#6356808
b100000 *
#6358600
b0 *
#6367092
b100000 *
#6368884
b11111111 *
