periphery/test_19_jan/merged_1.vcd
$date 2026-01-19 16:56:50 $end
$timescale 1 us $end
$scope module debug $end
$var logic 1 ! clk $end
$var logic 8 " data $end
$var logic 8 # state $end
$var logic 1 $ pcinc $end
$var logic 1 % not_scclear $end
$var logic 1 & not_instread $end
$upscope $end
$scope module interface $end
$var logic 1 ' clk $end
$var logic 8 ( data $end
$var logic 16 ) address $end
$var logic 1 * not_read $end
$var logic 1 + not_write $end
$upscope $end
$enddefinitions $end
#0
$dumpvars
1!
b11000 "
b11111000 #
0$
1%
1&
1'
b0 (
b0 )
1*
1+
$end
#495124
0!
#496396
0'
#998748
1!
#999604
1'
#1493872
0!
#1496000
0'
#1997500
1!
#1999204
1'
#2492624
0!
#2493900
0'
#2996248
1!
#2998800
1'
#3491376
0!
#3493500
0'
#3995000
1!
#3998400
1'
#4492248
0!
#4493096
0'
#4995876
1!
#4998000
1'
#5491000
0!
#5492700
0'
#5994624
1!
#5997600
1'
#6489756
0!
#6492300
0'
#21284000
b1000 "
b10000000 #
#31069880
1!
#31079400
1'
#31469720
0!
#31478900
0'
#31973600
1!
#31983804
1'
#32469320
0!
#32478504
0'
#32973200
1!
#32983404
1'
#33468920
0!
#33478096
0'
#33972800
1!
#33981300
1'
#34468524
0!
#34477696
0'
#34972400
1!
#34980900
1'
#35468120
0!
#35477296
0'
#35969960
1!
#35980504
1'
#36465680
0!
#36476900
0'
#36969560
1!
#36980100
1'
#37465280
0!
#37476504
0'
#37969160
1!
#37979700
1'
#38464880
0!
#38476104
0'
#38968760
1!
#38979300
1'
#39464480
0!
#39475696
0'
#39968364
1!
#39978900
1'
#40419200
0!
#40431100
0'
#69944120
1!
#69961800
1'
#70439840
0!
#70458200
0'
#70943720
1!
#70961404
1'
#71439440
0!
#71457796
0'
#71941280
1!
#71961000
1'
#72437000
0!
#72457404
0'
#96492000
0&
#96504748
1&
#97025372
0&
#97116756
1&
#97250624
0&
#97257000
1&
#97382372
0&
#97688376
1&
#97981624
0&
#97985872
1&
#97990124
0&
#97994380
1&
#98083624
0&
#98085748
1&
#98094248
0&
#98096372
1&
#98124000
0&
#98289748
1&
#98291872
0&
#98364124
1&
#98366248
0&
#98506500
1&
#98515000
0&
#98521376
1&
#98551124
0&
#98576624
1&
#98595748
0&
#98600000
1&
#98604248
0&
#98608500
1&
#98619124
0&
#98621248
1&
#98636124
0&
#98638248
1&
#98640376
0&
#98646748
1&
#98648876
0&
#98651000
1&
#98661624
0&
#99617876
1&
#100363748
0&
#100376500
1&
#100465748
0&
#100467876
1&
#107414500
1!
#107443144
1'
#107463376
0!
#107493124
0'
#108630000
0&
#108636376
1&
#112975624
1!
#112984124
0!
#112986248
1!
#112988376
0!
#113005204
1'
#113014132
0'
#113035124
1!
#113065892
1'
#113076604
0'
#113078388
1'
#113092500
0!
#113123012
0'
#113181748
1!
#113209376
0!
#113212264
1'
#113239040
0'
#124189248
b0 "
#127432000
b1000 "
#128375500
b0 "
#180947660
1'
b1 (
