periphery/test_19_jan/merged_12.vcd
$date 2026-01-19 20:07:57 $end
$timescale 1 us $end
$scope module debug $end
$var logic 1 ! clk $end
$var logic 8 " data $end
$var logic 8 # state $end
$var logic 1 $ pcinc $end
$var logic 1 % not_scclear $end
$var logic 1 & not_instread $end
$var logic 1 ' not_enable $end
$var logic 1 ( direction $end
$upscope $end
$scope module interface $end
$var logic 1 ) clk $end
$var logic 8 * data $end
$var logic 16 + address $end
$var logic 1 , not_read $end
$var logic 1 - not_write $end
$upscope $end
$enddefinitions $end
#0
$dumpvars
1!
b0 "
b10010010 #
1$
0%
0&
1'
1(
1)
b11111111 *
b10000001 +
0,
1-
$end
#2296
b11111000 "
#49132
0!
0'
0(
#50692
0)
#51596
b1111000 "
b10000100 #
0$
1%
1&
#52648
1,
#98440
1!
#101524
1)
#147732
0!
#150400
0)
#199496
1!
#201228
1)
#248796
0!
1'
#250104
0)
#298104
1!
#300932
1)
#347396
0!
#349816
0)
#396696
b111000 "
#399076
1!
#400640
1)
#401456
b1111000 "
#406388
b111000 "
#449228
0!
#449512
0)
#499208
1!
#500348
1)
#530148
b1111000 "
#532616
b111000 "
#549216
0)
#549272
0!
#599252
1!
#600048
1)
#649232
0!
#650884
0)
#699212
1!
#699752
1)
#739672
b11000 "
#742052
b111000 "
#749192
0!
#750584
0)
#751572
b11000 "
#770612
b10000 "
#777752
b11000 "
#796800
b10000 "
#799172
1!
b11000 "
#799464
1)
#811080
b10000 "
#813452
b11000 "
#818212
b10000 "
#822972
b11000 "
#830112
b10000 "
#839632
b11000 "
#842012
b10000 "
#846772
b11000 "
#849152
0!
b10000 "
#850288
0)
#851532
b11000 "
#853912
b10000 "
#861052
b11000 "
#865812
b10000 "
#870580
b11000 "
#872952
b10000 "
#899132
1!
#901120
1)
#906272
b11000 "
#908652
b110000 "
#911032
b11000 "
#913412
b10000 "
#920552
b11000 "
#922932
b10000 "
#930072
b11000 "
#932452
b10000 "
#939592
b11000 "
#946732
b10000 "
#949112
0!
#950000
0)
#961012
b11000 "
#968152
b10000 "
#980060
b11000 "
#984812
b10000 "
#987192
b11000 "
#991952
b10000 "
#999092
1!
b11000 "
#1000824
1)
#1003852
b10000 "
#1010992
b11000 "
#1013372
b10000 "
#1018132
b11000 "
#1025272
b10000 "
#1027652
b11000 "
#1030032
b10000 "
#1032412
b11000 "
#1034792
b10000 "
#1037172
b11000 "
#1039552
b10000 "
#1041932
b11000 "
#1049072
0!
b10000 "
#1049700
0)
#1070492
b11000 "
#1072872
b10000 "
#1082392
b11000 "
#1087152
b10000 "
#1096672
b11000 "
#1099052
1!
#1100536
1)
#1101432
b10000 "
#1103812
b11000 "
#1113332
b10000 "
#1115712
b11000 "
#1118092
b10000 "
#1122852
b11000 "
#1125232
b10000 "
#1129992
b11000 "
#1134760
b10000 "
#1139512
b11000 "
#1146652
0!
#1149404
0)
#1151412
b10000 "
#1158552
b11000 "
#1165692
b10000 "
#1168072
b11000 "
#1170452
b10000 "
#1179972
b11000 "
#1184732
b10000 "
#1189492
b11000 "
#1191872
b10000 "
#1199012
1!
b11000 "
#1200232
1)
#1201392
b10000 "
#1208532
b11000 "
#1210912
b10000 "
#1215672
b11000 "
#1225192
b10000 "
#1229956
b11000 "
#1232332
b10000 "
#1239472
b11000 "
#1244240
b10000 "
#1246612
0!
b11000 "
#1249108
0)
#1251372
b10000 "
#1258512
b11000 "
#1263272
b10000 "
#1265652
b11000 "
#1268032
b10000 "
#1270412
b11000 "
#1272792
b10000 "
#1279932
b11000 "
#1284692
b10000 "
#1287072
b11000 "
#1289452
b10000 "
#1294212
b11000 "
#1298972
1!
#1299940
1)
#1301352
b10000 "
#1303732
b11000 "
#1306112
b10000 "
#1308492
b11000 "
#1313252
b10000 "
#1315632
b11000 "
#1327532
b10000 "
#1329912
b11000 "
#1334672
b10000 "
#1339432
b11000 "
#1346572
0!
#1348812
0)
#1351332
b10000 "
#1358472
b11000 "
#1365612
b10000 "
#1367992
b11000 "
#1370372
b10000 "
#1375132
b11000 "
#1384652
b10000 "
#1387032
b11000 "
#1391796
b10000 "
#1394172
b11000 "
#1398936
1!
b10000 "
#1399644
1)
#1408452
b11000 "
#1410832
b10000 "
#1415592
b11000 "
#1417972
b10000 "
#1420360
b11000 "
#1425112
b10000 "
#1427492
b11000 "
#1429872
b10000 "
#1437012
b11000 "
#1439392
b10000 "
#1441772
b11000 "
#1446532
0!
#1448912
b10000 "
#1450472
0)
#1456052
b11000 "
#1458432
b10000 "
#1463192
b11000 "
#1465572
b10000 "
#1477472
b11000 "
#1484612
b10000 "
#1494136
b11000 "
#1498892
1!
#1499348
1)
#1508412
b10000 "
#1515552
b11000 "
#1525072
b10000 "
#1536972
b11000 "
#1546492
0!
b10000 "
#1550176
0)
#1556012
b11000 "
#1563152
b10000 "
#1565532
b11000 "
#1567916
b10000 "
#1572672
b11000 "
#1584572
b10000 "
#1586952
b11000 "
#1591712
b10000 "
#1594092
b11000 "
#1596472
b10000 "
#1598852
1!
#1599060
1)
#1601232
b11000 "
#1608372
b10000 "
#1615512
b11000 "
#1622652
b10000 "
#1636932
b11000 "
#1644072
b10000 "
#1646452
0!
#1649884
0)
#1653592
b11000 "
#1665492
b10000 "
#1672632
b11000 "
#1684532
b10000 "
#1694052
b11000 "
#1698812
1!
#1700712
1)
#1705952
b10000 "
#1715472
b11000 "
#1720232
b10000 "
#1736892
b11000 "
#1744036
b10000 "
#1746412
0!
#1749596
0)
#1755932
b11000 "
#1763072
b10000 "
#1774972
b11000 "
#1779732
b10000 "
#1784492
b11000 "
#1786872
b10000 "
#1791632
b11000 "
#1796392
b10000 "
#1798772
1!
b11000 "
#1800420
1)
#1801152
b10000 "
#1805912
b11000 "
#1808292
b10000 "
#1813052
b11000 "
#1820192
b10000 "
#1822572
b11000 "
#1827332
b10000 "
#1834472
b11000 "
#1843992
b10000 "
#1846380
0!
b11000 "
#1848752
b10000 "
#1849292
0)
#1855892
b11000 "
#1865412
b10000 "
#1872552
b11000 "
#1882072
b10000 "
#1884452
b11000 "
#1886832
b10000 "
#1893972
b11000 "
#1898732
1!
b10000 "
#1900128
1)
#1905872
b11000 "
#1908252
b10000 "
#1913012
b11000 "
#1920160
b10000 "
#1924912
b11000 "
#1929672
b10000 "
#1932052
b11000 "
#1939192
b10000 "
#1946332
0!
#1948996
0)
#1953472
b11000 "
#1960612
b10000 "
#1962992
b11000 "
#1967752
b10000 "
#1970132
b11000 "
#1977272
b10000 "
#1979652
b11000 "
#1986792
b10000 "
#1991552
b11000 "
#1998692
1!
b10000 "
#1999828
1)
#2001076
b11000 "
#2008220
b10000 "
#2010592
b11000 "
#2020112
b10000 "
#2022500
b11000 "
#2024872
b10000 "
#2029636
b11000 "
#2046292
0!
#2048672
b10000 "
#2048708
0)
#2053432
b11000 "
#2062952
b10000 "
#2074852
b11000 "
#2079612
b10000 "
#2081992
b11000 "
#2084372
b10000 "
#2093892
b11000 "
#2096280
1!
#2098652
b10000 "
#2099532
1)
#2110556
b11000 "
#2120072
b10000 "
#2122452
0!
b11000 "
#2122992
0)
#2124832
b10000 "
#2131972
b11000 "
#2139112
b10000 "
#2143872
b11000 "
#2146252
b10000 "
#2153392
b11000 "
#2158152
b10000 "
#2167672
b11000 "
#2170052
b10000 "
#2172432
b11000 "
#2177196
b10000 "
#2181952
b11000 "
#2186712
b10000 "
#2189092
b11000 "
#2191476
b10000 "
#2193852
b11000 "
#2198620
b10000 "
#2200992
b11000 "
#2203372
b10000 "
#2208132
b11000 "
#2210512
b10000 "
#2222412
b11000 "
#2224792
b10000 "
#2229552
b11000 "
#2231932
b10000 "
#2234312
b11000 "
#2236692
b10000 "
#2239072
b11000 "
#2243832
b10000 "
#2250972
b11000 "
#2258112
b10000 "
#2260492
b11000 "
#2262872
b10000 "
#2270012
b11000 "
#2277152
b10000 "
#2279540
b11000 "
#2281912
b10000 "
#2291432
b11000 "
#2296192
b10000 "
#2303332
b11000 "
#2305712
b10000 "
#2310472
b11000 "
#2319992
b10000 "
#2329512
b11000 "
#2336652
b10000 "
#2348552
b11000 "
#2362832
b10000 "
#2372352
b11000 "
#2384252
b10000 "
#2396152
b11000 "
#2398532
b10000 "
#2408052
b11000 "
#2412812
b10000 "
#2415192
b11000 "
#2422332
b10000 "
#2427092
b11000 "
#2436612
b10000 "
#2450892
b11000 "
#2455656
b10000 "
#2458032
b11000 "
#2460412
b10000 "
#2467552
b11000 "
#2479452
b10000 "
#2481832
b11000 "
#2484212
b10000 "
#2491352
b11000 "
#2500872
b10000 "
#2510392
b11000 "
#2517532
b10000 "
#2519912
b11000 "
#2522292
b10000 "
#2527052
b11000 "
#2536576
b10000 "
#2538952
b11000 "
#2541332
b10000 "
#2546092
b11000 "
#2555612
b10000 "
#2565132
b11000 "
#2574652
b10000 "
#2577032
b11000 "
#2579412
b10000 "
#2586552
b11000 "
#2596072
b10000 "
#2598452
b11000 "
#2603212
b10000 "
#2605592
b11000 "
#2607972
1!
b10000 "
#2609796
1)
#2619872
b11000 "
#2622252
b10000 "
#2629392
b11000 "
#2636532
b10000 "
#2638920
b11000 "
#2643672
b10000 "
#2646052
0!
#2648432
b11000 "
#2648888
0)
#2655572
b10000 "
#2660332
b11000 "
#2662712
b10000 "
#2667472
b11000 "
#2674612
b10000 "
#2679372
b11000 "
#2693652
b10000 "
#2696032
1!
#2698420
b11000 "
#2699720
1)
#2700792
b10000 "
#2705560
b11000 "
#2719840
b10000 "
#2726972
b11000 "
#2734112
b10000 "
#2736492
b11000 "
#2741252
b10000 "
#2746012
0!
#2748392
b11000 "
#2748592
0)
#2760292
b10000 "
#2765052
b11000 "
#2767432
b10000 "
#2769812
b11000 "
#2774572
b10000 "
#2779332
b11000 "
#2781712
b10000 "
#2786480
b11000 "
#2795992
1!
b10000 "
#2799424
1)
#2805512
b11000 "
#2815032
b10000 "
#2819792
b11000 "
#2822172
b10000 "
#2826932
b11000 "
#2834072
b10000 "
#2838832
b11000 "
#2843592
b10000 "
#2845972
0!
#2848296
0)
#2848352
b11000 "
#2853112
b10000 "
#2855492
b11000 "
#2857872
b10000 "
#2867392
b11000 "
#2869772
b10000 "
#2876912
b11000 "
#2879292
b10000 "
#2886432
b11000 "
#2891192
b10000 "
#2895960
1!
b11000 "
#2898332
b10000 "
#2899128
1)
#2903092
b11000 "
#2914992
b10000 "
#2917372
b11000 "
#2919752
b10000 "
#2924512
b11000 "
#2934032
b10000 "
#2936412
b11000 "
#2938792
b10000 "
#2943552
b11000 "
#2945932
0!
#2948004
0)
#2953072
b10000 "
#2967352
b11000 "
#2974492
b10000 "
#2976876
b11000 "
#2979252
b10000 "
#2986392
b11000 "
#2995912
1!
#2998292
b10000 "
#2998832
1)
#3005432
b11000 "
#3014952
b10000 "
#3017332
b11000 "
#3019712
b10000 "
#3024472
b11000 "
#3033992
b10000 "
#3045892
0!
b11000 "
#3048272
b10000 "
#3049664
0)
#3050660
b11000 "
#3053032
b10000 "
#3062552
b11000 "
#3072076
b10000 "
#3074452
b11000 "
#3076832
b10000 "
#3083972
b11000 "
#3091112
b10000 "
#3093492
b11000 "
#3095872
1!
#3098540
1)
#3100632
b10000 "
#3105392
b11000 "
#3107772
b10000 "
#3114912
b11000 "
#3117292
b10000 "
#3122052
b11000 "
#3131572
b10000 "
#3133952
b11000 "
#3136332
b10000 "
#3143472
b11000 "
#3145860
0!
#3149368
0)
#3153000
b10000 "
#3155372
b11000 "
#3157752
b10000 "
#3164892
b11000 "
#3172032
b10000 "
#3174412
b11000 "
#3176792
b10000 "
#3183932
b11000 "
#3191072
b10000 "
#3195832
b11000 "
#3198212
b10000 "
#3202972
b11000 "
#3212492
b10000 "
#3224392
b11000 "
#3229152
b10000 "
#3233916
b11000 "
#3236292
b10000 "
#3243432
b11000 "
#3250572
b10000 "
#3252952
b11000 "
#3255332
b10000 "
#3264852
b11000 "
#3279132
b10000 "
#3283892
b11000 "
#3286272
b10000 "
#3288652
b11000 "
#3291032
b10000 "
#3305312
b11000 "
#3319592
b10000 "
#3324352
b11000 "
#3329120
b10000 "
#3343392
b11000 "
#3345772
b10000 "
#3348152
b11000 "
#3350532
b10000 "
#3352912
b11000 "
#3357672
b10000 "
#3362432
b11000 "
#3369572
b10000 "
#3379092
b11000 "
#3388612
b10000 "
#3390992
b11000 "
#3395760
b10000 "
#3402900
b11000 "
#3407652
b10000 "
#3414792
b11000 "
#3417176
b10000 "
#3424312
b11000 "
#3431452
b10000 "
#3433832
b11000 "
#3436212
b10000 "
#3443352
b11000 "
#3450492
b10000 "
#3455252
b11000 "
#3457632
b10000 "
#3462392
b11000 "
#3469532
b10000 "
#3481432
b11000 "
#3488572
b10000 "
#3490960
b11000 "
#3493332
b10000 "
#3500472
b11000 "
#3507612
b10000 "
#3519512
b11000 "
#3540932
b10000 "
#3543312
b11000 "
#3550452
b10000 "
#3562352
b11000 "
#3567112
b10000 "
#3569492
b11000 "
#3576632
b10000 "
#3583772
b11000 "
#3593296
b10000 "
#3600432
b11000 "
#3609952
b10000 "
#3612332
b11000 "
#3617092
b10000 "
#3619472
b11000 "
#3626612
b10000 "
#3640892
b11000 "
#3648032
b10000 "
#3652792
b11000 "
#3655172
b10000 "
#3662312
b11000 "
#3667080
b10000 "
#3671832
b11000 "
#3676592
b10000 "
#3681360
b11000 "
#3683732
b10000 "
#3702772
b11000 "
#3707532
b10000 "
#3712292
b11000 "
#3714672
b10000 "
#3721812
b11000 "
#3726572
b10000 "
#3728952
b11000 "
#3736092
b10000 "
#3740852
b11000 "
#3747996
b10000 "
#3750372
b11000 "
#3752752
b10000 "
#3757512
b11000 "
#3759892
b10000 "
#3762276
b11000 "
#3767032
b10000 "
#3781312
b11000 "
#3788452
b10000 "
#3797972
b11000 "
#3805112
b10000 "
#3809872
b11000 "
#3812252
b10000 "
#3817012
b11000 "
#3821772
b10000 "
#3824152
b11000 "
#3826532
b10000 "
#3828916
b11000 "
#3833672
b10000 "
#3836056
b11000 "
#3838432
b10000 "
#3840812
b11000 "
#3847952
b10000 "
#3850336
b11000 "
#3855092
b10000 "
#3859852
b11000 "
#3864612
b10000 "
#3869372
b11000 "
#3871752
b10000 "
#3878892
b11000 "
#3886032
b10000 "
#3900312
b11000 "
#3914592
b10000 "
#3921732
b11000 "
#3928872
b10000 "
#3931260
b11000 "
#3933632
b10000 "
#3938396
b11000 "
#3940772
b10000 "
#3943152
b11000 "
#3947912
b10000 "
#3950292
b11000 "
#3952672
b10000 "
#3957432
b11000 "
#3966952
b10000 "
#3976472
b11000 "
#3985992
b10000 "
#3988372
b11000 "
#3990752
b10000 "
#4000272
b11000 "
#4005036
b10000 "
#4016932
b11000 "
#4024072
b10000 "
#4026456
b11000 "
#4028832
b10000 "
#4035972
b11000 "
#4040732
b10000 "
#4045492
b11000 "
#4052632
b10000 "
#4057392
b11000 "
#4074052
b10000 "
#4083572
b11000 "
#4085952
b10000 "
#4088332
b11000 "
#4090712
b10000 "
#4100240
b11000 "
#4104992
b10000 "
#4107376
b11000 "
#4109752
b10000 "
#4119272
b11000 "
#4124032
b10000 "
#4128792
b11000 "
#4133552
b10000 "
#4135932
b11000 "
#4143072
b10000 "
#4147832
b11000 "
#4150212
b10000 "
#4157352
b11000 "
#4164492
b10000 "
#4166872
b11000 "
#4171632
b10000 "
#4176392
b11000 "
#4178772
b10000 "
#4185912
b11000 "
#4190672
b10000 "
#4195436
b11000 "
#4202580
b10000 "
#4204952
b11000 "
#4209712
b10000 "
#4216852
b11000 "
#4226372
b10000 "
#4228752
b11000 "
#4231132
b10000 "
#4233512
b11000 "
#4235892
b10000 "
#4238272
b11000 "
#4250172
b10000 "
#4257312
b11000 "
#4262072
b10000 "
#4264452
b11000 "
#4269220
b10000 "
#4276356
b11000 "
#4293012
b10000 "
#4295392
b11000 "
#4304912
b10000 "
#4307292
b11000 "
#4312052
b10000 "
#4316812
b11000 "
#4323952
b10000 "
#4333472
b11000 "
#4342992
b10000 "
#4352512
b11000 "
#4362032
b10000 "
#4373932
b11000 "
#4390592
b10000 "
#4395352
b11000 "
#4402492
b10000 "
#4404872
b11000 "
#4409632
b10000 "
#4416772
b11000 "
#4423912
b10000 "
#4426292
b11000 "
#4428672
b10000 "
#4435812
b11000 "
#4442952
b10000 "
#4445336
b11000 "
#4447712
b10000 "
#4457232
b11000 "
#4466756
b10000 "
#4476272
b11000 "
#4481032
b10000 "
#4483412
b11000 "
#4488172
b10000 "
#4497692
b11000 "
#4502452
b10000 "
#4507212
b11000 "
#4509592
b10000 "
#4514352
b11000 "
#4516732
b10000 "
#4519112
b11000 "
#4523872
b10000 "
#4533400
b11000 "
#4540540
b10000 "
#4545292
b11000 "
#4550052
b10000 "
#4552432
b11000 "
#4561952
b10000 "
#4573852
b11000 "
#4583372
b10000 "
#4595272
b11000 "
#4607172
b10000 "
#4614320
b11000 "
#4626212
b10000 "
#4630972
b11000 "
#4633352
b10000 "
#4635740
b11000 "
#4640492
b10000 "
#4642872
b11000 "
#4645252
b10000 "
#4661912
b11000 "
#4666672
b10000 "
#4676192
b11000 "
#4680952
b10000 "
#4683332
b11000 "
#4685712
b10000 "
#4695232
b11000 "
#4702376
b10000 "
#4704752
b11000 "
#4709520
b10000 "
#4711892
b11000 "
#4726172
b10000 "
#4730932
b11000 "
#4740452
b10000 "
#4745212
b11000 "
#4747592
b10000 "
#4752352
b11000 "
#4757112
b10000 "
#4773772
b11000 "
#4778532
b10000 "
#4783292
b11000 "
#4785672
b10000 "
#4788052
b11000 "
#4790440
b10000 "
#4792812
b11000 "
#4799952
b10000 "
#4804720
b11000 "
#4809472
b10000 "
#4814232
b11000 "
#4821372
b10000 "
#4823752
b11000 "
#4826132
b10000 "
#4833272
b11000 "
#4840412
b10000 "
#4842792
b11000 "
#4847552
b10000 "
#4852312
b11000 "
#4859452
b10000 "
#4861832
b11000 "
#4864212
b10000 "
#4873732
b11000 "
#4883252
b10000 "
#4892776
b11000 "
#4904672
b10000 "
#4914192
b11000 "
#4918952
b10000 "
#4930852
b11000 "
#4933232
b10000 "
#4940372
b11000 "
#4942752
b10000 "
#4949892
b11000 "
#4952272
b10000 "
#4954652
b11000 "
#4959412
b10000 "
#4961792
b11000 "
#4966560
b10000 "
#4968932
b11000 "
#4973700
b10000 "
#4978452
b11000 "
#4980836
b10000 "
#4983212
b11000 "
#4985592
b10000 "
#4987976
b11000 "
#4999872
b10000 "
#5002252
b11000 "
#5004632
b10000 "
#5011772
b11000 "
#5018912
b10000 "
#5023672
b11000 "
#5037952
b10000 "
#5042712
b11000 "
#5049852
b10000 "
#5052232
b11000 "
#5059372
b10000 "
#5071272
b11000 "
#5073652
b10000 "
#5090312
b11000 "
#5097452
b10000 "
#5099832
b11000 "
#5106972
b10000 "
#5111732
b11000 "
#5123632
b10000 "
#5130772
b11000 "
#5135536
b10000 "
#5140292
b11000 "
#5142680
b10000 "
#5149816
b11000 "
#5152192
b10000 "
#5154572
b11000 "
#5156956
b10000 "
#5159332
b11000 "
#5164092
b10000 "
#5171232
b11000 "
#5175992
b10000 "
#5178372
b11000 "
#5185512
b10000 "
#5190272
b11000 "
#5202172
b10000 "
#5209312
b11000 "
#5218832
b10000 "
#5221212
b11000 "
#5223600
b10000 "
#5225972
b11000 "
#5230740
b10000 "
#5235492
b11000 "
#5237876
b10000 "
#5240252
b11000 "
#5245016
b10000 "
#5249772
b11000 "
#5256912
b10000 "
#5261672
b11000 "
#5264052
b10000 "
#5268812
b11000 "
#5271192
b10000 "
#5275952
b11000 "
#5280712
b10000 "
#5287852
b11000 "
#5299752
b10000 "
#5302132
b11000 "
#5304512
b10000 "
#5306892
b11000 "
#5311656
b10000 "
#5325940
b11000 "
#5335452
b10000 "
#5337832
b11000 "
#5344972
b10000 "
#5349732
b11000 "
#5356872
b10000 "
#5366392
b11000 "
#5375912
b10000 "
#5385432
b11000 "
#5387812
b10000 "
#5390192
b11000 "
#5394952
b10000 "
#5409232
b11000 "
#5423512
b10000 "
#5428272
b11000 "
#5435412
b10000 "
#5437792
b11000 "
#5440172
b10000 "
#5447312
b11000 "
#5463972
b10000 "
#5466352
b11000 "
#5473492
b10000 "
#5475872
b11000 "
#5478252
b10000 "
#5490152
b11000 "
#5494920
b10000 "
#5497292
b11000 "
#5506812
b10000 "
#5513952
b11000 "
#5523472
b10000 "
#5528232
b11000 "
#5540132
b10000 "
#5547272
b11000 "
#5556792
b10000 "
#5568692
b11000 "
#5573452
b10000 "
#5585352
b11000 "
#5597260
b10000 "
#5606772
b11000 "
#5613912
b10000 "
#5628192
b11000 "
#5632952
b10000 "
#5637712
b11000 "
#5642472
b10000 "
#5644852
b11000 "
#5654372
b10000 "
#5656756
b11000 "
#5659132
b10000 "
#5666272
b11000 "
#5675792
b10000 "
#5678176
b11000 "
#5680552
b10000 "
#5685320
b11000 "
#5687692
b10000 "
#5692452
b11000 "
#5694832
b10000 "
#5704352
b11000 "
#5711492
b10000 "
#5718632
b11000 "
#5721012
b10000 "
#5723392
b11000 "
#5725772
b10000 "
#5735292
b11000 "
#5754332
b10000 "
#5766236
b11000 "
#5770992
b10000 "
#5773372
b11000 "
#5775752
b10000 "
#5778132
b11000 "
#5780512
b10000 "
#5785272
b11000 "
#5801932
b10000 "
#5804312
b11000 "
#5820972
b10000 "
#5823352
b11000 "
#5842564
b10000 "
#5845028
b11000 "
#5854888
b10000 "
#5864748
b11000 "
#5874608
b10000 "
#5877072
b11000 "
#5884468
b10000 "
#5891860
b11000 "
#5894328
b10000 "
#5904188
b11000 "
#5911584
b10000 "
#5914048
b11000 "
#5918976
b10000 "
#5923912
b11000 "
#5931300
b10000 "
#5936240
b11000 "
#5938696
b10000 "
#5943628
b11000 "
#5946092
b10000 "
#5960884
b11000 "
#5970740
b10000 "
#5973208
b11000 "
#5983068
b10000 "
#5985532
b11000 "
#5992928
b10000 "
#5995392
b11000 "
#6015120
b10000 "
#6022508
b11000 "
#6034832
b10000 "
#6042228
b11000 "
#6049624
b10000 "
#6052088
b11000 "
#6059484
b10000 "
#6064412
b11000 "
#6069348
b10000 "
#6084132
b11000 "
#6089060
b10000 "
#6091528
b11000 "
#6098920
b10000 "
#6106316
b11000 "
#6111248
b10000 "
#6123572
b11000 "
#6130968
b10000 "
#6133432
b11000 "
#6135904
b10000 "
#6140828
b11000 "
#6148228
b10000 "
#6153152
b11000 "
#6155616
b10000 "
#6160552
b11000 "
#6170408
b10000 "
#6172872
b11000 "
#6177800
b10000 "
#6180268
b11000 "
#6182732
b10000 "
#6190128
b11000 "
#6199988
b10000 "
#6202456
b11000 "
#6214784
b10000 "
#6222172
b11000 "
#6229568
b10000 "
#6232032
b11000 "
#6234496
b10000 "
#6241892
b11000 "
#6246820
b10000 "
#6249288
b11000 "
#6251752
b10000 "
#6266544
b11000 "
#6273936
b10000 "
#6278868
b11000 "
#6281340
b10000 "
#6283796
b11000 "
#6288728
b10000 "
#6293664
b11000 "
#6296120
b10000 "
#6298588
b11000 "
#6308448
b10000 "
#6313376
b11000 "
#6318308
b10000 "
#6323236
b11000 "
#6330632
b10000 "
#6333096
b11000 "
#6335568
b10000 "
#6338028
b11000 "
#6340492
b10000 "
#6342956
b11000 "
#6350352
b10000 "
#6362676
b11000 "
#6370072
b10000 "
#6372536
b11000 "
#6377468
b10000 "
#6379932
b11000 "
#6389792
b10000 "
#6392256
b11000 "
#6397188
b10000 "
#6399652
b11000 "
#6407048
b10000 "
#6409512
b11000 "
#6411976
b10000 "
#6421836
b11000 "
#6434160
b10000 "
#6446488
b11000 "
#6448952
b10000 "
#6451416
b11000 "
#6456348
b10000 "
#6461276
b11000 "
#6468676
b10000 "
#6478532
b11000 "
#6495788
b10000 "
#6500716
b11000 "
#6515508
b10000 "
#6517972
b11000 "
#6527832
b10000 "
#6530296
b11000 "
#6535228
b10000 "
#6537692
b11000 "
#6552480
b10000 "
#6559884
b11000 "
#6567272
b10000 "
#6572208
b11000 "
#6574668
b10000 "
#6579596
b11000 "
#6586992
b10000 "
#6599316
b11000 "
#6606712
b10000 "
#6609176
b11000 "
#6611640
b10000 "
#6619036
b11000 "
#6626440
b10000 "
#6636292
b11000 "
#6638764
b10000 "
#6641220
b11000 "
#6646152
b10000 "
#6658476
b11000 "
#6665872
b10000 "
#6670800
b11000 "
#6695452
b10000 "
#6697916
b11000 "
#6707776
b10000 "
#6710240
b11000 "
#6712708
b10000 "
#6715172
b11000 "
#6729960
b10000 "
#6737356
b11000 "
#6744752
b10000 "
#6749680
b11000 "
#6752148
b10000 "
#6757076
b11000 "
#6766936
b10000 "
#6769400
b11000 "
#6774332
b10000 "
#6779260
b11000 "
#6784192
b10000 "
#6789120
b11000 "
#6791588
b10000 "
#6798980
b11000 "
#6803912
b10000 "
#6808840
b11000 "
#6813776
b10000 "
#6816236
b11000 "
#6828560
b10000 "
#6831028
b11000 "
#6833492
b10000 "
#6838428
b11000 "
#6848280
b10000 "
#6855676
b11000 "
#6865536
b10000 "
#6870468
b11000 "
#6872932
b10000 "
#6877860
b11000 "
#6880332
b10000 "
#6885256
b11000 "
#6887720
b10000 "
#6897580
b11000 "
#6904984
b10000 "
#6907440
b11000 "
#6909908
b10000 "
#6914836
b11000 "
#6927160
b10000 "
#6937020
b11000 "
#6944416
b10000 "
#6946888
b11000 "
#6951812
b10000 "
#6956740
b11000 "
#6964136
b10000 "
#6966600
b11000 "
#6969068
b10000 "
#6973996
b11000 "
#6976460
b10000 "
#6978928
b11000 "
#6988788
b10000 "
#6998648
b11000 "
#7003576
b10000 "
#7006040
b11000 "
#7008508
b10000 "
#7013436
b11000 "
#7023296
b10000 "
#7033156
b11000 "
#7035620
b10000 "
#7038092
b11000 "
#7045480
b10000 "
#7047948
b11000 "
#7052876
b10000 "
#7055344
b11000 "
#7065204
b10000 "
#7077528
b11000 "
#7082456
b10000 "
#7092324
b11000 "
#7102176
b10000 "
#7114500
b11000 "
#7121896
b10000 "
#7124360
b11000 "
#7126828
b10000 "
#7136688
b11000 "
#7141616
b10000 "
#7144080
b11000 "
#7149012
b10000 "
#7153940
b11000 "
#7156408
b10000 "
#7166268
b11000 "
#7168732
b10000 "
#7176128
b11000 "
#7178592
b10000 "
#7181056
b11000 "
#7190916
b10000 "
#7195848
b11000 "
#7203240
b10000 "
#7208172
b11000 "
#7210636
b10000 "
#7215568
b11000 "
#7230356
b10000 "
#7232824
b11000 "
#7245148
b10000 "
#7252544
b11000 "
#7259936
b10000 "
#7272260
b11000 "
#7279656
b10000 "
#7284588
b11000 "
#7287052
b10000 "
#7296912
b11000 "
#7301840
b10000 "
#7316640
b11000 "
#7321560
b10000 "
#7333888
b11000 "
#7341280
b10000 "
#7351140
b11000 "
#7363468
b10000 "
#7365932
b11000 "
#7375792
b10000 "
#7385652
b11000 "
#7390580
b10000 "
#7393048
b11000 "
#7402908
b10000 "
#7405372
b11000 "
#7407836
b10000 "
#7415232
b11000 "
#7425100
b10000 "
#7430020
b11000 "
#7439880
b10000 "
#7452208
b11000 "
#7462068
b10000 "
#7464532
b11000 "
#7466996
b10000 "
#7471928
b11000 "
#7481788
b10000 "
#7484252
b11000 "
#7489180
b10000 "
#7491652
b11000 "
#7501508
b10000 "
#7513832
b11000 "
#7518760
b10000 "
#7521228
b11000 "
#7528628
b10000 "
#7531088
b11000 "
#7540948
b10000 "
#7543412
b11000 "
#7545876
b10000 "
#7553272
b11000 "
#7558200
b10000 "
#7563132
b11000 "
#7565596
b10000 "
#7572992
b11000 "
#7577920
b10000 "
#7582856
b11000 "
#7587780
b10000 "
#7590248
b11000 "
#7597640
b10000 "
#7602572
b11000 "
#7624756
b10000 "
#7629688
b11000 "
#7632152
b10000 "
#7634616
b11000 "
#7642012
b10000 "
#7649412
b11000 "
#7656800
b10000 "
#7671592
b11000 "
#7686380
b10000 "
#7688848
b11000 "
#7691312
b10000 "
#7698708
b11000 "
#7701172
b10000 "
#7713496
b11000 "
#7720892
b10000 "
#7728292
b11000 "
#7740612
b10000 "
#7752936
b11000 "
#7757868
b10000 "
#7760332
b11000 "
#7762796
b10000 "
#7772656
b11000 "
#7780052
b10000 "
#7782524
b11000 "
#7784980
b10000 "
#7792376
b11000 "
#7797308
b10000 "
#7809632
b11000 "
#7819492
b10000 "
#7829352
b11000 "
#7839212
b10000 "
#7841676
b11000 "
#7846608
b10000 "
#7849076
b11000 "
#7856468
b10000 "
#7861404
b11000 "
#7866328
b10000 "
#7871256
b11000 "
#7873720
b10000 "
#7878652
b11000 "
#7883580
b10000 "
#7890976
b11000 "
#7895908
b10000 "
#7900836
b11000 "
#7905768
b10000 "
#7910696
b11000 "
#7918092
b10000 "
#7920556
b11000 "
#7930416
b10000 "
#7932884
b11000 "
#7940276
b10000 "
#7950136
b11000 "
#7964928
b10000 "
#7967392
b11000 "
#7984648
b10000 "
#7992044
b11000 "
#7996972
b10000 "
#8006836
b11000 "
#8009296
b10000 "
#8011760
b11000 "
#8016692
b10000 "
#8031480
b11000 "
#8036412
b10000 "
#8046272
b11000 "
#8048744
b10000 "
#8051200
b11000 "
#8061068
b10000 "
#8068456
b11000 "
#8078316
b10000 "
#8080784
b11000 "
#8085712
b10000 "
#8088176
b11000 "
#8095572
b10000 "
#8098036
b11000 "
#8100504
b10000 "
#8110360
b11000 "
#8115300
b10000 "
#8120220
b11000 "
#8122688
b10000 "
#8127624
b11000 "
#8137476
b10000 "
#8149800
b11000 "
#8154732
b10000 "
#8167056
b11000 "
#8174452
b10000 "
#8176916
b11000 "
#8179384
b10000 "
#8186776
b11000 "
#8194176
b10000 "
#8199100
b11000 "
#8201568
b10000 "
#8206504
b11000 "
#8208960
b10000 "
#8211428
b11000 "
#8213892
b10000 "
#8218820
b11000 "
#8221288
b10000 "
#8226216
b11000 "
