periphery/test_19_jan/merged_11.vcd
$date 2026-01-19 20:07:51 $end
$timescale 1 us $end
$scope module debug $end
$var logic 1 ! clk $end
$var logic 8 " data $end
$var logic 8 # state $end
$var logic 1 $ pcinc $end
$var logic 1 % not_scclear $end
$var logic 1 & not_instread $end
$var logic 1 ' not_enable $end
$var logic 1 ( direction $end
$upscope $end
$scope module interface $end
$var logic 1 ) clk $end
$var logic 8 * data $end
$var logic 16 + address $end
$var logic 1 , not_read $end
$var logic 1 - not_write $end
$upscope $end
$enddefinitions $end
#0
$dumpvars
1!
b10 "
b10100100 #
0$
1%
1&
1'
0(
1)
b11 *
b1 +
1,
1-
$end
#1612
b10 +
#343992
0)
#344256
0!
#346544
b0 "
b10000100 #
#846856
1!
#847872
1)
#1342576
0!
#1343684
0)
#1347164
b10011100 #
#1847480
1!
#1847564
1)
#2343196
0!
#2343364
0)
#2345488
b10000100 #
#2845800
1!
#2847244
1)
#3341524
0!
#3343048
0)
#3343816
b10010100 #
#3346112
b10011100 #
#3846420
1!
#3846928
1)
#4339844
0!
#4342732
0)
#4344436
b10000100 #
#4844752
1!
#4845000
1)
#5340464
0!
#5340804
0)
#5342760
b10011100 #
#5843068
1!
#5844684
1)
#6338796
0!
#6340488
0)
#6341084
b10000100 #
#6843688
1!
#6844368
1)
#7339408
0!
#7340180
0)
#7341788
b10011100 #
#7841588
1!
#7844060
1)
#8336636
0!
#8339856
0)
#8341388
b10000100 #
#8841188
1!
#8844080
1)
#8962572
0!
#8966476
0)
#8967336
b10 "
b10001100 #
#10307784
b10 *
#10328184
b0 *
#10989480
b10 *
#11031980
b11 *
#11050676
b100111 *
#11054256
b101111 *
#11070312
b1101111 *
#11092752
b1111111 *
#11171292
b11111111 *
#11519120
b1111111 *
#11816444
b1101111 *
#11938000
b1100111 *
#11960440
b100111 *
#12097880
b111 *
#12155676
b11 *
#12674184
b10 *
#12837212
1!
#12840780
1)
#12842480
b11 *
#13332248
0!
#13337008
b10100100 #
#13337180
0)
#13338884
b100011 *
#13836808
1!
#13840468
1)
#14331848
0!
#14336608
b0 "
b10000100 #
#14336692
0)
#14836408
1!
#14840068
1)
#15331452
0!
#15333828
b10011100 #
#15336292
0)
#15836008
1!
#15839664
1)
#16331048
0!
#16333428
b10000100 #
#16335892
0)
#16833228
1!
#16839264
1)
#17330648
0!
#17333028
b10011100 #
#17335500
0)
#17832832
1!
#17838864
1)
#18330248
0!
#18332628
b10000100 #
#18335092
0)
#18832428
1!
#18838464
1)
#19327468
0!
#19329848
b10011100 #
#19332908
0)
#19832036
1!
#19838068
1)
#20327068
0!
#20329448
b10000100 #
#20332508
0)
#20831628
1!
#20835880
1)
#21171968
0!
#21174348
b10010100 #
#21178604
0)
#21180384
b0 *
0-
#28440488
b10000100 #
#28446184
b0 +
1-
#30154684
b100000 *
#30172532
b1100010 *
#30174324
b11100010 *
#30176188
b11111010 *
#30193016
b11111111 *
#31775040
b11111110 *
#31784388
b11111111 *
#31793740
b11111110 *
#31803088
b11111111 *
#31812436
b11111110 *
#31822468
1!
#31825528
b11111111 *
#31831144
1)
#32192048
b11111110 *
#32199528
b11111111 *
#32210748
b11111110 *
#32212616
b11101110 *
#32218236
b11111110 *
#32221968
b11111111 *
#32229456
b11111110 *
#32231320
b11101110 *
#32236928
b11111110 *
#32240668
b11111111 *
#32248148
b11111110 *
#32250024
b11101110 *
#32257500
b11111110 *
#32268720
b11101110 *
#32278068
b11111110 *
#32287420
b11101110 *
#32293036
b11100110 *
#32296768
b11101110 *
#32298636
b11111110 *
#32307988
b11101110 *
#32309860
b11100110 *
#32317336
b11101110 *
#32317508
0!
#32319208
b11111110 *
#32326688
0)
b11101110 *
#32328560
b10000110 *
#32336044
b11100110 *
#32347264
b11000110 *
#32349128
b10000110 *
#32356616
b11100110 *
#32367836
b11000110 *
#32369700
b10000110 *
#32375308
b10100110 *
#32377176
b11100110 *
#32386528
b11000110 *
#32388396
b10000110 *
#32395880
b11100110 *
#32407096
b11000110 *
#32408968
b10000110 *
#32416448
b11100110 *
#32425800
b11000110 *
#32427668
b10000110 *
#32435148
b11100110 *
#32446368
b11000110 *
#32448236
b10000110 *
#32455716
b11100110 *
#32466940
b10000110 *
#32476296
b11100110 *
#32485644
b11000110 *
#32487516
b10000110 *
#32494988
b11100110 *
#32506208
b10000110 *
#32515560
b11100110 *
#32524908
b11000110 *
#32526776
b10000110 *
#32536128
b11100110 *
#32545480
b10000110 *
#32554828
b10100110 *
#32556696
b11100110 *
#32564180
b11000110 *
#32566048
b10000110 *
#32575400
b11100110 *
#32584748
b10000110 *
#32595968
b11100110 *
#32605324
b10000110 *
#32614676
b10100110 *
#32616544
b11100110 *
#32624016
b10000110 *
#32635240
b10100110 *
#32637116
b11100110 *
#32644588
b10000110 *
#32655808
b11100110 *
#32663288
b11000110 *
#32665160
b10000110 *
#32674508
b10100110 *
#32676376
b11100110 *
#32683856
b10000110 *
#32695076
b10100110 *
#32696948
b11100110 *
#32702564
b11000110 *
#32704428
b10000110 *
#32715648
b10100110 *
#32717516
b11100110 *
#32723136
b10000110 *
#32736216
b10100110 *
#32738088
b11100110 *
#32743704
b10000110 *
#32756796
b10100110 *
#32762396
b10000110 *
#32777364
b10100110 *
#32782968
b10000110 *
#32797936
b10100110 *
#32801668
b10000110 *
#32827848
b10000010 *
#32833460
b10000110 *
#32848416
b10000010 *
#32852164
b10000110 *
#32867116
b10000010 *
#32872732
b10000110 *
#32885824
b10000010 *
#32893296
b10000110 *
#32904520
b10000010 *
#32911996
b10000110 *
#32925088
b10000010 *
#32932568
b10000110 *
#32943788
b10000010 *
#32953136
b10000110 *
#32964360
b10000010 *
#32971844
b10000110 *
#32983060
b10000010 *
#32992416
b10000110 *
#33001760
b10000010 *
#33012984
b10000110 *
#33022328
b10000010 *
#33033548
b10000110 *
#33041028
b10000010 *
#33054116
b10000110 *
#33061596
b10000010 *
#33072816
b10000110 *
#33082168
b10000010 *
#33093388
b10000110 *
#33100876
b10000010 *
#33113960
b10000110 *
#33121444
b10000010 *
#33134528
b10000110 *
#33140136
b10000010 *
#33155096
b10000110 *
#33160708
b10000010 *
#33173796
b10000110 *
#33179408
b10000010 *
#33194368
b10000110 *
#33199980
b10000010 *
#33213068
b10000110 *
#33220548
b10000010 *
#33222416
b10 *
#33230924
b10000110 *
#33240276
b110 *
#33241968
b10 *
#33250476
b110 *
#33252168
b10000110 *
#33259656
b110 *
#33263048
b10 *
#33269856
b110 *
#33271548
b10000110 *
#33279036
b110 *
#33280728
b10 *
#33284128
b0 *
#33289228
b10 *
#33290928
b110 *
#33294328
b10000110 *
#33299936
b10 *
#33301644
b0 *
#33310140
b10 *
#33311844
b110 *
#33320336
b0 *
#33330536
b10 *
#33333940
b110 *
#33339040
b0 *
#34049640
b10000000 *
#34053384
b0 *
#34065280
b10000000 *
#34074628
b0 *
#34084828
b10000000 *
#34094184
b0 *
#34104384
b10000000 *
#34115600
b0 *
#34124096
b10000000 *
#34137196
b0 *
#34143988
b10000000 *
#34246844
b11000000 *
#34304808
b11000010 *
#34312296
b11000000 *
#34323516
b11000010 *
#34332864
b11000000 *
#34344084
b11000010 *
#34353436
b11000000 *
#34362780
b11000010 *
#34373996
b11000000 *
#34381480
b11000010 *
#34394568
b11000000 *
#34402048
b11000010 *
#34405788
b11011010 *
#34411400
b11000010 *
#34415140
b11000000 *
#34420748
b11000010 *
#34424488
b11001010 *
#34426360
b11011010 *
#34431968
b11000010 *
#34435708
b11000000 *
#34441324
b11000010 *
#34443188
b11011010 *
#34452544
b11000010 *
#34461896
b11011010 *
#34473116
b11010010 *
#34474976
b11000010 *
#34482460
b11011010 *
#34495556
b11010010 *
#34501156
b11011010 *
#34514248
b11010010 *
#34521728
b11011010 *
#34525468
b11011110 *
#34531080
b11011010 *
#34933128
b11011000 *
#34938740
b11011010 *
#34972400
b11011000 *
#34978016
b11011010 *
#34991100
b11011000 *
#34998580
b11011010 *
#35009804
b11011000 *
#35011672
b11010000 *
#35017276
b11010010 *
#35019148
b11011010 *
#35030368
b11011000 *
#35032244
b11010000 *
#35037848
b11011010 *
#35050940
b11011000 *
#35056548
b11011010 *
#35071508
b11011000 *
#35077120
b11011010 *
#35090208
b11011000 *
#35097696
b11011010 *
#35110780
b11011000 *
#35112648
b11010000 *
#35116388
b11010010 *
#35118264
b11011010 *
#35129484
b11011000 *
#35131348
b11010000 *
#35136956
b11010010 *
#35138836
b11011010 *
#35148176
b11011000 *
#35150056
b11010000 *
#35157528
b11010010 *
#35159396
b11011010 *
#35166876
b11011000 *
#35168748
b11010000 *
#35176228
b11010010 *
#35179968
b11011010 *
#35187448
b11010000 *
#35196800
b11010010 *
#35200536
b11011010 *
#35206148
b11010000 *
#35217368
b11010010 *
#35226724
b11010000 *
#35237936
b11010010 *
#35245420
b11010000 *
#35258516
b11010010 *
#35265988
b11010000 *
#35279084
b11010010 *
#35284688
b11010000 *
#35301524
b11010010 *
#35305256
b11010000 *
#35309000
b11000000 *
#35318348
b11010000 *
#35320216
b11010010 *
#35325828
b11010000 *
#35329568
b11000000 *
#35338920
b11010000 *
#35346396
b11000000 *
#35946676
b10000000 *
#35950408
b11000000 *
#35984068
b10000000 *
#35991548
b11000000 *
#36002768
b10000000 *
#36012124
b11000000 *
#36021476
b10000000 *
#36032696
b11000000 *
#36040168
b10000000 *
#36053264
b11000000 *
#36060736
b10000000 *
#36219688
b0 *
#37720788
b10000000 *
#37760064
b11000000 *
#37767536
b10000000 *
#37780632
b11000000 *
#37788108
b10000000 *
#37851688
b0 *
#37858496
b10000000 *
#37867836
b0 *
#38396536
b10000000 *
#38404016
b0 *
#38414220
b10000000 *
#38425436
b0 *
#38433944
b10000000 *
#38486300
b0 *
#38493100
b10000000 *
#38502448
b0 *
#38614648
b10000000 *
#38622128
b0 *
#38632328
b10000000 *
#38643548
b0 *
#38652056
b10000000 *
#38665136
b0 *
#38671940
b10000000 *
#38683156
b0 *
#38691660
b10000000 *
#38701008
b0 *
#38712908
b10000000 *
#38722256
b0 *
#38732456
b10000000 *
#38741808
b0 *
#38752008
b10000000 *
#38761360
b0 *
#38771560
b10000000 *
#38780908
b0 *
#38794512
b10000000 *
#38800120
b0 *
#39425720
b10000000 *
#39448160
b11000000 *
#39528576
b11010000 *
#39588408
b11110000 *
#39595888
b11010000 *
#39607108
b11110000 *
#39616456
b11010000 *
#39629548
b11110000 *
#39635164
b11010000 *
#39923136
b11010010 *
#39941836
b11010011 *
#40007288
b11010001 *
#40011036
b11000001 *
#40022256
b11100001 *
#40074608
b11000001 *
#40254128
b11000000 *
#40431784
b10000000 *
#40611300
b0 *
#42545900
b100 *
#42554400
b0 *
#42564600
b100 *
#42598604
b0 *
#42603704
b100 *
#42615596
b0 *
#42624104
b100 *
#42634304
b0 *
#42647896
b100 *
#42652996
b0 *
#42901200
b100 *
#43011700
b0 *
#43021900
b100 *
#43032100
b0 *
#43044004
b100 *
#43050800
b0 *
#43501300
b10000000 *
#43536828
b11000000 *
#43540572
b11100000 *
#43548048
b11000000 *
#43557396
b11100000 *
#43680816
b11110000 *
#43809856
b11100000 *
#43826676
b10100000 *
#43845376
b10000000 *
#43858468
b10000010 *
#43864076
b10 *
#44062984
b0 *
#44591676
b10000000 *
#44644036
b0 *
#74875144
b100000 *
#74880492
b0 *
#74892400
b100000 *
#74903104
b0 *
#74911604
b100000 *
#74922312
b0 *
#74930812
b100000 *
#74939740
b0 *
#75468436
b100000 *
#75477364
b0 *
#75487564
b100000 *
#75498272
b0 *
#75506780
b100000 *
#75517484
b0 *
#75525984
b100000 *
#75538476
b0 *
#75546980
b100000 *
#75557688
b0 *
#75566196
b100000 *
#75578684
b0 *
#75585484
b100000 *
#75597984
b0 *
#75606476
b100000 *
#75617188
b0 *
#75625696
b100000 *
#75638184
b0 *
#75644988
b100000 *
#75659264
b0 *
#75664364
b100000 *
#75855360
b0 *
#75863860
b100000 *
#75874576
b0 *
#76483168
b100 *
#76488268
b0 *
#76500176
b100 *
#76508668
b0 *
#76520576
b100 *
#76522268
b10000100 *
#76527884
b0 *
#76539776
b100 *
#76541480
b10000100 *
#76548956
b0 *
#76560860
b10000100 *
#76568340
b0 *
#76580240
b100 *
#76588736
b0 *
#76598936
b100 *
#76609140
b0 *
#76619340
b100 *
#76627836
b0 *
#76840336
b10000000 *
#76881480
b11000000 *
#77197516
b11100000 *
#77259216
b11110010 *
#77623868
b11100010 *
#77642568
b11000010 *
#77681844
b11000000 *
#77779084
b0 *
#78034932
1!
#78056180
1)
#78277692
0!
#78280068
b10001100 #
#78299284
0)
#78782248
1!
#78804184
1)
#79277296
0!
#79279668
b10000100 #
#79298880
0)
#79781848
1!
#79803780
1)
#80276888
0!
#80298476
0)
#80779068
1!
#80801680
1)
#81276488
0!
#81298076
0)
#81778672
1!
#81801284
1)
#82273708
0!
#82297680
0)
#82778276
1!
#82800884
1)
#83273308
0!
#83297280
0)
#83777868
1!
#83800480
1)
#84272912
0!
#84296884
0)
#84777468
1!
#84800080
1)
#85272508
0!
#85296480
0)
#85774688
1!
#85799680
1)
#86272112
0!
#86296080
0)
#86774288
1!
#86799280
1)
#87021980
b100000 *
#87064824
b1100000 *
#87070172
b100000 *
#87082668
b1100000 *
#87091592
b100000 *
#87104088
b1100000 *
#87109444
b100000 *
#87150500
b0 *
#87269328
0!
#87294996
0)
#87419104
b100000 *
#87424452
b100010 *
#87435164
b1100110 *
#87437032
b1111110 *
#87440772
b11111110 *
#87455732
b11111111 *
#87721272
b11111101 *
#87773888
1!
#87797948
1)
#87902664
b11011101 *
#87906408
b11001101 *
#87910144
b1001101 *
#87911928
b1001100 *
#87924424
b1001000 *
#87944060
b1000000 *
#87947628
b0 *
#87993536
b1000000 *
#88014956
b1001000 *
#88034588
b1001100 *
#88036368
b1001101 *
#88039940
b11001101 *
#88053028
b11011101 *
#88056768
b11111101 *
#88064256
b11011101 *
#88073596
b11111101 *
#88086696
b11011101 *
#88092296
b11111101 *
#88103520
b11011101 *
#88129704
b11001101 *
#88142788
b1001000 *
#88148148
b1000000 *
#88217764
b11000000 *
#88247680
b1000000 *
#88265528
b0 *
#88268928
0!
0&
#88270628
b1000000 *
#88271312
b10000111 #
#88284908
b0 *
#88291708
b1000000 *
#88293500
0)
#88295276
b11000001 *
#88557080
b1000001 *
#88608848
b1000011 *
#88619552
b1000001 *
#88628484
b1000011 *
#88639188
b11 *
#88649388
b1000011 *
#88658312
b11 *
#88668512
b1000011 *
#88679224
b11 *
#88687728
b1000011 *
#88700220
b11 *
#88708720
b1000011 *
#88717644
b11 *
#88727844
b1000011 *
#88738552
b11 *
#88747052
b1000011 *
#88759552
b11 *
#88768048
b1000011 *
#88773488
1!
1&
#88778756
b11 *
#88787256
b1000011 *
#88797968
1)
b11 *
#88799668
b1000011 *
#88899628
b11 *
#88906428
b1000011 *
#88917144
b11 *
#88927344
b1000011 *
#88936264
b11 *
#88946464
b1000011 *
#88955388
b11 *
#88967296
b1000011 *
#88976212
b11 *
#88981312
b1 *
#88986412
b1000011 *
#88995336
b11 *
#88997044
b1 *
#89005540
b11 *
#89007244
b1000011 *
#89014384
b11 *
#89016076
b1 *
#89026280
b11 *
#89027976
b1000011 *
#89035116
b1 *
#89045320
b11 *
#89047016
b1000011 *
#89054160
b11 *
#89055860
b1 *
#89066060
b1000011 *
#89074984
b11 *
#89076684
b1 *
#89085188
b1000011 *
#89095892
b11 *
#89099292
b1 *
#89104392
b1000011 *
#89116896
b11 *
#89123688
b1000011 *
#89146892
b1100011 *
#89154032
b1000011 *
#89166528
b1100011 *
#89173668
b1000011 *
#89184384
b1100011 *
#89193304
b1000011 *
#89204012
b1100011 *
#89214724
b1000011 *
#89223648
b1100011 *
#89234360
b1000011 *
#89245068
b1100011 *
#89248640
b1101011 *
#89254248
b1000011 *
#89264960
b1101011 *
#89268528
0!
#89270908
b10010111 #
#89272444
b1001011 *
#89274224
b1000011 *
#89284932
b1001011 *
#89293856
0)
b1000011 *
#89306360
b1001011 *
#89313500
b1000011 *
#89324204
b1001011 *
#89334920
b1000011 *
#89343836
b11001011 *
#89353188
b1001011 *
#89363896
b11001011 *
#89365776
b11011111 *
#89373248
b1001011 *
#89382172
b11001011 *
#89384048
b11011111 *
#89393400
b1001011 *
#89402320
b11001011 *
#89406056
b11001111 *
#89413540
b1001011 *
#89424248
b11001111 *
#89431728
b1001011 *
#89444224
b11001011 *
#89446092
b11001111 *
#89451708
b1001011 *
#89455272
b1000011 *
#89462412
b1001011 *
#89473128
b1000011 *
#89482048
b1001011 *
#89492764
b1000011 *
#89503468
b1001011 *
#89507044
b1001111 *
#89510608
b1001011 *
#89512392
b1000011 *
#89523104
b1001011 *
#89524888
b1001111 *
#89532028
b1001011 *
#89533812
b1000011 *
#89542744
b1001011 *
#89544524
b1001111 *
#89551664
b1001011 *
#89553448
b1000011 *
#89562380
b1001011 *
#89565944
b1001111 *
#89569520
b1001011 *
#89573084
b1000011 *
#89582008
b1001011 *
#89585576
b11001011 *
#89591188
b1001011 *
#89592980
b1000011 *
#89601896
b1001011 *
#89603684
b11001011 *
#89605552
b11011011 *
#89611164
b1001011 *
#89616524
b1000011 *
#89620088
b1001011 *
#89621872
b11011011 *
#89631224
b1001011 *
#89641932
b11011011 *
#89651288
b1001011 *
#89660208
b11001011 *
#89662080
b11011011 *
#89671428
b1001011 *
#89680352
b11011011 *
#89691572
b1001011 *
#89693364
b1000011 *
#89700504
b11001011 *
#89706108
b11001111 *
#89709852
b1001111 *
#89711632
b1001011 *
#89718772
b1011011 *
#89722344
b1011111 *
#89729484
b1011011 *
#89749120
b1010011 *
#89750904
b1000011 *
#89773088
1!
#89797312
1)
#89811592
b11 *
#89820092
b1000011 *
#89830804
b11 *
#89839304
b1000011 *
#89851800
b11 *
#89858600
b1000011 *
#89869308
b11 *
#89879508
b1000011 *
#89890220
b11 *
#89898716
b1000011 *
#89909436
b11 *
#89919636
b1000011 *
#89930340
b11 *
#89938840
b1000011 *
#89949548
b11 *
#89958048
b1000011 *
#89963404
b1100011 *
#89966972
b1000011 *
#89970544
b11 *
#89979048
b1000011 *
#89989752
b11 *
#89999952
b1000011 *
#90008880
b11 *
#90019084
b1000011 *
#90029788
b11 *
#90038288
b1000011 *
#90049000
b11 *
#90059200
b1000011 *
#90068128
b11 *
#90078328
b1000011 *
#90087248
b11 *
#90099148
b1000011 *
#90108080
b11 *
#90111472
b1 *
#90116572
b11 *
#90118280
b1000011 *
#90127200
b11 *
#90128900
b1 *
#90137396
b1000011 *
#90148116
b11 *
#90149808
b1 *
#90156608
b11 *
#90158316
b1000011 *
#90167232
b11 *
#90168932
b1 *
#90177432
b1000011 *
#90188144
b1 *
#90196644
b1000011 *
#90207360
b11 *
#90209052
b1 *
#90215852
b11 *
#90217560
b1000011 *
#90228264
b1 *
#90236764
b1000011 *
#90247472
b11 *
#90249172
b1 *
#90255972
b1000011 *
#90266688
b11 *
#90268128
0!
1$
1(
#90268384
b1 *
#90276884
b1000011 *
#90287592
b1 *
#90292692
0)
#90294400
b0 *
0,
#90403788
0'
#90587048
0(
#90589436
b10000010 #
0$
#90614000
1,
#90770308
1!
#90795892
1)
#91152892
b100000 *
#91158248
b0 *
#91171848
b100000 *
#91178988
b0 *
#91267728
0!
#91292896
0)
#91428888
b100000 *
#91436028
b0 *
#91449628
b100000 *
#91456776
b0 *
#91470368
b100000 *
#91475724
b0 *
#91769908
1!
#91795324
1)
#92264948
0!
#92267328
1'
#92291724
0)
#92584128
b1000000 *
#92589476
b0 *
#92599676
b1000000 *
#92601468
b11000010 *
#92603332
b11001010 *
#92608944
b1000000 *
#92612512
b0 *
#92617612
b1000000 *
#92619400
b11000000 *
#92623140
b11001000 *
#92628748
b11000000 *
#92630620
b1000000 *
#92637760
b11000000 *
#92639628
b11001010 *
#92641504
b11101010 *
#92643368
b11101110 *
#92648976
b11001000 *
#92652724
b11000000 *
#92658328
b11101110 *
#92662068
b11101111 *
#92669548
b11101000 *
#92671416
b11001000 *
#92677028
b11101000 *
#92678896
b11101110 *
#92680768
b11101111 *
#92688248
b11101110 *
#92690120
b11101010 *
#92691988
b11000010 *
#92693860
b11000000 *
#92697600
b11101110 *
#92701340
b11101111 *
#92710688
b11101110 *
#92712560
b11100110 *
#92718176
b11101111 *
#92731260
b1101111 *
#92736868
b11101111 *
#92749964
b1101111 *
#92757436
b11101111 *
#92768656
b1101111 *
#92769516
1!
#92778008
b11101111 *
#92787356
b1101111 *
#92789228
b1001111 *
#92796368
1)
#92798160
b1101111 *
#92805632
b1001111 *
#92809204
b1111 *
#92818128
b1001111 *
#92827052
b1111 *
#92828844
b1011 *
#92830624
b11 *
#92834028
b10 *
#92837424
b1111 *
#92839208
b1001111 *
#92846356
b1111 *
#92848132
b10 *
#92849832
b0 *
#92856632
b10 *
#92858332
b1110 *
#92860120
b1001111 *
#92867260
b1010 *
#92869044
b10 *
#92870748
b0 *
#92877544
b1110 *
#92879328
b1001110 *
#92881120
b1001111 *
#92886468
b1010 *
#92888260
b0 *
#92896752
b10 *
#92898460
b1110 *
#92905600
b1010 *
#92907380
b0 *
#92917580
b10 *
#92920984
b1010 *
#92926332
b0 *
#92936532
b10 *
#92939932
b1010 *
#92947072
b0 *
#92957272
b10 *
#92960672
b1010 *
#92966036
b0 *
#92977928
b10 *
#92986436
b0 *
#93000028
b10 *
#93005128
b0 *
#93040836
b10 *
#93044228
b0 *
#93139428
b10 *
#93144528
b0 *
#93156436
b10 *
#93161536
b1000010 *
#93165096
b0 *
#93175300
b1000010 *
#93177088
b1001010 *
#93184228
b1000010 *
#93186008
b0 *
#93194516
b1000010 *
#93196292
b1001010 *
#93199864
b1001110 *
#93203432
b1001010 *
#93205220
b1000000 *
#93214144
b1000010 *
#93215936
b1001010 *
#93217712
b1001110 *
#93223076
b1001010 *
#93224852
b1000010 *
#93226640
b1000000 *
#93233776
b1000010 *
#93235564
b1001010 *
#93237356
b1001110 *
#93242704
b1001010 *
#93244496
b0 *
#93254688
b1001010 *
#93256472
b1001110 *
#93263612
b1001010 *
#93264548
0!
#93265396
b0 *
#93266932
b10010 "
0&
#93273900
b1000010 *
#93275684
b1001010 *
#93277468
b1001110 *
#93282824
b1001010 *
#93284616
b0 *
#93291408
0)
#93293108
b10 *
#93692608
b100010 *
#93699748
b10 *
#93711648
b100010 *
#93720572
b10 *
#93734172
b100010 *
#93737744
b10 *
#93769792
1!
1&
#93770044
b110 *
#93773444
b10000110 *
#93779060
b110 *
#93790952
b10000110 *
#93794692
1)
b10011110 *
#93796568
b11011110 *
#93798432
b10011110 *
#93800304
b10001110 *
#93802172
b10000110 *
#93809652
b10001110 *
#93822744
b10000110 *
#93830228
b10001110 *
#93839580
b110 *
#93849780
b100110 *
#93860484
b10 *
#93868984
b100010 *
#93915400
b100110 *
#93917180
b110110 *
#93922540
b110010 *
#93929680
b110110 *
#93949308
b1110110 *
#93990448
b1111110 *
#94105028
b10000 "
#94107496
b10010 "
#94114888
b10000 "
#94124748
b10010 "
#94142004
b10000 "
#94149400
b10010 "
#94151872
b10000 "
#94154328
b10010 "
#94156796
b10000 "
#94161724
b10010 "
#94164196
b10000 "
#94178980
b10010 "
#94183908
b10000 "
#94188840
b10010 "
#94196236
b10000 "
#94206100
b10010 "
#94218428
b10000 "
#94220884
b10010 "
#94223348
b10000 "
#94225816
b10010 "
#94230752
b10000 "
#94233208
b10010 "
#94240604
b10000 "
#94248000
b10010 "
#94250380
b11111110 *
#94257860
b10000 "
#94260324
b10010 "
#94265256
0!
b10000 "
#94267720
b0 "
b10010010 #
#94282168
b1111110 *
#94291516
0)
#94379408
b111110 *
#94441884
b110110 *
#94575764
b100110 *
#94767520
1!
#94795312
1)
#95262560
0!
#95264948
b110110 "
b10000010 #
#95289756
0)
#95767808
1!
#95793128
1)
#96105504
b110000 "
#96110436
b110100 "
#96112900
b110110 "
#96127688
b110000 "
#96132620
b110110 "
#96140016
b110000 "
#96142488
b110100 "
#96144944
b110000 "
#96152340
b110110 "
#96159736
b110000 "
#96162200
b110110 "
#96164664
b110000 "
#96172060
b110110 "
#96181920
b110010 "
#96184384
b110110 "
#96189316
b110000 "
#96196712
b110110 "
#96199176
b110000 "
#96204104
b110110 "
#96209040
b110000 "
#96213964
b110110 "
#96218896
b110000 "
#96221364
b110100 "
#96223824
b110000 "
#96233692
b110110 "
#96246016
b110000 "
#96250940
b110110 "
#96260800
b110100 "
#96263264
0!
b110000 "
#96265728
b0 "
b10010010 #
#96289360
0)
#96765528
1!
#96792736
1)
#97262948
0!
#97265328
b110110 "
b10000010 #
#97288960
0)
#97765128
1!
#97792328
1)
#98124680
b110000 "
#98127228
b110110 "
#98137428
b110100 "
#98139980
b110110 "
#98147628
b110000 "
#98150180
b110110 "
#98155280
b110000 "
#98157828
b110100 "
#98160380
b110110 "
#98165480
b110010 "
#98168036
b110110 "
#98173136
b110000 "
#98178236
b110110 "
#98183336
b110000 "
#98196080
b110010 "
#98198628
b110110 "
#98206280
b110000 "
#98216480
b110100 "
#98219028
b110110 "
#98229228
b110000 "
#98234328
b110010 "
#98236880
b110000 "
#98239428
b110110 "
#98247080
b110100 "
#98249628
b110110 "
#98259828
0!
#98264928
b0 "
b10010010 #
#98288560
0)
#98765324
1!
#98792700
1)
#99260788
0!
#99263256
b110110 "
b10000010 #
#99288248
0)
#99763056
1!
#99791272
1)
#100109856
b110100 "
#100112404
b110110 "
#100120056
b110000 "
#100122604
b110100 "
#100125156
b110110 "
#100135356
b110100 "
#100137904
b110000 "
#100143004
b110110 "
#100150656
b110100 "
#100153204
b110110 "
#100155756
b110000 "
#100160856
b110110 "
#100173604
b110000 "
#100181256
b110110 "
#100191460
b110000 "
#100194004
b110110 "
#100196560
b110000 "
#100204204
b110110 "
#100211860
b110010 "
#100214404
b110000 "
#100219504
b110110 "
#100229704
b110000 "
#100232256
b110110 "
#100234804
b110000 "
#100239904
b110110 "
#100250104
b110010 "
#100252656
b110000 "
#100260304
0!
b10000 "
b10010010 #
#100262856
b0 "
#100286824
0)
#100763248
1!
#100791724
1)
#101258716
0!
#101261180
b110110 "
b10000010 #
#101287272
0)
#101760980
1!
#101790304
1)
#102102680
b110100 "
#102105236
b110110 "
#102115428
b110000 "
#102117980
b110110 "
#102133280
b110000 "
#102135832
b110110 "
#102138380
b110000 "
#102143480
b110110 "
#102153680
b110000 "
#102156228
b110100 "
#102158780
b110110 "
#102163880
b110000 "
#102168980
b110110 "
#102174080
b110010 "
#102176628
b110110 "
#102179180
b110000 "
#102184280
b110010 "
#102186828
b110110 "
#102194480
b110000 "
#102197028
b110110 "
#102202128
b110000 "
#102207228
b110110 "
#102212328
b110000 "
#102214888
b110110 "
#102217432
b110000 "
#102225084
b110110 "
#102232728
b110000 "
#102245480
b110110 "
#102248028
b110000 "
#102250580
b110110 "
#102253128
b110000 "
#102255680
b110110 "
#102258228
0!
b110000 "
#102260780
b0 "
b10010010 #
#102285852
0)
#102761176
1!
#102790752
1)
#103256640
0!
#103259104
b110110 "
b10000010 #
#103286304
0)
#103758904
1!
#103789332
1)
#104108260
b110000 "
#104110804
b110110 "
#104118460
b110010 "
#104121004
b110100 "
#104123560
b110110 "
#104126104
b110000 "
#104131204
b110110 "
#104138856
b110000 "
#104141404
b110110 "
#104143956
b110000 "
#104151604
b110110 "
#104156704
b110000 "
#104159256
b110110 "
#104164356
b110000 "
#104172004
b110110 "
#104182204
b110000 "
#104189856
b110110 "
#104197504
b110000 "
#104200056
b110110 "
#104202604
b110000 "
#104210256
b110010 "
#104212804
b110110 "
#104223004
b110000 "
#104228104
b110110 "
#104230656
b110000 "
#104233212
b110110 "
#104240856
b110000 "
#104243412
b110110 "
#104245956
b110000 "
#104248512
b110110 "
#104256156
0!
b110010 "
#104258712
b0 "
b10010010 #
#104284884
0)
#104759100
1!
#104787912
1)
#105254564
0!
#105259496
b110110 "
b10000010 #
#105285332
0)
#105759296
1!
#105788364
1)
#106106100
b110000 "
#106108644
b110110 "
#106111200
b110100 "
#106113744
b110110 "
#106123944
b110100 "
#106126500
b110000 "
#106134144
b110100 "
#106136696
b110110 "
#106146896
b110000 "
#106154544
b110100 "
#106157096
b110000 "
#106164744
b110110 "
#106169844
b110000 "
#106174944
b110110 "
#106182596
b110010 "
#106185144
b110000 "
#106187696
b110110 "
#106190244
b110000 "
#106195344
b110100 "
#106197896
b110000 "
#106200444
b110110 "
#106202996
b110100 "
#106205544
b110110 "
#106210644
b110000 "
#106213196
b110100 "
#106215744
b110110 "
#106220844
b110000 "
#106225944
b110110 "
#106231044
b110000 "
#106233596
b110110 "
#106246352
b110000 "
#106251452
b110010 "
#106253996
0!
b110110 "
#106256552
b0 "
b10010010 #
#106283912
0)
#106756940
1!
#106786948
1)
#107252404
0!
#107254868
b110110 "
b10000010 #
#107282500
0)
#107757220
1!
#107787400
1)
#108093820
b110100 "
#108098920
b110110 "
#108111668
b110100 "
#108114220
b110000 "
#108116768
b110110 "
#108129528
b110100 "
#108132068
b110000 "
#108139724
b110110 "
#108147368
b110100 "
#108149924
b110010 "
#108152472
b110110 "
#108155028
b110000 "
#108157568
b110100 "
#108160120
b110110 "
#108167768
b110000 "
#108170320
b110110 "
#108172868
b110000 "
#108177968
b110010 "
#108180520
b110110 "
#108188168
b110000 "
#108190720
b110110 "
#108193268
b110000 "
#108198368
b110110 "
#108216220
b110000 "
#108218768
b110110 "
#108228968
b110000 "
#108231520
b110110 "
#108236620
b110100 "
#108239168
b110110 "
#108249372
b110010 "
#108251920
0!
b110000 "
#108254468
b0 "
b10010010 #
#108282948
0)
#109666744
b100100 *
#109704144
b100000 *
#109722848
b0 *
#109831728
b100000 *
#109861648
b0 *
#110905872
b10 *
#110911228
b0 *
