periphery/test_19_jan/merged_7.vcd
$date 2026-01-19 19:30:16 $end
$timescale 1 us $end
$scope module debug $end
$var logic 1 ! clk $end
$var logic 8 " data $end
$var logic 8 # state $end
$var logic 1 $ pcinc $end
$var logic 1 % not_scclear $end
$var logic 1 & not_instread $end
$var logic 1 ' not_enable $end
$var logic 1 ( direction $end
$upscope $end
$scope module interface $end
$var logic 1 ) clk $end
$var logic 8 * data $end
$var logic 16 + address $end
$var logic 1 , not_read $end
$var logic 1 - not_write $end
$upscope $end
$enddefinitions $end
#0
$dumpvars
1!
b0 "
b10000100 #
0$
1%
1&
1'
0(
1)
b1101110 *
b0 +
1,
1-
$end
#1792
b1101111 *
#339152
0)
#339660
0!
#340936
b1101110 *
#640824
b1001110 *
#780216
b1001100 *
#842264
1!
#843116
1)
#844816
b1001110 *
#1118516
b1001100 *
#1196724
b1100 *
#1337992
0!
#1339516
0)
#1341220
b100 *
#1633532
b0 *
#1842884
1!
#1843480
1)
#1845096
b100 *
#2151948
b0 *
#2338604
0!
#2339288
0)
#2841216
1!
#2841552
1)
#3336928
0!
#3337356
0)
#3841236
1)
#3841828
1!
#4098868
0!
#4101420
0)
#6369220
b10 *
#6376020
b0 *
#6386220
b10 *
#6387920
b100010 *
#6389704
b100110 *
#6405776
b110110 *
#6409340
b111110 *
#6445040
b10111111 *
#6446912
b11111111 *
#7372568
b11111110 *
#7374436
b10111110 *
#7393132
b111110 *
#7410980
b101110 *
#7450256
b100110 *
#7512732
b100100 *
#7548424
b100000 *
#7568068
b0 *
#8197060
b10 *
#8202160
b0 *
#8214060
b10 *
#8222560
b0 *
#8234460
b10 *
#8242968
b0 *
#8253168
b10 *
#8263368
b0 *
#8273568
b10 *
#8283768
b0 *
#8292260
b10 *
#8674760
b1000010 *
#8680120
b10 *
#8692016
b1000010 *
#8699156
b10 *
#8711056
b1000010 *
#8719988
b10 *
#8731880
b1000010 *
#8733664
b11000010 *
#8739276
b10 *
#8751176
b11000010 *
#8758656
b10 *
#8770556
b10000010 *
#8772424
b11000010 *
#8778036
b10000010 *
#8779904
b10 *
#8790108
b10000010 *
#8791976
b11000010 *
#8799456
b10 *
#8809656
b10000010 *
#8811524
b11000010 *
#8819008
b10000010 *
#8820876
b10 *
#8829376
b10000010 *
#8833116
b11000010 *
#8838728
b10 *
#8848924
b11000010 *
#8880716
b10000010 *
#8888196
b11000010 *
#8901292
b10000010 *
#8908764
b11000010 *
#8918116
b10000010 *
#8929336
b11000010 *
#8938688
b10000010 *
#8948036
b11000010 *
#8959256
b10000010 *
#8968608
b11000010 *
#8977956
b10000010 *
#8987312
b11000010 *
#8998532
b10000010 *
#9007880
b11000010 *
#9020968
b10000010 *
#9026576
b11000010 *
#9039672
b10000010 *
#9047144
b11000010 *
#9080808
b10000010 *
#9086416
b11000010 *
#9108856
b11000011 *
#9118208
b10000011 *
#9125692
b11000011 *
#9140644
b10000011 *
#9146256
b11000011 *
#9159352
b10000011 *
#9166824
b11000011 *
#9179924
b10000011 *
#9185524
b11000011 *
#9200488
b10000011 *
#9206096
b11000011 *
#9219188
b10000011 *
#9226664
b11000011 *
#9237884
b10000011 *
#9245372
b11000011 *
#9256592
b10000011 *
#9265944
b11000011 *
#9277164
b10000011 *
#9286508
b11000011 *
#9295856
b10000011 *
#9305208
b11000011 *
#9316428
b10000011 *
#9325776
b11000011 *
#9335128
b10000011 *
#9346348
b11000011 *
#9355696
b10000011 *
#9361308
b10000010 *
#9366916
b11000011 *
#9374404
b10000011 *
#9376268
b10000010 *
#9387488
b11000010 *
#9394972
b10000010 *
#9604404
b11000011 *
#9710996
b10000011 *
#9785796
b10000111 *
#9791404
b10000011 *
#9804504
b10000111 *
#9811976
b10000011 *
#9825072
b10000111 *
#9830676
b10000011 *
#9843768
b10000111 *
#9851248
b10000011 *
#9862464
b10000111 *
#9871816
b10000011 *
#9883036
b10000111 *
#9890524
b10000011 *
#9903608
b10000111 *
#9911092
b10000011 *
#9922312
b10000111 *
#9931656
b10000011 *
#9942876
b10000111 *
#9950356
b10000011 *
#9961576
b10000111 *
#9970928
b10000011 *
#9982144
b10000111 *
#9991496
b10000011 *
#10000844
b10000111 *
#10012068
b10000011 *
#10019552
b10000111 *
#10055076
b111 *
#10119676
b1111 *
#10139316
b1001111 *
#10260692
b11001111 *
#10283132
b11011111 *
#10430860
b11001111 *
#11223748
b11001110 *
#11246188
b1001110 *
#11305088
b1110 *
#11314012
b1001110 *
#11321152
b1110 *
#11340788
b1100 *
#11344356
b100 *
#11380056
b0 *
#11431056
b100 *
#11441256
b0 *
#11449756
b100 *
#11521156
b0 *
#11529656
b100 *
#11538164
b0 *
#11550056
b10000000 *
#11563148
b0 *
#11569952
b10000000 *
#11751336
b10000010 *
#11756948
b10000000 *
#11771908
b10000010 *
#11777516
b10000000 *
#11788736
b10000010 *
#11798088
b10000000 *
#11801828
b0 *
#11806928
b10000000 *
#11808796
b10000010 *
#11818144
b0 *
#11828344
b10000010 *
#11837696
b0 *
#11847896
b10 *
#11849596
b10000010 *
#11857076
b10 *
#11858776
b0 *
#11867276
b10 *
#11879184
b0 *
#11887676
b10 *
#11899584
b0 *
#11906376
b10 *
#11921676
b0 *
#11926776
b10000010 *
#11937996
b10000000 *
#11945476
b10000010 *
#11951084
b11000010 *
#11956696
b10000010 *
#11967916
b11000010 *
#11977268
b10000010 *
#11988484
b11000010 *
#11995968
b10000010 *
#12010924
b11000010 *
#12016536
b10000010 *
#12268988
b11000010 *
#12274596
b10000010 *
#12343788
b11000010 *
#12442896
b11000110 *
#12472816
b11000010 *
#12474688
b11000000 *
#12482172
b11000100 *
#12493384
b10000100 *
#12502744
b11000100 *
#12513964
b10000100 *
#12523312
b11000100 *
#12542004
b11000110 *
#12545752
b11000111 *
#12553224
b111 *
#12565132
b1111 *
#12602612
b1001111 *
#12625816
b11001111 *
#12661352
b11101111 *
#12666956
b11111111 *
#13785216
b11101111 *
#13845056
b1101111 *
#13867496
b1001111 *
#14047780
b1001110 *
#14285184
b1110 *
#14463692
b110 *
#15830312
1!
#15835588
1)
#16327732
0!
1(
#16330112
b110 "
b10010100 #
1$
0%
#16331984
0)
#16333684
b100 *
0,
#16727572
b100 "
#16807984
b0 *
#16829912
1!
#16832292
0&
#16834672
b0 "
#16835328
1)
#17324952
0!
0(
#17327332
b1 "
b10001100 #
0$
1%
#17329892
0)
#17331588
1,
#17829520
1!
#17831892
1&
#17834792
1)
#17836488
b1 +
#18324552
0!
#18326936
b0 "
b10000100 #
0'
#18329484
0)
#18829112
1!
#18834388
1)
#19324156
0!
1'
1(
#19326540
b10010100 #
1$
0%
#19329084
0)
#19330792
0,
#19828712
1!
#19831096
b11 "
0&
#19834052
1)
b11 *
#20323752
0!
0$
1%
0(
#20326132
b0 "
b10000100 #
0'
#20328684
0)
#20330384
1,
#20825932
1!
#20828312
1&
#20831892
1)
#21323360
0!
1$
1'
1(
#21325732
b11 "
b10010100 #
#21328284
0)
#21329984
0,
#21825536
1!
#21831552
1)
#22322952
0!
0$
0(
#22325332
b10100100 #
#22327884
0)
#22329584
b10 +
1,
#22825132
1!
#22831088
1)
#22832792
b11 +
#23320180
0!
#23322552
0'
#23324932
b0 "
b10000100 #
#23327492
0)
#23824732
1!
#23830688
1)
#24319772
0!
#24322152
1$
1'
1(
#24324536
b11 "
b10010100 #
#24327084
0)
#24328784
0,
#24824336
1!
#24826712
b10110110 "
#24830352
1)
b10110110 *
#24839464
0'
#25318864
0!
0(
#25321412
b100 "
b10100100 #
0$
#25325836
0)
#25327704
b100 +
1,
#25823592
1!
#25830736
1)
#26318632
0!
#26321012
b0 "
b10000100 #
#26326284
0)
#26823192
1!
#26829316
1)
#27318236
0!
1$
1'
1(
#27320612
b10110110 "
b10010100 #
#27324868
0)
#27326736
0,
#27412412
0'
#27820412
1!
#27825512
b11010 "
#27829832
1)
b11010 *
#28316048
0!
#28318512
b101 "
b10100100 #
0$
0(
#28324212
0)
#28325996
b101 +
1,
#28820692
1!
#28827580
1)
#28925412
1'
#29315732
0!
0'
#29318112
b0 "
b10000100 #
#29323812
0)
#29820292
1!
#29827180
1)
#30315336
0!
1'
1(
#30317712
b11010 "
b10010100 #
1$
#30323416
0)
#30325196
0,
#30440964
0'
#30818108
1!
#30820572
b1000000 "
#30826848
1)
b1000000 *
#31313572
0!
#31316040
0$
0(
#31318504
b110 "
b10100100 #
#31323012
0)
#31324804
b110 +
1,
#31818308
1!
#31826380
1)
#32313344
0!
#32315724
b0 "
b10000100 #
#32322612
0)
#32817904
1!
#32825988
1)
#32929764
1'
#33312944
0!
1(
#33315324
b1000000 "
b10010100 #
1$
#33322212
0)
#33323996
0,
#33542104
0'
#33815720
1!
#33820648
b0 "
#33825652
1)
b0 *
#34313308
0!
0$
1'
0(
#34315688
b111 "
b10100100 #
#34321980
0)
#34323680
b111 +
1,
#34815488
1!
#34825180
1)
#35310528
0!
#35312908
0'
#35315296
b0 "
b10000100 #
#35321588
0)
#35815088
1!
#35824780
1)
#36310128
0!
1'
1(
#36312508
b10010100 #
1$
#36319480
0)
#36321180
0,
#36521948
0'
#36814688
1!
#36824448
1)
#37309728
0!
0$
0(
#37312116
b1000 "
b10100100 #
#37319080
0)
#37320780
b1000 +
1,
#37814288
1!
#37823980
1)
#38309328
0!
1'
#38311708
b0 "
b10000100 #
0'
#38318688
0)
#38811508
1!
#38823588
1)
#39308936
0!
1$
1'
1(
#39311308
b10010100 #
#39318288
0)
#39319980
0,
#39580256
0'
#39811108
1!
1'
#39813488
b11011101 "
#39821548
1)
b11011101 *
#40308188
0!
0(
#40310740
b1001 "
b10100100 #
0$
#40318900
0)
#40320776
b1001 +
1,
#40810540
1!
#40821932
1)
#41305580
0!
#41307960
0'
#41310340
b0 "
b10000100 #
#41317480
0)
#41810140
1!
#41820512
1)
#42305180
0!
#42307560
1$
1'
1(
#42309940
b11011101 "
b10010100 #
#42317932
0)
#42319800
0,
#42809740
1!
#42812288
b11111111 "
#42821028
1)
b11111111 *
#43304440
0!
0(
#43306988
b1010 "
b10100100 #
0$
0'
#43316512
0)
#43318380
b1010 +
1,
#43807384
1!
#43820824
1)
#44302848
0!
#44305312
b0 "
b10000100 #
1'
#44307692
0'
#44315436
0)
#44807492
1!
#44819820
1)
#45302532
0!
#45304916
1$
1'
1(
#45307296
b11111111 "
b10010100 #
#45316392
0)
#45318344
0,
#45807092
1!
#45818892
1)
#46301800
0!
#46304344
0$
0(
#46306900
b1011 "
b10100100 #
#46315396
0)
#46317356
b1011 +
1,
#46804824
1!
#46817832
1)
#47302752
0!
0'
#47305220
b0 "
b10000100 #
#47314400
0)
#47805024
1!
#47818792
1)
#48300060
0!
1(
#48302440
b11111111 "
b10010100 #
1$
1'
#48313404
0)
#48315360
0,
#48804788
1!
#48817868
1)
#49299488
0!
0$
0'
0(
#49302040
b1100 "
b10100100 #
#49312416
0)
#49314364
b1100 +
1,
#49802436
1!
#49816800
1)
#50297900
0!
#50300364
1'
#50302828
b0 "
b10000100 #
0'
#50313372
0)
#50802628
1!
#50815808
1)
#51297668
0!
#51300048
1$
1'
1(
#51302428
b11111111 "
b10010100 #
#51312384
0)
#51314336
0,
#51802228
1!
#51814876
1)
#52296928
0!
0(
#52299480
b1101 "
b10100100 #
0$
#52311380
0)
#52313336
b1101 +
1,
#52799872
1!
#52815772
1)
#53297808
0!
b0 "
b10000100 #
0'
#53310388
0)
#53799984
1!
#53814776
1)
#54295024
0!
#54297404
1$
1'
1(
#54299784
b11111111 "
b10010100 #
#54311348
0)
#54313300
0,
#54799584
1!
#54813848
1)
#55294284
0!
#55296832
0$
0'
0(
#55299384
b1110 "
b10100100 #
#55310352
0)
#55312308
b1110 +
1,
#55797320
1!
#55812792
1)
#56295244
0!
1'
#56297708
b0 "
b10000100 #
0'
#56309364
0)
#56797508
1!
#56813748
1)
#57292548
0!
#57294928
b11111111 "
b10010100 #
1$
1'
1(
#57308360
0)
#57310316
0,
#57797280
1!
#57812824
1)
#58291980
0!
0(
#58294528
b1111 "
b10100100 #
0$
#58307372
0)
#58309328
b1111 +
1,
#58794924
1!
#58811756
1)
#59292856
0!
0'
#59295324
b0 "
b10000100 #
#59308324
0)
#59795120
1!
#59810760
1)
#60290160
0!
#60292540
1$
1'
1(
#60294920
b11111111 "
b10010100 #
#60307332
0)
#60309292
0,
#60794720
1!
#60811788
1)
#61289420
0!
0(
#61291968
b10000 "
b10100100 #
0$
0'
#61306336
0)
#61308292
b10000 +
1,
#61792364
1!
#61810728
1)
#62290292
0!
b0 "
b10000100 #
1'
#62292672
0'
#62305340
0)
#62792472
1!
#62809736
1)
#63287512
0!
#63289900
1$
1'
1(
#63292272
b11111111 "
b10010100 #
#63306300
0)
#63308256
0,
#63792072
1!
#63808804
1)
#64110824
0!
0$
0(
#64113372
b10001 "
b10100100 #
#64127400
0)
#64129356
b10001 +
1,
