periphery/test_19_jan/merged_13.vcd
$date 2026-01-19 20:08:02 $end
$timescale 1 us $end
$scope module debug $end
$var logic 1 ! clk $end
$var logic 8 " data $end
$var logic 8 # state $end
$var logic 1 $ pcinc $end
$var logic 1 % not_scclear $end
$var logic 1 & not_instread $end
$var logic 1 ' not_enable $end
$var logic 1 ( direction $end
$upscope $end
$scope module interface $end
$var logic 1 ) clk $end
$var logic 8 * data $end
$var logic 16 + address $end
$var logic 1 , not_read $end
$var logic 1 - not_write $end
$upscope $end
$enddefinitions $end
#0
$dumpvars
1!
b0 "
b10000111 #
0$
1%
1&
0'
0(
1)
b11111111 *
b0 +
1,
1-
$end
#78544
0)
#80328
0!
#180284
1)
#181304
1!
#278456
0)
#279992
0!
#380204
1)
#380972
1!
#478376
0)
#479656
0!
#580128
1)
#580892
1!
#678296
0)
#680852
0!
#780044
1)
#780812
1!
#878224
0)
#880772
0!
#979964
1)
#980732
1!
#1078140
0)
#1080696
0!
#1179884
1)
#1180652
1!
#1278060
0)
#1280612
0!
#1379804
1)
#1380572
1!
#1477980
0)
#1480532
0!
#1549376
b11111101 *
#1579728
1)
#1580492
1!
#1581508
b11111111 *
#1677904
0)
#1679768
b11111001 *
#1680452
0!
#1748960
b11110001 *
#1769528
b11010001 *
#1778880
1)
#1780412
1!
#1780748
b11111111 *
#1877988
0)
#1879856
b11000001 *
#1880376
0!
#1978976
1)
#1980332
1!
#1980840
b11111101 *
#2077912
0!
#2078080
0)
#2079948
b11000001 *
#2179060
1)
#2180252
1!
#2277832
0!
#2278168
0)
#2280044
b11000000 *
#2379148
1)
#2380176
1!
#2381016
b11000001 *
#2477752
0!
#2478256
0)
#2480128
b0 *
#2578728
1)
#2580092
1!
#2580428
b11000001 *
#2677668
0)
#2677672
0!
#2679540
b0 *
