periphery/test_19_jan/merged_5.vcd
$date 2026-01-19 19:02:41 $end
$timescale 1 us $end
$scope module debug $end
$var logic 1 ! clk $end
$var logic 8 " data $end
$var logic 8 # state $end
$var logic 1 $ pcinc $end
$var logic 1 % not_scclear $end
$var logic 1 & not_instread $end
$var logic 1 ' not_enable $end
$var logic 1 ( direction $end
$upscope $end
$scope module interface $end
$var logic 1 ) clk $end
$var logic 8 * data $end
$var logic 16 + address $end
$var logic 1 , not_read $end
$var logic 1 - not_write $end
$upscope $end
$enddefinitions $end
#0
$dumpvars
1!
b0 "
b10000010 #
0$
1%
1&
1'
0(
1)
b0 *
b0 +
1,
1-
$end
#144584
0!
#145348
0)
#649228
1)
#649484
1!
#1145032
0)
#1145204
0!
#1647808
1!
#1648916
1)
#2143528
0!
#2144720
0)
#2646140
1!
#2648600
1)
#3141852
0!
#3144412
0)
#3646668
1)
#3646752
1!
#4142476
0!
#4143492
0)
#4645080
1!
#4646700
1)
#5140800
0!
#5143096
0)
#5645700
1!
#5646296
1)
#5834992
0!
#5836692
0)
#9138092
b100000 *
#9197000
b10100000 *
#9198868
b11100000 *
#9210088
b100000 *
#9217228
b1100000 *
#9220804
b1100010 *
#9227944
b100000 *
#9236864
b1100010 *
#9247580
b100010 *
#9249360
b100000 *
#9256500
b100010 *
#9258284
b1100010 *
#9267208
b100000 *
#9277920
b1100000 *
#9286844
b100000 *
#9297560
b11100000 *
#9306912
b10100000 *
#9318128
b11100000 *
#9325604
b1100000 *
#9327396
b100000 *
#9338100
b1100000 *
#9345240
b100000 *
#9496964
b1100000 *
#9504104
b100000 *
#9514820
b1100000 *
#9518384
b1100010 *
#9523740
b100000 *
#9534448
b1100000 *
#9538020
b1100010 *
#9543380
b100010 *
#9545160
b100000 *
#9554084
b10100000 *
#9555952
b11100000 *
#9563436
b10100000 *
#9574656
b10100100 *
#9656936
b10100110 *
#9714904
b10110110 *
#9746696
b11110110 *
#9815892
b11110111 *
#9823364
b11110110 *
#9834584
b11110111 *
#9843936
b11110110 *
#9855156
b11110111 *
#9862632
b11110110 *
#9875724
b11110111 *
#9883204
b11110110 *
#9894424
b11110111 *
#9901908
b11110110 *
#9914996
b11110111 *
#9922476
b11110110 *
#9935572
b11110111 *
#9943044
b11110110 *
#9956140
b11110111 *
#9961744
b11110110 *
#9974836
b11110111 *
#9982312
b11110110 *
#9993536
b11110111 *
#10002884
b11110110 *
#10012232
b11110111 *
#10021592
b11110110 *
#10032812
b11110111 *
#10042160
b11110110 *
#10051504
b11110111 *
#10062724
b11110110 *
#10072072
b11110111 *
#10083296
b11110110 *
#10090776
b11110111 *
#10103864
b11110110 *
#10109476
b11110111 *
#10124432
b11110110 *
#10130044
b11110111 *
#10143132
b11110110 *
#10150620
b11110111 *
#10161840
b11110110 *
#10169316
b11110111 *
#10182408
b11110110 *
#10189884
b11110111 *
#10202980
b11110110 *
#10208584
b11110111 *
#10223544
b11110110 *
#10229156
b11110111 *
#10240372
b11110110 *
#10259076
b11110100 *
#10281512
b11100100 *
#10289000
b11110100 *
#10300220
b11100100 *
#10309564
b11110100 *
#10320784
b11100100 *
#10332012
b11110100 *
#10339484
b11100100 *
#10352576
b11110100 *
#10360056
b11100100 *
#10371276
b11110100 *
#10378756
b11100100 *
#10389972
b11110100 *
#10399324
b11100100 *
#10408680
b11110100 *
#10419900
b11100100 *
#10429252
b11110100 *
#10440472
b11100100 *
#10447944
b11110100 *
#10461040
b11100100 *
#10468512
b11110100 *
#10481604
b11100100 *
#10489084
b11110100 *
#10498436
b11100100 *
#10507784
b11110100 *
#10519004
b11100100 *
#10528356
b11110100 *
#10537712
b11100100 *
#10547060
b11110100 *
#10562016
b11100100 *
#10565752
b11110100 *
#10567624
b11110110 *
#10578844
b11110100 *
#10586324
b11110110 *
#10590072
b11110111 *
#10597544
b11110110 *
#10610632
b11110111 *
#10616244
b11110110 *
#10629332
b11110111 *
#10636816
b11110110 *
#10649904
b11110111 *
#10657384
b11110110 *
#10698532
b11110100 *
#10706004
b11110110 *
#10717224
b11110100 *
#10719096
b11100100 *
#10724704
b11100110 *
#10726576
b11110110 *
#10735924
b11000100 *
#10747144
b11010110 *
#10754624
b11000100 *
#10835036
b10000100 *
#10844384
b11000100 *
#10853732
b10000100 *
#10855604
b100 *
#10864104
b10000100 *
#10865972
b11000100 *
#10873456
b10000100 *
#10875324
b100 *
#10883832
b10000100 *
#10885696
b11000100 *
#10893176
b10000100 *
#10895052
b100 *
#10903544
b10000100 *
#10905420
b11000100 *
#10912892
b10000100 *
#10916640
b100 *
#10923436
b10000100 *
#10925304
b11000100 *
#10932784
b10000100 *
#10934656
b100 *
#10944852
b10000100 *
#10946724
b11000100 *
#10954204
b100 *
#10964404
b10000100 *
#10966276
b11000100 *
#10973752
b100 *
#10983956
b10000100 *
#10985824
b11000100 *
#10993312
b10000100 *
#10995176
b100 *
#11003680
b10000100 *
#11007412
b11000100 *
#11013024
b100 *
#11023224
b10000100 *
#11026964
b11000100 *
#11032572
b10000100 *
#11034448
b100 *
#11042944
b10000100 *
#11046692
b11000100 *
#11052296
b10000100 *
#11054164
b100 *
#11064364
b10000100 *
#11073712
b100 *
#11083912
b10000100 *
#11087660
b11000100 *
#11091396
b10000100 *
#11093264
b100 *
#11103464
b10000100 *
#11107204
b11000100 *
#11110944
b10000100 *
#11112816
b100 *
#11123016
b10000100 *
#11132364
b100 *
#11144264
b10000100 *
#11151744
b100 *
#11163644
b10000100 *
#11171124
b100 *
#11184724
b10000100 *
#11192204
b100 *
#11204104
b10000100 *
#11211592
b100 *
#11223484
b10000100 *
#11230972
b100 *
#11242864
b10000100 *
#11252216
b100 *
#11262416
b10000100 *
#11271764
b100 *
#11281964
b10000100 *
#11291320
b100 *
#11301512
b10000100 *
#11310872
b100 *
#11322764
b10000100 *
#11332112
b100 *
#11342316
b10000100 *
#11351664
b100 *
#11361864
b10000100 *
#11371220
b100 *
#11381420
b10000100 *
#11390768
b100 *
#11400972
b10000100 *
#11410316
b100 *
#11420520
b10000100 *
#11431740
b100 *
#11440236
b10000100 *
#11453324
b100 *
#11460124
b10000100 *
#11473212
b100 *
#11480012
b10000100 *
#11554816
b100 *
#11558212
b10000100 *
#11573176
b100 *
#11578276
b10000100 *
#11593232
b100 *
#11598336
b10000100 *
#11613296
b100 *
#11618392
b10000100 *
#11633360
b100 *
#11638460
b10000100 *
#11653416
b100 *
#11658512
b10000100 *
#11673476
b100 *
#11678580
b10000100 *
#11693532
b100 *
#11698636
b10000100 *
#11711724
b100 *
#11718524
b10000100 *
#11731620
b100 *
#11738416
b10000100 *
#11749636
b100 *
#11758132
b10000100 *
#11769356
b100 *
#11777860
b10000100 *
#11789080
b100 *
#11797572
b10000100 *
#11810668
b100 *
#11817464
b10000100 *
#11828684
b100 *
#11837192
b10000100 *
#11848412
b100 *
#11856904
b10000100 *
#11868124
b100 *
#11878324
b10000100 *
#11887672
b100 *
#11897876
b10000100 *
#11907224
b100 *
#11917424
b10000100 *
#11926776
b100 *
#11936976
b10000100 *
#11946324
b100 *
#11958224
b10000100 *
#11967572
b100 *
#11977772
b10000100 *
#11987124
b100 *
#11999032
b10000100 *
#12006504
b100 *
#12018408
b10000100 *
#12025884
b100 *
#12039484
b10000100 *
#12045100
b100 *
#12060400
b10000100 *
#12066004
b100 *
#12079604
b10000100 *
#12085212
b100 *
#12100512
b10000100 *
#12104252
b100 *
#12119552
b10000100 *
#12125164
b100 *
#13877864
b0 *
#13881264
b100 *
#13916972
b0 *
#13922072
b100 *
#13937372
b0 *
#13942472
b100 *
#14035964
b0 *
#14041064
b100 *
#14054664
b0 *
#14061464
b100 *
#14075064
b0 *
#14081872
b100 *
#14093764
b0 *
#14100564
b100 *
#14114164
b0 *
#14120964
b100 *
#14132864
b0 *
#14141364
b100 *
#14153264
b0 *
#14160064
b100 *
#14173664
b0 *
#14180464
b100 *
#14194064
b0 *
#14200864
b100 *
#14212772
b0 *
#14219564
b100 *
#14233164
b0 *
#14239964
b100 *
#14251872
b0 *
#14260364
b100 *
#14272272
b0 *
#14280764
b100 *
#14290964
b0 *
#14301164
b100 *
#14309664
b0 *
#14319864
b100 *
#14330064
b0 *
#14340264
b100 *
#14348764
b0 *
#14360664
b100 *
#14369164
b0 *
#14382772
b100 *
#14387872
b0 *
#14760164
b10000001 *
#14891064
b1 *
#15168172
b0 *
#17635032
1!
#17639964
1)
#18130076
0!
1(
#18132452
b10010010 #
1$
0%
#18134664
0)
#18136364
0,
#18634632
1!
#18637012
b110010 "
0&
#18639708
1)
b110011 *
#18659200
b110011 "
#19130016
0!
0$
1%
0(
#19132484
b0 "
b10000100 #
0'
#19134008
0)
#19135796
1,
#19632280
1!
#19634660
1&
#19639164
1)
#19760800
1'
#20129700
0!
0&
#20133616
0)
#20631880
1!
#20634260
1&
#20638764
1)
#21129304
0!
#21131680
b110011 "
b10011100 #
1$
1(
#21133208
0)
#21134144
b10011001 #
#21136780
0,
#21178512
0%
#21632080
1!
0&
#21636644
1)
#22127540
0!
0$
1%
0'
0(
#22130004
b0 "
b10001001 #
#22132808
0)
#22134600
1,
#22629804
1!
#22632184
1&
#22636184
1)
#23127224
0!
1$
0%
1'
1(
#23129604
b110011 "
b10011001 #
#23132408
0)
#23134192
0,
#23630000
1!
0&
#23635852
1)
#24125472
0!
0'
0(
#24127928
b0 "
b10001001 #
0$
1%
#24132008
0)
#24133792
1,
#24630108
1!
1&
#24635380
1)
#25125148
0!
1'
#25127528
b11 "
b10010001 #
#25131608
0)
#25627328
1!
#25634980
1)
#25636764
b11 +
#26124748
0!
0'
#26127128
b0 "
b10000001 #
#26131216
0)
#26626928
1!
#26634580
1)
#27124348
0!
1'
#27126728
b10001001 #
0'
#27130808
0)
#27626536
1!
#27634180
1)
#28121568
0!
#28123948
1'
#28126336
b11 "
b10010001 #
#28130408
0)
#28626128
1!
#28633784
1)
#29121168
0!
#29123548
0'
#29125928
b0 "
b10000001 #
#29130008
0)
#29625728
1!
#29633384
1)
#30120768
0!
1'
#30123148
b10001001 #
#30127832
0)
#30625328
1!
#30632980
1)
#31120368
0!
#31122748
b11 "
b10010001 #
#31127424
0)
#31622548
1!
#31632580
1)
#32119968
0!
0'
#32122348
b0 "
b10000001 #
#32127024
0)
#32622148
1!
#32630396
1)
#33119568
0!
1'
#33121948
b11 "
b10010001 #
#33126624
0)
#33621748
1!
#33630000
1)
#34116788
0!
#34119168
b10000001 #
0'
#34121548
b0 "
#34126224
0)
#34621348
1!
#34629596
1)
#35116388
0!
#35118768
b11 "
b10010001 #
1'
#35125824
0)
#35620956
1!
#35629196
1)
#36115988
0!
0'
#36118368
b0 "
b10000001 #
#36125432
0)
#36620548
1!
#36628796
1)
#37115588
0!
1'
#37117976
b10001001 #
#37120348
0'
#37125024
0)
#37617776
1!
#37628396
1)
#38115188
0!
0%
1'
1(
#38117568
b110011 "
b10011001 #
1$
#38124624
0)
#38126416
0,
#38617964
1!
#38620428
b11111111 "
0&
#38628068
1)
b11111111 *
#39112580
0!
#39115128
0$
1%
0(
#39117680
b10000100 #
0'
#39120228
b1111110 "
#39123544
0)
#39125412
1,
#39467036
b1111100 "
#39474680
b1111110 "
#39477228
b1111100 "
#39479780
b1111110 "
#39482328
b1111100 "
#39495080
b1111110 "
#39500180
b1111100 "
#39515480
b1111110 "
#39518028
b1111100 "
#39520580
b1111110 "
#39523128
b1111100 "
#39533328
b1111110 "
#39538428
b1111100 "
#39553728
b1111110 "
#39558828
b1111100 "
#39561380
b111100 "
#39563844
b111110 "
#39566308
b111100 "
#39576168
b111110 "
#39578636
b111100 "
#39581100
b111110 "
#39586028
b111100 "
#39593424
b111110 "
#39598352
b111100 "
#39615616
b111110 "
#39618072
1!
b111100 "
1&
#39626580
1)
#39650120
b111110 "
#39652584
b111100 "
#39709280
b111000 "
#39711744
b111110 "
#39714208
b111000 "
#39790628
b11000 "
#39798020
b11010 "
#39800484
b111000 "
#39802956
b11000 "
#39810344
b11110 "
#39812808
b11010 "
#39815280
b11000 "
#39820204
b111000 "
#39822668
b11000 "
#39830064
b11110 "
#39832528
b11010 "
#39842388
b11000 "
#39852248
b11010 "
#39857184
b11000 "
#39869508
b11110 "
#39871968
b11000 "
#39881836
b11010 "
#39884292
b11000 "
#39891688
b11010 "
#39904012
b10000 "
#39906480
b11010 "
#39908944
b11110 "
#39911408
b11010 "
#39921268
b10000 "
#39931128
b11110 "
#39936064
b10010 "
#39938524
b11000 "
#39940988
b10000 "
#39950848
b11110 "
#39953312
b11010 "
#39958244
b11110 "
#39960708
b10000 "
#39968104
b10100 "
#39970568
b11110 "
#39975500
b10010 "
#39980428
b10000 "
#39987824
b11100 "
#39990296
b11110 "
#39995220
b10010 "
#39997684
b11010 "
#40002620
b10010 "
#40005080
b10000 "
#40007544
b10010 "
#40010008
b11110 "
#40014944
b11010 "
#40017404
b10010 "
#40019868
b11110 "
#40022332
b10000 "
#40029728
b11010 "
#40032192
b11110 "
#40037124
b10000 "
#40046984
b10110 "
#40049448
b10000 "
#40051912
b11110 "
#40054380
b10000 "
#40061772
b11110 "
#40064240
b10000 "
#40066704
b10100 "
#40069176
b10000 "
#40071636
b11110 "
#40076564
b11010 "
#40079028
b11110 "
#40081500
b10000 "
#40086424
b10100 "
#40088888
b10000 "
#40093824
b10010 "
#40096284
b11010 "
#40098748
b10000 "
#40106144
b10100 "
#40108608
b10000 "
#40111072
b11110 "
#40113540
0!
b10000 "
1'
#40116004
b11110 "
#40118468
b10000 "
#40122132
0)
#40133260
b11110 "
#40135728
b11010 "
#40138188
b10000 "
#40145584
b11000 "
#40148056
b10100 "
#40150512
b10010 "
#40155444
b11000 "
#40157908
b10010 "
#40160380
b10000 "
#40165304
b10100 "
#40167768
b10000 "
#40170232
b11110 "
#40172700
b10110 "
#40175164
b10010 "
#40177628
b10000 "
#40180092
b10010 "
#40182560
b10000 "
#40187488
b11100 "
#40189952
b10000 "
#40197348
b10010 "
#40199812
b10000 "
#40204744
b11000 "
#40207208
b10000 "
#40209672
b11110 "
#40212140
b10010 "
#40214612
b10000 "
#40229392
b11110 "
#40234324
b10000 "
#40236788
b10010 "
#40239256
b11110 "
#40241720
b10000 "
#40244184
b11000 "
#40246648
b10000 "
#40249116
b10010 "
#40254044
b10000 "
#40268840
b11110 "
#40276228
b10000 "
#40278692
b11110 "
#40281164
b10000 "
#40283624
b11000 "
#40286088
b10000 "
#40288552
b10010 "
#40293488
b10000 "
#40295948
b10110 "
#40298412
b11110 "
#40300880
b10000 "
#40305808
b11000 "
#40308276
b10000 "
#40313204
b10010 "
#40315668
b10000 "
#40318132
b11110 "
#40320600
b10000 "
#40330460
b11110 "
#40335396
b10000 "
#40337852
b11110 "
#40340320
b10000 "
#40345248
b10010 "
#40347720
b10000 "
#40355108
b10110 "
#40357572
b10000 "
#40360044
b10010 "
#40364968
b10000 "
#40367432
b11110 "
#40372364
b10110 "
#40377292
b10010 "
#40379760
b10000 "
#40387156
b11110 "
#40389620
b10010 "
#40392084
b11110 "
#40394548
b10110 "
#40397012
b10000 "
#40406872
b11110 "
#40414276
b10110 "
#40416732
b10010 "
#40419200
b10000 "
#40426600
b11010 "
#40429060
b11110 "
#40431524
b10000 "
#40433988
b10110 "
#40436452
b10000 "
#40438920
b10010 "
#40441384
b10000 "
#40446312
b11110 "
#40448780
b10000 "
#40451244
b10010 "
#40453708
b10110 "
#40456172
b10010 "
#40458640
b11110 "
#40461104
b10000 "
#40466032
b11000 "
#40468504
b11110 "
#40470964
b10000 "
#40475892
b11110 "
#40478360
b10110 "
#40480832
b10000 "
#40485752
b10110 "
#40493156
b10100 "
#40495612
b11110 "
#40498080
b10000 "
#40503008
b10010 "
#40507940
b11110 "
#40510404
b10000 "
#40515332
b10100 "
#40517800
b10000 "
#40525192
b10010 "
#40527660
b11110 "
#40532588
b11000 "
#40535060
b10000 "
#40547384
b11110 "
#40552308
b10010 "
#40554772
b11100 "
#40557240
b10110 "
#40559708
b10000 "
#40572032
b10110 "
#40574492
b10000 "
#40576960
b10010 "
#40581888
b10000 "
#40586820
b11110 "
#40591748
b10000 "
#40606540
b11110 "
#40609004
b10010 "
#40613940
b10000 "
#40616400
1!
#40621328
b11110 "
#40623792
b10010 "
#40626264
b11110 "
#40627032
1)
#40631188
b10000 "
#40641048
b10110 "
#40645980
b10010 "
#40650908
b10000 "
#40663232
b10110 "
#40665700
b11110 "
#40670628
b10000 "
#40682952
b10110 "
#40685420
b10010 "
#40690348
b10000 "
#40692820
b11000 "
#40695280
b10000 "
#40702672
b10110 "
#40705144
b10000 "
#40707604
b10010 "
#40710068
b11010 "
#40712532
b11000 "
#40715000
b10000 "
#40722392
b10010 "
#40724860
b10000 "
#40747048
b10010 "
#40749508
b10000 "
#40751972
b11000 "
#40754440
b10000 "
#40764300
b10010 "
#40766764
b10000 "
#40769228
b10010 "
#40771700
b10000 "
#40793880
b10010 "
#40798808
b10000 "
#40806204
b10010 "
#40811132
b10000 "
#40823460
b10010 "
#40828388
b10110 "
#40830852
b10000 "
#40835784
b10010 "
#40838256
b10000 "
#40843180
b10100 "
#40845644
b10010 "
#40848108
b10000 "
#40850572
b11010 "
#40853040
b10000 "
#40865364
b10010 "
#40867828
b10000 "
#40870292
b10010 "
#40872760
b10000 "
#40875224
b10010 "
#40880160
b10000 "
#40882620
b10010 "
#40892484
b10000 "
#40894944
b10010 "
#40897408
b10000 "
#40902340
b10010 "
#40907268
b10000 "
#40912200
b10110 "
#40914664
b10000 "
#40919592
b11000 "
#40922060
b10000 "
#40924524
b10110 "
#40929452
b10100 "
#40931920
b10000 "
#40944244
b11110 "
#40949172
b10110 "
#40951640
b10000 "
#40954104
b10010 "
#40956568
b10000 "
#40968896
b10010 "
#40978752
b10000 "
#40983684
b11110 "
#40986148
b10110 "
#40988612
b10100 "
#40991080
b10000 "
#41003404
b11110 "
#41005868
b10010 "
#41008332
b10000 "
#41023124
b11110 "
#41028056
b10000 "
#41042844
b10010 "
#41052704
b10000 "
#41060100
b10110 "
#41062564
b11110 "
#41065028
b10110 "
#41067492
b10010 "
#41069960
b11100 "
#41072424
b10000 "
#41079820
b10010 "
#41082284
b10110 "
#41084748
b11110 "
#41087212
b10000 "
#41089680
b11100 "
#41092152
b10000 "
#41099540
b10110 "
#41102004
b11110 "
#41106932
b10000 "
#41111864
0!
#41114328
b11110 "
#41119260
b10110 "
#41121724
b10000 "
#41122580
0)
#41124188
b10010 "
#41126652
b10000 "
#41131584
b10010 "
#41134048
b10000 "
#41141444
b10010 "
#41143908
b10110 "
#41146372
b10000 "
#41148840
b10010 "
#41151304
b10000 "
#41158704
b10010 "
#41161164
b11100 "
#41163628
b10110 "
#41166092
b10010 "
#41168560
b11000 "
#41173488
b10000 "
#41178420
b10110 "
#41180884
b10010 "
#41183356
b11110 "
#41185812
b11010 "
#41188280
b10000 "
#41190744
b10010 "
#41193208
b10000 "
#41198140
b10110 "
#41200604
b10000 "
#41203068
b11110 "
#41205532
b10010 "
#41208000
b10000 "
#41217860
b10110 "
#41220324
b11000 "
#41222788
b10010 "
#41227720
b10000 "
#41237584
b10110 "
#41242508
b11110 "
#41244972
b10110 "
#41247440
b11010 "
#41249912
b11000 "
#41252368
b10000 "
#41257300
b10010 "
#41259764
b10110 "
#41262228
b10010 "
#41274552
b10000 "
#41277020
b10010 "
#41281948
b10000 "
#41286880
b11110 "
#41289344
b10000 "
#41299204
b11100 "
#41301668
b10010 "
#41309064
b10000 "
#41318924
b10010 "
#41323852
b11110 "
#41326320
b10010 "
#41328784
b10000 "
#41331248
b10010 "
#41333712
b10000 "
#41336180
b10010 "
#41338644
b10000 "
#41341108
b11110 "
#41346040
b10000 "
#41348504
b10110 "
#41350968
b10000 "
#41355900
b10110 "
#41358368
b11000 "
#41360828
b11110 "
#41365760
b10100 "
#41368224
b10000 "
#41375620
b11110 "
#41378084
b10000 "
#41380548
b11110 "
#41385480
b10100 "
#41387944
b10110 "
#41390408
b10000 "
#41400268
b11110 "
#41405200
b10000 "
#41407664
b10110 "
#41410128
b10000 "
#41417524
b11010 "
#41419988
b11110 "
#41424924
b11100 "
#41427384
b10110 "
#41429848
b10000 "
#41439708
b10010 "
#41444640
b10000 "
#41447104
b11100 "
#41449576
b10010 "
#41454500
b10000 "
#41456964
b10010 "
#41459428
b11110 "
#41466824
b10100 "
#41469288
b11110 "
#41471752
b10000 "
#41479148
b11110 "
#41484080
b10000 "
#41486544
b10010 "
#41489008
b10000 "
#41496404
b10010 "
#41498868
b11110 "
#41501332
b10000 "
#41506264
b11110 "
#41511196
b10000 "
#41518588
b11110 "
#41521052
b10000 "
#41525984
b11100 "
#41528448
b11110 "
#41530912
b10000 "
#41538308
b11110 "
#41543240
b11000 "
#41545704
b10000 "
#41548168
b10010 "
#41550632
b10000 "
#41555564
b10010 "
#41558036
b10110 "
#41560496
b10010 "
#41562960
b10000 "
#41565424
b10010 "
#41570360
b10000 "
#41575284
b10110 "
#41577748
b10000 "
#41580212
b11110 "
#41585144
b10000 "
#41587608
b10110 "
#41590072
b10000 "
#41595008
b10010 "
#41597468
b11110 "
#41599932
b10010 "
#41604864
b11000 "
#41607328
b11010 "
#41609796
b10000 "
#41614724
1!
#41617188
b11010 "
#41619652
b11110 "
#41624584
b10000 "
#41625604
1)
#41639372
b11110 "
#41641840
b10010 "
#41644304
b10000 "
#41664024
b10010 "
#41668952
b10000 "
#41686208
b10010 "
#41688672
b10000 "
#41696068
b11000 "
#41698532
b10010 "
#41705928
b10000 "
#41725648
b10110 "
#41728120
b10000 "
#41757692
b10010 "
#41760160
b10000 "
#41774948
b11010 "
#41777412
b10000 "
#41784808
b10100 "
#41787272
b10000 "
#41797132
b10010 "
#41802064
b10100 "
#41804528
b10000 "
#41806992
b10010 "
#41809460
b10000 "
#41814388
b11000 "
#41816852
b10000 "
#41826712
b10010 "
#41829180
b10000 "
#41834108
b10010 "
#41841504
b10000 "
#41843968
b11100 "
#41846432
b10010 "
#41851364
b10000 "
#41853828
b10010 "
#41858760
b10000 "
#41861228
b10010 "
#41863688
b10000 "
#41873548
b10010 "
#41876012
b10000 "
#41878480
b10010 "
#41883408
b11100 "
#41885876
b10000 "
#41888340
b10010 "
#41890804
b10000 "
#41893268
b10110 "
#41895732
b10010 "
#41903136
b11000 "
#41905592
b10010 "
#41908060
b10000 "
#41912988
b10110 "
#41915460
b11110 "
#41917920
b10010 "
#41922848
b10000 "
#41932708
b10110 "
#41935172
b11000 "
#41937640
b10010 "
#41940104
b10000 "
#41952428
b10100 "
#41954892
b10110 "
#41957360
b10010 "
#41964752
b10000 "
#41974612
b11110 "
#41977080
b10000 "
#41984472
b10010 "
#41986940
b10000 "
#41994340
b11010 "
#41996800
b10010 "
#42004192
b10000 "
#42014056
b10010 "
#42016520
b10000 "
#42021448
b10010 "
#42023916
b10110 "
#42026380
b10000 "
#42038704
b10110 "
#42041168
b10010 "
#42043632
b10000 "
#42055960
b10110 "
#42060896
b10000 "
#42070748
b10010 "
#42075680
b10000 "
#42083072
b10110 "
#42088004
b10000 "
#42090468
b10010 "
#42092932
b11000 "
#42095400
b10110 "
#42097864
b10010 "
#42100328
b10000 "
#42110188
0!
#42112652
b11110 "
#42117584
b10110 "
#42120048
b10100 "
#42121152
0)
#42124980
b10000 "
#42139776
b10100 "
#42142232
b11100 "
#42144700
b10010 "
#42147164
b10000 "
#42157024
b10010 "
#42159488
b11000 "
#42161952
b10000 "
#42169348
b10110 "
#42171812
b10000 "
#42174280
b10010 "
#42181680
b10000 "
#42191532
b10110 "
#42194004
b10010 "
#42196464
b10110 "
#42198928
b10010 "
#42201392
b10000 "
#42208788
b10100 "
#42211252
b10110 "
#42213720
b10010 "
#42218648
b10000 "
#42243300
b10110 "
#42245764
b10000 "
#42250692
b10010 "
#42253160
b11010 "
#42255624
b10110 "
#42258088
b10000 "
#42260560
b11010 "
#42263020
b10010 "
#42265484
b10000 "
#42270412
b10100 "
#42272884
b11110 "
#42275344
b10010 "
#42277808
b10110 "
#42280276
b10010 "
#42282740
b10100 "
#42285204
b10000 "
#42292600
b10010 "
#42295064
b10110 "
#42297528
b10010 "
#42299992
b10000 "
#42312320
b10010 "
#42314792
b10110 "
#42317248
b10000 "
#42319716
b10010 "
#42322180
b10000 "
#42324644
b10010 "
#42327116
b10000 "
#42332040
b11110 "
#42334504
b10000 "
#42336968
b10010 "
#42339440
b10000 "
#42351760
b10010 "
#42354224
b10000 "
#42359152
b10110 "
#42361620
b10010 "
#42364084
b10000 "
#42371480
b10110 "
#42373944
b10000 "
#42388732
b11000 "
#42391200
b10010 "
#42393672
b11110 "
#42396128
b10010 "
#42398592
b10000 "
#42410920
b10010 "
#42413384
b11110 "
#42415848
b10110 "
#42418312
b10000 "
#42423244
b10110 "
#42425708
b10000 "
#42430640
b10110 "
#42433104
b11110 "
#42435568
b10110 "
#42438032
b11100 "
#42442964
b10000 "
#42452824
b10110 "
#42455288
b10010 "
#42457756
b11110 "
#42460224
b10000 "
#42462684
b11110 "
#42465148
b10010 "
#42467612
b10000 "
#42472552
b10110 "
#42475008
b11110 "
#42477472
b10000 "
#42487332
b10100 "
#42489800
b10000 "
#42492264
b11110 "
#42499660
b10110 "
#42502124
b10000 "
#42509520
b10100 "
#42511984
b11110 "
#42516912
b10000 "
#42519380
b10010 "
#42521844
b10000 "
#42526780
b11100 "
#42529240
b10000 "
#42531704
b11110 "
#42539104
b10010 "
#42541564
b10000 "
#42546492
b11100 "
#42548960
b10000 "
#42551424
b11110 "
#42556352
b10000 "
#42558820
b10110 "
#42561284
b10010 "
#42566212
b10000 "
#42568680
b11100 "
#42571144
b10000 "
#42578540
b10010 "
#42581012
b10000 "
#42590864
b10010 "
#42595796
b10110 "
#42600724
b10010 "
#42603188
b10000 "
#42610584
b11110 "
#42615512
1!
b10000 "
#42617984
b10010 "
#42620444
b10000 "
#42626056
1)
#42630304
b11110 "
#42635232
b10000 "
#42637700
b10110 "
#42640164
b10000 "
#42650024
b11110 "
#42652488
b10010 "
#42654956
b10000 "
#42657420
b10100 "
#42659892
b10000 "
#42667280
b10010 "
#42669744
b10000 "
#42672216
b10010 "
#42674672
b10000 "
#42677140
b10100 "
#42679604
b10000 "
#42687000
b10010 "
#42691928
b11110 "
#42694392
b10000 "
#42696860
b11100 "
#42699324
b10000 "
#42709184
b10010 "
#42714112
b10000 "
#42751096
b10010 "
#42756020
b11010 "
#42758484
b10000 "
#42770808
b10010 "
#42773272
b10000 "
#42785600
b10100 "
#42788064
b10000 "
#42795460
b10010 "
#42800388
b10000 "
#42827504
b11000 "
#42829968
b10010 "
#42834900
b10000 "
#42837364
b10110 "
#42839828
b10000 "
#42847224
b10010 "
#42854620
b10000 "
#42864480
b11010 "
#42866944
b10000 "
#42874340
b10100 "
#42876804
b10000 "
#42889128
b10110 "
#42894060
b10100 "
#42898988
b10000 "
#42906384
b11010 "
#42908848
b10110 "
#42913780
b10000 "
#42916244
b10100 "
#42918708
b10000 "
#42923640
b10010 "
#42926108
b10000 "
#42928568
b10010 "
#42933500
b10000 "
#42948288
b11110 "
#42950760
b10010 "
#42955684
b11100 "
#42958148
b10010 "
#42960612
b10000 "
#42965544
b10110 "
#42968008
b11110 "
#42972940
b10000 "
#42977868
b10110 "
#42980336
b10000 "
#42985264
b10110 "
#42987728
b11110 "
#42992664
b10010 "
#42995124
b10110 "
#42997588
b10000 "
#43004988
b10110 "
#43007448
b11110 "
#43012380
b10010 "
#43014844
b11010 "
#43017316
b11110 "
#43019772
b10000 "
#43027168
b11110 "
#43029632
b10010 "
#43032100
b10000 "
#43037028
b10110 "
#43039492
b10000 "
#43049352
b10110 "
#43051820
b10000 "
#43069072
b10010 "
#43071544
b10000 "
#43074004
b10010 "
#43076468
b11110 "
#43078932
b10000 "
#43098652
b10010 "
#43101120
b10000 "
#43106048
b10010 "
#43108512
b11110 "
#43110980
0!
b10000 "
#43113444
b11110 "
#43118372
b10000 "
#43121604
0)
#43123304
b11000 "
#43125768
b10000 "
#43145488
b10110 "
#43147952
b10000 "
#43155348
b11110 "
#43157812
b10000 "
#43165208
b10110 "
#43167672
b11110 "
#43170140
b10010 "
#43172604
b10100 "
#43175068
b10000 "
#43182464
b10010 "
#43189860
b10000 "
#43192324
b11100 "
#43194788
b11000 "
#43197252
b10000 "
#43202184
b10100 "
#43204656
b10110 "
#43207112
b10010 "
#43212044
b11110 "
#43214508
b11000 "
#43216980
b10000 "
#43224368
b10010 "
#43231764
b10000 "
#43234228
b10010 "
#43241624
b10000 "
#43244088
b11110 "
#43249020
b10110 "
#43251484
b10000 "
#43253948
b10110 "
#43256416
b10010 "
#43258880
b10000 "
#43261344
b10010 "
#43263808
b10100 "
#43266272
b10010 "
#43271208
b10110 "
#43273668
b10010 "
#43276132
b10000 "
#43281064
b11000 "
#43283536
b10000 "
#43285996
b10010 "
#43290924
b10000 "
#43293388
b10010 "
#43295860
b10000 "
#43313108
b10100 "
#43315572
b10000 "
#43320504
b11010 "
#43322968
b11000 "
#43325432
b11110 "
#43330364
b10000 "
#43335292
b11110 "
#43337764
b10000 "
#43345152
b11110 "
#43350088
b11100 "
#43352548
b10100 "
#43355012
b10000 "
#43372268
b11100 "
#43374736
b10010 "
#43379664
b10000 "
#43382128
b10010 "
#43384592
b10110 "
#43387060
b10000 "
#43389524
b11000 "
#43391988
b11110 "
#43394452
b10000 "
#43401848
b10010 "
#43404320
b11110 "
#43409244
b11000 "
#43411708
b11100 "
#43414172
b11110 "
#43416644
b10000 "
#43421568
b10010 "
#43424032
b10000 "
#43426500
b11110 "
#43428972
b10100 "
#43431428
b11000 "
#43433892
b10000 "
#43441288
b11110 "
#43443752
b11100 "
#43446220
b11110 "
#43448684
b10000 "
#43463476
b11110 "
