periphery/tests_16_jan/test_2/merged_1.vcd
$date 2026-01-16 19:08:01 $end
$timescale 1 us $end
$scope module debug $end
$var logic 1 ! clk $end
$var logic 8 " data $end
$var logic 8 # state $end
$var logic 1 $ pcinc $end
$var logic 1 % not_scclear $end
$var logic 1 & not_instread $end
$upscope $end
$scope module interface $end
$var logic 1 ' clk $end
$var logic 8 ( data $end
$var logic 16 ) address $end
$var logic 1 * not_read $end
$var logic 1 + not_write $end
$upscope $end
$enddefinitions $end
#0
$dumpvars
1!
b0 "
b10000000 #
0$
1%
1&
1'
b0 (
b0 )
1*
1+
$end
#134896
0!
#135660
0'
#639288
1!
#639540
1'
#1133900
0!
#1135348
0'
#1638292
1!
#1639228
1'
#2134860
0!
#2135032
0'
#2637296
1!
1'
#3133100
0'
#3133868
0!
#3636300
1!
#3636980
1'
#3803332
b10000000 (
#3914004
b0 (
#4132872
0!
#4133636
0'
#5238296
b10000000 (
#5639920
b0 (
#7782012
1!
#7784388
1'
#8128804
0!
#8131184
0'
#8632684
1!
#8634388
1'
#9128404
0!
#9130784
0'
#9632288
1!
#9633992
1'
#10128012
0!
#10130388
0'
#10629848
1!
#10633588
1'
#11125568
0!
#11129992
0'
#11629448
1!
#11633188
1'
#12125164
0!
#12129588
0'
#12629048
1!
#12632788
1'
#13124764
0!
#13127488
0'
#13628648
1!
#13632388
1'
#14124364
0!
#14127088
0'
#14626208
1!
#14631988
1'
#15121928
0!
#15126008
b10001000 #
#15126692
0'
#15625808
1!
#15629888
1'
#16121532
0!
#16123572
b10011000 #
1$
0%
#16125612
b10010000 #
#16126284
0'
#16127984
0*
#16625408
1!
0&
#16629624
1'
b111 (
#17121128
0!
#17123164
b10000000 #
0$
1%
#17125884
0'
#17127592
1*
#17625008
1!
1&
#17629088
1'
#18120724
0!
#18122764
b1 "
b10001000 #
#18125484
0'
#18624604
1!
#18628692
1'
#19120328
0!
1$
0%
#19122364
b0 "
b10010000 #
#19125088
0'
#19126784
0*
#19622168
1!
#19624208
0&
#19628356
1'
#20117884
0!
#20119928
0$
1%
#20121968
b10000000 #
#20124684
0'
#20126388
1*
#20621764
1!
#20623804
1&
#20627888
1'
#21117484
0!
#21121564
b10 "
b10001000 #
#21124292
0'
#21621372
1!
#21627488
1'
#22117088
0!
#22119128
1$
0%
#22121172
b0 "
b10010000 #
#22123888
0'
#22125584
0*
#22620968
1!
0&
#22623008
b111 "
#22627152
1'
#23116688
0!
0$
1%
#23118724
b0 "
b10000100 #
#23121784
0'
#23123484
1*
#23620568
1!
1&
#23626688
1'
#24116284
0!
#24118328
b11 "
b10001100 #
#24121388
0'
#24618124
1!
#24626292
1'
#25113848
0!
#25115884
b111 "
b10010100 #
1$
#25120992
0'
#25122684
0*
#25617728
1!
#25625952
1'
#26113444
0!
#26115488
b0 "
b10011100 #
0$
#26120584
0'
#26122284
b1 )
1*
#26617328
1!
#26623788
1'
#27113044
0!
#27115088
b100 "
b10100100 #
#27120188
0'
#27616932
1!
#27623388
1'
#28112644
0!
1$
0%
#28114688
b111 "
b10101100 #
#28119788
0'
#28121484
0*
#28614488
1!
#28616524
0&
#28618568
b1010 "
#28623056
1'
b1010 (
#29111568
0!
0$
1%
#29113692
b0 "
b10000111 #
#29119216
0'
#29121000
1*
#29615532
1!
1&
#29622588
1'
#30109212
0!
#30113292
b101 "
b10001111 #
#30118816
0'
#30613096
1!
#30622188
1'
#31108816
0!
#31110856
1$
#31112896
b1010 "
b10010111 #
#31118424
0'
#31120200
0*
#31612268
1!
#31621852
1'
#32109516
0!
#32111640
b10011111 #
#32118020
0'
#32119800
b10 )
#32611024
1!
#32615268
b1011 "
#32621452
1'
b110011 (
#33108264
0!
#33110392
b11111111 "
b10100111 #
0$
#33117616
0'
#33119408
1*
#33612060
1!
#33620988
1'
#34107100
0!
#34111520
b10101111 #
#34117216
0'
#34610980
1!
#34620592
1'
#35106020
0!
#35110440
b110011 "
b10110111 #
#35116816
0'
#35118600
0*
#35609816
1!
#35620252
1'
#36104940
0!
#36107064
b0 "
b10111111 #
#36114636
0'
#36116416
1*
#36608908
1!
#36619788
1'
#37104628
0!
#37106668
b111 "
b11000111 #
#37114232
0'
#37608504
1!
#37617600
1'
#38104228
0!
1$
0%
#38106268
b110011 "
b11001111 #
#38113832
0'
#38115616
0*
#38607768
1!
0&
#38617272
1'
#39102892
0!
0$
1%
#39105016
b111 "
b10000111 #
#39113432
0'
#39115216
1*
#39606856
1!
1&
#39616800
1'
#40102584
0!
#40104624
b0 "
b10001111 #
#40113032
0'
#40604416
1!
#40616400
1'
#41100136
0!
#41104216
b1000 "
b10010111 #
#41112636
0'
#41604016
1!
#41616000
1'
#42099736
0!
#42101776
1$
0%
#42103816
b110011 "
b10011111 #
#42112236
0'
#42114016
0*
#42603196
1!
#42605316
0&
#42615668
1'
#43098316
0!
#43100440
0$
1%
#43102564
b111 "
b10000111 #
#43111832
0'
#43113624
1*
#43602364
1!
#43604408
1&
#43615200
1'
#44098084
0!
#44102168
b0 "
b10001111 #
#44111432
0'
#44601972
1!
#44614808
1'
#45097684
0!
#45101772
b1001 "
b10010111 #
#45111032
0'
#45601568
1!
#45614400
1'
#46097284
0!
#46099328
b101001 "
1$
0%
#46101452
b110011 "
b10011111 #
#46110632
0'
#46112416
0*
#46600832
1!
#46602956
0&
#46614068
1'
#47095952
0!
0$
1%
#47098076
b111 "
b10000111 #
#47108444
0'
#47110236
1*
#47599916
1!
#47601956
1&
#47613600
1'
#48095636
0!
#48097676
b0 "
b10001111 #
#48108044
0'
#48597476
1!
#48611424
1'
#49093196
0!
#49097276
b1010 "
b10010111 #
#49107644
0'
#49596652
1!
#49611024
1'
#50093900
0!
1$
0%
#50096024
b110011 "
b10011111 #
#50107248
0'
#50109032
0*
#50597532
1!
0&
#50610680
1'
#51092652
0!
1%
#51094776
b111 "
b10000111 #
0$
#51106844
0'
#51108632
1*
#51596616
1!
1&
#51610216
1'
#52092336
0!
#52094376
b0 "
b10001111 #
#52106452
0'
#52594176
1!
#52609816
1'
#53089904
0!
#53093976
b1011 "
b10010111 #
#53106048
0'
#53593352
1!
#53609416
1'
#54090600
0!
0%
#54092728
b110011 "
b10011111 #
1$
#54105648
0'
#54107432
0*
#54594232
1!
0&
#54609088
1'
#55089352
0!
#55091476
b111 "
b10000111 #
0$
1%
#55105244
0'
#55107032
1*
#55593316
1!
1&
#55608616
1'
#56089036
0!
#56091076
b0 "
b10001111 #
#56104844
0'
#56590876
1!
#56608216
1'
#57086604
0!
#57088644
b1100 "
b10010111 #
#57102660
0'
#57590136
1!
#57607816
1'
#58087384
0!
1$
0%
#58089512
b110011 "
b10011111 #
#58102260
0'
#58104052
0*
#58588888
1!
#58591012
0&
#58607480
1'
#59086136
0!
0$
1%
#59088260
b111 "
b10000111 #
#59101860
0'
#59103648
1*
#59588060
1!
#59590100
1&
#59605236
1'
#60083780
0!
#60087860
b0 "
b10001111 #
#60101460
0'
#60587668
1!
#60604832
1'
#61083380
0!
#61087460
b1101 "
b10010111 #
#61101060
0'
#61586836
1!
#61604432
1'
#62081960
0!
#62084088
1$
0%
#62086212
b110011 "
b10011111 #
#62100668
0'
#62102444
0*
#62585584
1!
#62587712
0&
#62604096
1'
#63082836
0!
0$
1%
#63084960
b111 "
b10000111 #
#63100260
0'
#63102052
1*
#63584760
1!
#63586800
1&
#63603632
1'
#64080488
0!
#64084560
b0 "
b10001111 #
#64099860
0'
#64584368
1!
#64603236
1'
#65080080
0!
#65084160
b1110 "
b10010111 #
#65099460
0'
#65583536
1!
#65602836
1'
#66078660
0!
#66080788
1$
0%
#66082912
b110011 "
b10011111 #
#66099060
0'
#66100844
0*
#66582284
1!
#66584412
0&
#66602496
1'
#67079536
0!
#67081660
b111 "
b10000111 #
0$
1%
#67098660
0'
#67100448
1*
#67581460
1!
#67583500
1&
#67602032
1'
#68077188
0!
#68079228
b0 "
b10001111 #
#68096476
0'
#68581068
1!
#68601632
1'
#69076780
0!
#69078820
b1111 "
b10010111 #
#69096076
0'
#69580320
1!
#69599452
1'
#70075444
0!
#70077572
b111111 "
1$
0%
#70079696
b110011 "
b10011111 #
#70095676
0'
#70097460
0*
#70579072
1!
#70581196
0&
#70599112
1'
#71076320
0!
0$
1%
#71078448
b111 "
b10000111 #
#71095276
0'
#71097060
1*
#71578252
1!
#71580292
1&
#71598648
1'
#72073964
0!
#72078044
b0 "
b10001111 #
#72094884
0'
#72577844
1!
#72598248
1'
#73073568
0!
#73075604
b10000 "
b10010111 #
#73094476
0'
#73577112
1!
#73597848
1'
#74072232
0!
#74074356
1$
0%
#74076480
b110011 "
b10011111 #
#74094076
0'
#74095868
0*
#74575856
1!
#74577980
0&
#74597516
1'
#75070980
0!
#75073108
0$
1%
#75075236
b111 "
b10000111 #
#75093676
0'
#75095460
1*
#75575032
1!
#75577072
1&
#75597052
1'
#76070752
0!
#76074832
b0 "
b10001111 #
#76093276
0'
#76574632
1!
#76596648
1'
#77070352
0!
#77074432
b10001 "
b10010111 #
#77092876
0'
#77573812
1!
#77596248
1'
#78068932
0!
0%
#78071056
b110011 "
b10011111 #
1$
#78090692
0'
#78092484
0*
#78572556
1!
#78574680
0&
#78595912
1'
#79067680
0!
#79069812
b111 "
b10000111 #
0$
1%
#79090292
0'
#79092076
1*
#79571652
1!
#79573692
1&
#79595448
1'
#80067368
0!
#80069408
b0 "
b10001111 #
#80089892
0'
#80571244
1!
#80593260
1'
#81066968
0!
#81069008
b10010 "
b10010111 #
#81089492
0'
#81570512
1!
#81592860
1'
#82065632
0!
#82067756
b110011 "
b10011111 #
1$
0%
#82089096
0'
#82090876
0*
#82569256
1!
0&
#82592528
1'
#83064380
0!
#83066512
0$
1%
#83068632
b111 "
b10000111 #
#83088692
0'
#83090476
1*
#83568432
1!
#83570472
1&
#83592060
1'
#84064152
0!
#84068232
b0 "
b10001111 #
#84088292
0'
#84568032
1!
#84591660
1'
#85063752
0!
#85065792
b10011 "
b10010111 #
#85087892
0'
#85567292
1!
#85591268
1'
#86062416
0!
#86064540
1$
0%
#86066668
b110011 "
b10011111 #
#86087492
0'
#86089276
0*
#86566040
1!
#86568168
0&
#86590928
1'
#87061172
0!
#87063292
0$
1%
#87065416
b111 "
b10000111 #
#87087092
0'
#87088876
1*
#87565216
1!
#87567256
1&
#87590460
1'
#88060936
0!
#88065016
b0 "
b10001111 #
#88086696
0'
#88564816
1!
#88590060
1'
#89060536
0!
#89062576
b10100 "
b10010111 #
#89084504
0'
#89564076
1!
#89589660
1'
#90059200
0!
1$
0%
#90061324
b110011 "
b10011111 #
#90084104
0'
#90085892
0*
#90562824
1!
0&
#90587540
1'
#91057952
0!
#91060076
b111 "
b10000111 #
0$
1%
#91083704
0'
#91085492
1*
#91561916
1!
1&
#91587076
1'
#92057636
0!
#92059676
b0 "
b10001111 #
#92083312
0'
#92561516
1!
#92586676
1'
#93057236
0!
#93059276
b10101 "
b10010111 #
#93082912
0'
#93560776
1!
#93586276
1'
#94055900
0!
#94058024
b110011 "
b10011111 #
1$
0%
#94082508
0'
#94084296
0*
#94559528
1!
0&
#94585948
1'
#95054652
0!
#95056776
0$
1%
#95058900
b111 "
b10000111 #
#95082104
0'
#95083892
1*
#95558700
1!
1&
#95585484
1'
#96054420
0!
#96056460
b0 "
b10001111 #
#96081708
0'
#96558300
1!
#96585076
1'
#97053936
0!
#97056060
b10110 "
b10010111 #
#97081304
0'
#97555520
1!
#97583912
1'
#98052776
0!
1$
0%
#98054980
b110011 "
b10011111 #
#98079460
0'
#98081332
0*
#98556652
1!
0&
#98584428
1'
#99051692
0!
#99053900
b111 "
b10000111 #
0$
1%
#99079912
0'
#99081780
1*
#99555400
1!
1&
#99582940
1'
#100050524
0!
#100052656
b0 "
b10001111 #
#100078492
0'
#100554152
1!
#100583392
1'
#101049276
0!
#101053524
b10111 "
b10010111 #
#101552988
1!
#102048024
0!
#102050236
1$
0%
#102052448
b110011 "
b10011111 #
#102551904
1!
#102554116
0&
#103046948
0!
#103049156
0$
1%
#103051364
b111 "
b10000111 #
